QENN	1	2	0
QENN	2	3	0
QENN	3	2	0
QENN	4	2	0
QENN	5	3	0
QENN	6	2	0
QENN	7	2	0
QENN	8	1	0
QENN	9	1	0
QENN	10	3	0
QENN	11	3	0
QENN	12	1	0
QENN	13	2	0
QENN	14	2	0
QENN	15	2	0
QENN	16	3	0
QENN	17	3	0
QENN	18	3	0
QENN	19	3	0
QENN	20	2	0
QENN	21	2	0
QENN	22	3	0
QENN	23	2	0
QENN	24	2	0
QENN	25	2	0
QENN	26	2	0
QENN	27	2	0
QENN	28	3	0
QENN	29	2	0
QENN	30	2	0
QENN	31	1	0
QENN	32	2	0
QENN	33	2	0
QENN	34	3	0
QENN	35	1	0
QENN	36	3	0
QENN	37	1	0
QENN	38	3	0
QENN	39	3	0
QENN	40	2	0
QENN	41	2	0
QENN	42	2	0
QENN	43	2	0
QENN	44	3	0
QENN	45	3	0
QENN	46	2	0
QENN	47	3	0
QENN	48	1	0
QENN	49	2	0
QENN	50	2	0
QENN	51	2	0
QENN	52	3	0
QENN	53	2	0
QENN	54	2	0
QENN	55	2	0
QENN	56	2	0
QENN	57	2	0
QENN	58	3	0
QENN	59	3	0
QENN	60	3	0
QENN	61	2	0
QENN	62	3	0
QENN	63	3	0
QENN	64	2	0
QENN	65	2	0
QENN	66	2	0
QENN	67	3	0
QENN	68	2	0
QENN	69	2	0
QENN	70	2	0
QENN	71	3	0
QENN	72	2	0
QENN	73	2	0
QENN	74	1	0
QENN	75	2	0
QENN	76	3	0
QENN	77	3	0
QENN	78	3	0
QENN	79	3	0
QENN	80	2	0
QENN	81	3	0
QENN	82	2	0
QENN	83	2	0
QENN	84	3	0
QENN	85	3	0
QENN	86	2	0
QENN	87	3	0
QENN	88	3	0
QENN	89	2	0
QENN	90	2	0
QENN	91	2	0
QENN	92	3	0
QENN	93	2	0
QENN	94	3	0
QENN	95	3	0
QENN	96	2	0
QENN	97	3	0
QENN	98	3	0
QENN	99	3	0
QENN	100	3	0
QENN	101	2	0
QENN	102	1	0
QENN	103	2	0
QENN	104	2	0
QENN	105	3	0
QENN	106	2	0
QENN	107	3	0
QENN	108	3	0
QENN	109	3	0
QENN	110	3	0
QENN	111	2	0
QENN	112	2	0
QENN	113	3	0
QENN	114	2	0
QENN	115	3	0
QENN	116	3	0
QENN	117	2	0
QENN	118	2	0
QENN	119	1	0
QENN	120	3	0
QENN	121	2	0
QENN	122	3	0
QENN	123	2	0
QENN	124	3	0
QENN	125	2	0
QENN	126	2	0
QENN	127	2	0
QENN	128	2	0
QENN	129	2	0
QENN	130	3	0
QENN	131	2	0
QENN	132	1	0
QENN	133	3	0
QENN	134	3	0
QENN	135	1	0
QENN	136	3	0
QENN	137	3	0
QENN	138	2	0
QENN	139	2	0
QENN	140	3	0
QENN	141	3	0
QENN	142	2	0
QENN	143	3	0
QENN	144	2	0
QENN	145	2	0
QENN	146	1	0
QENN	147	2	0
QENN	148	3	0
QENN	149	2	0
QENN	150	1	0
QENN	151	3	0
QENN	152	1	0
QENN	153	2	0
QENN	154	2	0
QENN	155	3	0
QENN	156	2	0
QENN	157	3	0
QENN	158	1	0
QENN	159	1	0
QENN	160	2	0
QENN	161	3	0
QENN	162	3	0
QENN	163	2	0
QENN	164	2	0
QENN	165	2	0
QENN	166	3	0
QENN	167	1	0
QENN	168	2	0
QENN	169	3	0
QENN	170	2	0
QENN	171	3	0
QENN	172	2	0
QENN	173	2	0
QENN	174	2	0
QENN	175	2	0
QENN	176	3	0
QENN	177	2	0
QENN	178	2	0
QENN	179	1	0
QENN	180	2	0
QENN	181	1	0
QENN	182	3	0
QENN	183	2	0
QENN	184	3	0
QENN	185	3	0
QENN	186	1	0
QENN	187	1	0
QENN	188	2	0
QENN	189	1	0
QENN	190	2	0
QENN	191	2	0
QENN	192	2	0
QENN	193	2	0
QENN	194	1	0
QENN	195	2	0
QENN	196	3	0
QENN	197	3	0
QENN	198	3	0
QENN	199	2	0
QENN	200	2	0
QENN	201	2	0
QENN	202	1	0
QENN	203	3	0
QENN	204	2	0
QENN	205	2	0
QENN	206	3	0
QENN	207	2	0
QENN	208	3	0
QENN	209	3	0
QENN	210	1	0
QENN	211	2	0
QENN	212	3	0
QENN	213	3	0
QENN	214	2	0
QENN	215	2	0
QENN	216	2	0
QENN	217	3	0
QENN	218	1	0
QENN	219	2	0
QENN	220	2	0
QENN	221	2	0
QENN	222	1	0
QENN	223	2	0
QENN	224	2	0
QENN	225	2	0
QENN	226	2	0
QENN	227	1	0
QENN	228	2	0
QENN	229	3	0
QENN	230	2	0
QENN	231	3	0
QENN	232	2	0
QENN	233	2	0
QENN	234	3	0
QENN	235	3	0
QENN	236	2	0
QENN	237	2	0
QENN	238	3	0
QENN	239	2	0
QENN	240	2	0
QENN	241	2	0
QENN	242	2	0
QENN	243	2	0
QENN	244	3	0
QENN	245	3	0
QENN	246	2	0
QENN	247	2	0
QENN	248	3	0
QENN	249	3	0
QENN	250	3	0
QENN	251	2	0
QENN	252	3	0
QENN	253	3	0
QENN	254	2	0
QENN	255	3	0
QENN	256	2	0
QENN	257	3	0
QENN	258	3	0
QENN	259	3	0
QENN	260	3	0
QENN	261	2	0
QENN	262	2	0
QENN	263	3	0
QENN	264	3	0
QENN	265	2	0
QENN	266	3	0
QENN	267	2	0
QENN	268	2	0
QENN	269	1	0
QENN	270	2	0
QENN	271	2	0
QENN	272	2	0
QENN	273	2	0
QENN	274	3	0
QENN	275	2	0
QENN	276	2	0
QENN	277	2	0
QENN	278	2	0
QENN	279	2	0
QENN	280	2	0
QENN	281	2	0
QENN	282	1	0
QENN	283	2	0
QENN	284	3	0
QENN	285	1	0
QENN	286	3	0
QENN	287	2	0
QENN	288	2	0
QENN	289	1	0
QENN	290	3	0
QENN	291	3	0
QENN	292	3	0
QENN	293	3	0
QENN	294	3	0
QENN	295	2	0
QENN	296	1	0
QENN	297	2	0
QENN	298	1	0
QENN	299	3	0
QENN	300	1	0
QENN	301	2	0
QENN	302	2	0
QENN	303	2	0
QENN	304	2	0
QENN	305	1	0
QENN	306	2	0
QENN	307	1	0
QENN	308	1	0
QENN	309	1	0
QENN	310	3	0
QENN	311	3	0
QENN	312	3	0
QENN	313	1	0
QENN	314	2	0
QENN	315	2	0
QENN	316	2	0
QENN	317	3	0
QENN	318	2	0
QENN	319	3	0
QENN	320	2	0
QENN	321	2	0
QENN	322	2	0
QENN	323	2	0
QENN	324	2	0
QENN	325	2	0
QENN	326	2	0
QENN	327	2	0
QENN	328	3	0
QENN	329	1	0
QENN	330	2	0
QENN	331	2	0
QENN	332	3	0
QENN	333	2	0
QENN	334	3	0
QENN	335	3	0
QENN	336	3	0
QENN	337	1	0
QENN	338	3	0
QENN	339	2	0
QENN	340	2	0
QENN	341	1	0
QENN	342	2	0
QENN	343	3	0
QENN	344	1	0
QENN	345	2	0
QENN	346	3	0
QENN	347	3	0
QENN	348	1	0
QENN	349	2	0
QENN	350	3	0
QENN	351	2	0
QENN	352	3	0
QENN	353	3	0
QENN	354	2	0
QENN	355	2	0
QENN	356	3	0
QENN	357	2	0
QENN	358	3	0
QENN	359	3	0
QENN	360	3	0
QENN	361	2	0
QENN	362	2	0
QENN	363	3	0
QENN	364	2	0
QENN	365	3	0
QENN	366	3	0
QENN	367	3	0
QENN	368	2	0
QENN	369	2	0
QENN	370	3	0
QENN	371	3	0
QENN	372	1	0
QENN	373	2	0
QENN	374	2	0
QENN	375	2	0
QENN	376	3	0
QENN	377	2	0
QENN	378	2	0
QENN	379	3	0
QENN	380	2	0
QENN	381	3	0
QENN	382	1	0
QENN	383	2	0
QENN	384	3	0
QENN	385	3	0
QENN	386	2	0
QENN	387	3	0
QENN	388	3	0
QENN	389	2	0
QENN	390	2	0
QENN	391	2	0
QENN	392	3	0
QENN	393	2	0
QENN	394	3	0
QENN	395	2	0
QENN	396	2	0
QENN	397	2	0
QENN	398	3	0
QENN	399	3	0
QENN	400	3	0
QENN	401	2	0
QENN	402	3	0
QENN	403	3	0
QENN	404	2	0
QENN	405	1	0
QENN	406	1	0
QENN	407	3	0
QENN	408	2	0
QENN	409	3	0
QENN	410	3	0
QENN	411	2	0
QENN	412	1	0
QENN	413	3	0
QENN	414	2	0
QENN	415	2	0
QENN	416	3	0
QENN	417	2	0
QENN	418	2	0
QENN	419	1	0
QENN	420	2	0
QENN	421	3	0
QENN	422	3	0
QENN	423	2	0
QENN	424	2	0
QENN	425	1	0
QENN	426	2	0
QENN	427	2	0
QENN	428	2	0
QENN	429	2	0
QENN	430	2	0
QENN	431	2	0
QENN	432	2	0
QENN	433	1	0
QENN	434	3	0
QENN	435	1	0
QENN	436	3	0
QENN	437	2	0
QENN	438	3	0
QENN	439	2	0
QENN	440	2	0
QENN	441	2	0
QENN	442	2	0
QENN	443	1	0
QENN	444	2	0
QENN	445	2	0
QENN	446	1	0
QENN	447	2	0
QENN	448	1	0
QENN	449	2	0
QENN	450	1	0
