QENN	1	2	0
QENN	2	3	0
QENN	3	1	0
QENN	4	1	0
QENN	5	3	0
QENN	6	1	0
QENN	7	1	0
QENN	8	3	0
QENN	9	3	0
QENN	10	3	0
QENN	11	3	0
QENN	12	2	0
QENN	13	1	0
QENN	14	1	0
QENN	15	3	0
QENN	16	3	0
QENN	17	1	0
QENN	18	2	0
QENN	19	1	0
QENN	20	1	0
QENN	21	2	0
QENN	22	3	0
QENN	23	1	0
QENN	24	2	0
QENN	25	3	0
QENN	26	3	0
QENN	27	3	0
QENN	28	2	0
QENN	29	1	0
QENN	30	3	0
QENN	31	2	0
QENN	32	1	0
QENN	33	2	0
QENN	34	1	0
QENN	35	2	0
QENN	36	2	0
QENN	37	1	0
QENN	38	3	0
QENN	39	2	0
QENN	40	3	0
QENN	41	3	0
QENN	42	2	0
QENN	43	2	0
QENN	44	3	0
QENN	45	3	0
QENN	46	1	0
QENN	47	2	0
QENN	48	3	0
QENN	49	2	0
QENN	50	3	0
QENN	51	1	0
QENN	52	3	0
QENN	53	3	0
QENN	54	1	0
QENN	55	3	0
QENN	56	3	0
QENN	57	2	0
QENN	58	1	0
QENN	59	1	0
QENN	60	3	0
QENN	61	3	0
QENN	62	2	0
QENN	63	1	0
QENN	64	3	0
QENN	65	2	0
QENN	66	3	0
QENN	67	1	0
QENN	68	2	0
QENN	69	2	0
QENN	70	2	0
QENN	71	2	0
QENN	72	3	0
QENN	73	2	0
QENN	74	1	0
QENN	75	2	0
QENN	76	2	0
QENN	77	1	0
QENN	78	1	0
QENN	79	2	0
QENN	80	2	0
QENN	81	3	0
QENN	82	2	0
QENN	83	1	0
QENN	84	1	0
QENN	85	1	0
QENN	86	1	0
QENN	87	3	0
QENN	88	1	0
QENN	89	2	0
QENN	90	3	0
QENN	91	3	0
QENN	92	2	0
QENN	93	2	0
QENN	94	3	0
QENN	95	3	0
QENN	96	2	0
QENN	97	2	0
QENN	98	1	0
QENN	99	2	0
QENN	100	2	0
QENN	101	2	0
QENN	102	1	0
QENN	103	3	0
QENN	104	1	0
QENN	105	2	0
QENN	106	1	0
QENN	107	2	0
QENN	108	3	0
QENN	109	3	0
QENN	110	1	0
QENN	111	2	0
QENN	112	1	0
QENN	113	2	0
QENN	114	3	0
QENN	115	3	0
QENN	116	2	0
QENN	117	2	0
QENN	118	2	0
QENN	119	1	0
QENN	120	3	0
QENN	121	2	0
QENN	122	3	0
QENN	123	2	0
QENN	124	1	0
QENN	125	1	0
QENN	126	1	0
QENN	127	1	0
QENN	128	3	0
QENN	129	3	0
QENN	130	2	0
QENN	131	3	0
QENN	132	2	0
QENN	133	3	0
QENN	134	1	0
QENN	135	2	0
QENN	136	3	0
QENN	137	2	0
QENN	138	1	0
QENN	139	2	0
QENN	140	2	0
QENN	141	2	0
QENN	142	2	0
QENN	143	3	0
QENN	144	1	0
QENN	145	3	0
QENN	146	2	0
QENN	147	2	0
QENN	148	2	0
QENN	149	2	0
QENN	150	2	0
QENN	151	2	0
QENN	152	1	0
QENN	153	1	0
QENN	154	3	0
QENN	155	2	0
QENN	156	1	0
QENN	157	1	0
QENN	158	3	0
QENN	159	3	0
QENN	160	3	0
QENN	161	2	0
QENN	162	2	0
QENN	163	2	0
QENN	164	1	0
QENN	165	1	0
QENN	166	3	0
QENN	167	3	0
QENN	168	1	0
QENN	169	1	0
QENN	170	1	0
QENN	171	2	0
QENN	172	1	0
QENN	173	1	0
QENN	174	2	0
QENN	175	3	0
QENN	176	2	0
QENN	177	3	0
QENN	178	3	0
QENN	179	2	0
QENN	180	1	0
QENN	181	2	0
QENN	182	1	0
QENN	183	2	0
QENN	184	1	0
QENN	185	1	0
QENN	186	2	0
QENN	187	2	0
QENN	188	3	0
QENN	189	2	0
QENN	190	3	0
QENN	191	2	0
QENN	192	2	0
QENN	193	1	0
QENN	194	1	0
QENN	195	1	0
QENN	196	1	0
QENN	197	3	0
QENN	198	3	0
QENN	199	2	0
QENN	200	3	0
QENN	201	2	0
QENN	202	3	0
QENN	203	3	0
QENN	204	1	0
QENN	205	1	0
QENN	206	3	0
QENN	207	2	0
QENN	208	1	0
QENN	209	1	0
QENN	210	1	0
QENN	211	3	0
QENN	212	2	0
QENN	213	1	0
QENN	214	1	0
QENN	215	2	0
QENN	216	1	0
QENN	217	1	0
QENN	218	1	0
QENN	219	2	0
QENN	220	2	0
QENN	221	1	0
QENN	222	3	0
QENN	223	1	0
QENN	224	3	0
QENN	225	1	0
QENN	226	2	0
QENN	227	1	0
QENN	228	2	0
QENN	229	1	0
QENN	230	2	0
QENN	231	3	0
QENN	232	2	0
QENN	233	1	0
QENN	234	1	0
QENN	235	1	0
QENN	236	1	0
QENN	237	2	0
QENN	238	1	0
QENN	239	2	0
QENN	240	1	0
QENN	241	1	0
QENN	242	2	0
QENN	243	2	0
QENN	244	3	0
QENN	245	3	0
QENN	246	1	0
QENN	247	3	0
QENN	248	1	0
QENN	249	3	0
QENN	250	2	0
QENN	251	2	0
QENN	252	2	0
QENN	253	3	0
QENN	254	3	0
QENN	255	1	0
QENN	256	3	0
QENN	257	2	0
QENN	258	3	0
QENN	259	2	0
QENN	260	1	0
QENN	261	2	0
QENN	262	1	0
QENN	263	2	0
QENN	264	3	0
QENN	265	2	0
QENN	266	1	0
QENN	267	2	0
QENN	268	2	0
QENN	269	1	0
QENN	270	3	0
QENN	271	1	0
QENN	272	2	0
QENN	273	2	0
QENN	274	1	0
QENN	275	1	0
QENN	276	1	0
QENN	277	1	0
QENN	278	2	0
QENN	279	3	0
QENN	280	2	0
QENN	281	3	0
QENN	282	2	0
QENN	283	2	0
QENN	284	2	0
QENN	285	1	0
QENN	286	3	0
QENN	287	2	0
QENN	288	2	0
QENN	289	2	0
QENN	290	2	0
QENN	291	2	0
QENN	292	1	0
QENN	293	2	0
QENN	294	1	0
QENN	295	2	0
QENN	296	1	0
QENN	297	2	0
QENN	298	1	0
QENN	299	2	0
QENN	300	2	0
QENN	301	2	0
QENN	302	1	0
QENN	303	2	0
QENN	304	3	0
QENN	305	3	0
QENN	306	3	0
QENN	307	1	0
QENN	308	3	0
QENN	309	3	0
QENN	310	3	0
QENN	311	1	0
QENN	312	2	0
QENN	313	2	0
QENN	314	2	0
QENN	315	1	0
QENN	316	3	0
QENN	317	2	0
QENN	318	3	0
QENN	319	2	0
QENN	320	1	0
QENN	321	2	0
QENN	322	2	0
QENN	323	3	0
QENN	324	2	0
QENN	325	3	0
QENN	326	1	0
QENN	327	3	0
QENN	328	1	0
QENN	329	1	0
QENN	330	2	0
QENN	331	2	0
QENN	332	1	0
QENN	333	2	0
QENN	334	2	0
QENN	335	2	0
QENN	336	2	0
QENN	337	1	0
QENN	338	1	0
QENN	339	2	0
QENN	340	2	0
QENN	341	1	0
QENN	342	2	0
QENN	343	1	0
QENN	344	3	0
QENN	345	2	0
QENN	346	1	0
QENN	347	2	0
QENN	348	3	0
QENN	349	2	0
QENN	350	3	0
QENN	351	3	0
QENN	352	3	0
QENN	353	1	0
QENN	354	1	0
QENN	355	2	0
QENN	356	3	0
QENN	357	2	0
QENN	358	2	0
QENN	359	2	0
QENN	360	2	0
QENN	361	1	0
QENN	362	1	0
QENN	363	1	0
QENN	364	1	0
QENN	365	2	0
QENN	366	3	0
QENN	367	1	0
QENN	368	2	0
QENN	369	2	0
QENN	370	2	0
QENN	371	1	0
QENN	372	3	0
QENN	373	1	0
QENN	374	1	0
QENN	375	3	0
QENN	376	2	0
QENN	377	1	0
QENN	378	2	0
QENN	379	2	0
QENN	380	2	0
QENN	381	3	0
QENN	382	2	0
QENN	383	2	0
QENN	384	1	0
QENN	385	1	0
QENN	386	2	0
QENN	387	3	0
QENN	388	1	0
QENN	389	2	0
QENN	390	3	0
QENN	391	3	0
QENN	392	1	0
QENN	393	2	0
QENN	394	3	0
QENN	395	3	0
QENN	396	2	0
QENN	397	3	0
QENN	398	1	0
QENN	399	3	0
QENN	400	2	0
QENN	401	2	0
QENN	402	1	0
QENN	403	3	0
QENN	404	1	0
QENN	405	2	0
QENN	406	3	0
QENN	407	2	0
QENN	408	3	0
QENN	409	2	0
QENN	410	2	0
QENN	411	2	0
QENN	412	2	0
QENN	413	1	0
QENN	414	3	0
QENN	415	2	0
QENN	416	2	0
QENN	417	3	0
QENN	418	2	0
QENN	419	1	0
QENN	420	1	0
QENN	421	3	0
QENN	422	2	0
QENN	423	2	0
QENN	424	1	0
QENN	425	1	0
QENN	426	2	0
QENN	427	2	0
QENN	428	2	0
QENN	429	3	0
QENN	430	3	0
QENN	431	2	0
QENN	432	1	0
QENN	433	3	0
QENN	434	1	0
QENN	435	3	0
QENN	436	1	0
QENN	437	2	0
QENN	438	2	0
QENN	439	2	0
QENN	440	1	0
QENN	441	3	0
QENN	442	3	0
QENN	443	2	0
QENN	444	1	0
QENN	445	2	0
QENN	446	3	0
QENN	447	2	0
QENN	448	2	0
QENN	449	3	0
QENN	450	2	0
