QENN	1	3	0
QENN	2	1	0
QENN	3	3	0
QENN	4	2	0
QENN	5	1	0
QENN	6	1	0
QENN	7	3	0
QENN	8	2	0
QENN	9	1	0
QENN	10	2	0
QENN	11	1	0
QENN	12	1	0
QENN	13	2	0
QENN	14	2	0
QENN	15	1	0
QENN	16	3	0
QENN	17	3	0
QENN	18	2	0
QENN	19	1	0
QENN	20	2	0
QENN	21	3	0
QENN	22	2	0
QENN	23	2	0
QENN	24	2	0
QENN	25	1	0
QENN	26	2	0
QENN	27	2	0
QENN	28	2	0
QENN	29	1	0
QENN	30	1	0
QENN	31	2	0
QENN	32	2	0
QENN	33	1	0
QENN	34	2	0
QENN	35	1	0
QENN	36	2	0
QENN	37	2	0
QENN	38	3	0
QENN	39	1	0
QENN	40	1	0
QENN	41	2	0
QENN	42	2	0
QENN	43	2	0
QENN	44	3	0
QENN	45	2	0
QENN	46	2	0
QENN	47	2	0
QENN	48	2	0
QENN	49	2	0
QENN	50	2	0
QENN	51	2	0
QENN	52	2	0
QENN	53	3	0
QENN	54	2	0
QENN	55	3	0
QENN	56	3	0
QENN	57	2	0
QENN	58	2	0
QENN	59	2	0
QENN	60	2	0
QENN	61	3	0
QENN	62	1	0
QENN	63	2	0
QENN	64	1	0
QENN	65	1	0
QENN	66	1	0
QENN	67	1	0
QENN	68	1	0
QENN	69	2	0
QENN	70	2	0
QENN	71	3	0
QENN	72	2	0
QENN	73	2	0
QENN	74	1	0
QENN	75	3	0
QENN	76	1	0
QENN	77	1	0
QENN	78	1	0
QENN	79	2	0
QENN	80	1	0
QENN	81	2	0
QENN	82	3	0
QENN	83	2	0
QENN	84	2	0
QENN	85	1	0
QENN	86	1	0
QENN	87	1	0
QENN	88	2	0
QENN	89	1	0
QENN	90	2	0
QENN	91	2	0
QENN	92	3	0
QENN	93	3	0
QENN	94	2	0
QENN	95	2	0
QENN	96	2	0
QENN	97	2	0
QENN	98	1	0
QENN	99	2	0
QENN	100	2	0
QENN	101	2	0
QENN	102	2	0
QENN	103	2	0
QENN	104	1	0
QENN	105	3	0
QENN	106	3	0
QENN	107	3	0
QENN	108	3	0
QENN	109	2	0
QENN	110	2	0
QENN	111	1	0
QENN	112	3	0
QENN	113	3	0
QENN	114	2	0
QENN	115	2	0
QENN	116	2	0
QENN	117	2	0
QENN	118	2	0
QENN	119	1	0
QENN	120	1	0
QENN	121	2	0
QENN	122	3	0
QENN	123	3	0
QENN	124	1	0
QENN	125	2	0
QENN	126	2	0
QENN	127	2	0
QENN	128	2	0
QENN	129	1	0
QENN	130	3	0
QENN	131	2	0
QENN	132	2	0
QENN	133	2	0
QENN	134	2	0
QENN	135	2	0
QENN	136	2	0
QENN	137	1	0
QENN	138	1	0
QENN	139	2	0
QENN	140	1	0
QENN	141	3	0
QENN	142	2	0
QENN	143	3	0
QENN	144	1	0
QENN	145	2	0
QENN	146	1	0
QENN	147	2	0
QENN	148	3	0
QENN	149	2	0
QENN	150	2	0
QENN	151	1	0
QENN	152	1	0
QENN	153	1	0
QENN	154	2	0
QENN	155	2	0
QENN	156	2	0
QENN	157	3	0
QENN	158	2	0
QENN	159	1	0
QENN	160	2	0
QENN	161	1	0
QENN	162	1	0
QENN	163	1	0
QENN	164	3	0
QENN	165	3	0
QENN	166	3	0
QENN	167	3	0
QENN	168	2	0
QENN	169	2	0
QENN	170	2	0
QENN	171	2	0
QENN	172	2	0
QENN	173	2	0
QENN	174	2	0
QENN	175	3	0
QENN	176	2	0
QENN	177	2	0
QENN	178	2	0
QENN	179	1	0
QENN	180	1	0
QENN	181	2	0
QENN	182	2	0
QENN	183	3	0
QENN	184	2	0
QENN	185	1	0
QENN	186	2	0
QENN	187	2	0
QENN	188	2	0
QENN	189	2	0
QENN	190	1	0
QENN	191	1	0
QENN	192	2	0
QENN	193	2	0
QENN	194	2	0
QENN	195	3	0
QENN	196	3	0
QENN	197	2	0
QENN	198	2	0
QENN	199	2	0
QENN	200	3	0
QENN	201	1	0
QENN	202	2	0
QENN	203	3	0
QENN	204	2	0
QENN	205	2	0
QENN	206	2	0
QENN	207	2	0
QENN	208	2	0
QENN	209	2	0
QENN	210	3	0
QENN	211	3	0
QENN	212	1	0
QENN	213	3	0
QENN	214	1	0
QENN	215	3	0
QENN	216	2	0
QENN	217	1	0
QENN	218	3	0
QENN	219	2	0
QENN	220	2	0
QENN	221	3	0
QENN	222	3	0
QENN	223	1	0
QENN	224	3	0
QENN	225	2	0
QENN	226	1	0
QENN	227	1	0
QENN	228	2	0
QENN	229	2	0
QENN	230	1	0
QENN	231	2	0
QENN	232	2	0
QENN	233	2	0
QENN	234	3	0
QENN	235	2	0
QENN	236	1	0
QENN	237	1	0
QENN	238	3	0
QENN	239	1	0
QENN	240	2	0
QENN	241	2	0
QENN	242	3	0
QENN	243	3	0
QENN	244	2	0
QENN	245	2	0
QENN	246	2	0
QENN	247	3	0
QENN	248	1	0
QENN	249	2	0
QENN	250	2	0
QENN	251	2	0
QENN	252	2	0
QENN	253	2	0
QENN	254	3	0
QENN	255	1	0
QENN	256	3	0
QENN	257	2	0
QENN	258	2	0
QENN	259	2	0
QENN	260	2	0
QENN	261	2	0
QENN	262	2	0
QENN	263	3	0
QENN	264	3	0
QENN	265	2	0
QENN	266	2	0
QENN	267	3	0
QENN	268	2	0
QENN	269	1	0
QENN	270	2	0
QENN	271	2	0
QENN	272	3	0
QENN	273	2	0
QENN	274	1	0
QENN	275	3	0
QENN	276	1	0
QENN	277	2	0
QENN	278	3	0
QENN	279	1	0
QENN	280	2	0
QENN	281	2	0
QENN	282	2	0
QENN	283	3	0
QENN	284	2	0
QENN	285	2	0
QENN	286	3	0
QENN	287	2	0
QENN	288	1	0
QENN	289	2	0
QENN	290	3	0
QENN	291	3	0
QENN	292	2	0
QENN	293	2	0
QENN	294	1	0
QENN	295	2	0
QENN	296	1	0
QENN	297	2	0
QENN	298	2	0
QENN	299	2	0
QENN	300	2	0
QENN	301	2	0
QENN	302	1	0
QENN	303	3	0
QENN	304	2	0
QENN	305	3	0
QENN	306	2	0
QENN	307	3	0
QENN	308	2	0
QENN	309	3	0
QENN	310	2	0
QENN	311	2	0
QENN	312	1	0
QENN	313	1	0
QENN	314	2	0
QENN	315	3	0
QENN	316	3	0
QENN	317	3	0
QENN	318	2	0
QENN	319	2	0
QENN	320	2	0
QENN	321	2	0
QENN	322	2	0
QENN	323	3	0
QENN	324	2	0
QENN	325	2	0
QENN	326	2	0
QENN	327	2	0
QENN	328	2	0
QENN	329	1	0
QENN	330	2	0
QENN	331	1	0
QENN	332	2	0
QENN	333	1	0
QENN	334	2	0
QENN	335	2	0
QENN	336	2	0
QENN	337	1	0
QENN	338	3	0
QENN	339	2	0
QENN	340	2	0
QENN	341	1	0
QENN	342	2	0
QENN	343	3	0
QENN	344	2	0
QENN	345	2	0
QENN	346	2	0
QENN	347	2	0
QENN	348	2	0
QENN	349	2	0
QENN	350	1	0
QENN	351	2	0
QENN	352	2	0
QENN	353	1	0
QENN	354	2	0
QENN	355	1	0
QENN	356	1	0
QENN	357	2	0
QENN	358	3	0
QENN	359	1	0
QENN	360	3	0
QENN	361	1	0
QENN	362	1	0
QENN	363	2	0
QENN	364	1	0
QENN	365	3	0
QENN	366	1	0
QENN	367	1	0
QENN	368	2	0
QENN	369	2	0
QENN	370	2	0
QENN	371	3	0
QENN	372	2	0
QENN	373	2	0
QENN	374	1	0
QENN	375	3	0
QENN	376	3	0
QENN	377	1	0
QENN	378	2	0
QENN	379	2	0
QENN	380	2	0
QENN	381	2	0
QENN	382	1	0
QENN	383	2	0
QENN	384	3	0
QENN	385	2	0
QENN	386	1	0
QENN	387	2	0
QENN	388	1	0
QENN	389	1	0
QENN	390	2	0
QENN	391	2	0
QENN	392	3	0
QENN	393	3	0
QENN	394	2	0
QENN	395	3	0
QENN	396	2	0
QENN	397	2	0
QENN	398	1	0
QENN	399	2	0
QENN	400	1	0
QENN	401	2	0
QENN	402	2	0
QENN	403	2	0
QENN	404	3	0
QENN	405	2	0
QENN	406	1	0
QENN	407	1	0
QENN	408	2	0
QENN	409	2	0
QENN	410	2	0
QENN	411	2	0
QENN	412	2	0
QENN	413	3	0
QENN	414	2	0
QENN	415	2	0
QENN	416	2	0
QENN	417	1	0
QENN	418	2	0
QENN	419	1	0
QENN	420	2	0
QENN	421	1	0
QENN	422	3	0
QENN	423	3	0
QENN	424	1	0
QENN	425	2	0
QENN	426	3	0
QENN	427	2	0
QENN	428	3	0
QENN	429	2	0
QENN	430	3	0
QENN	431	2	0
QENN	432	1	0
QENN	433	3	0
QENN	434	2	0
QENN	435	2	0
QENN	436	3	0
QENN	437	1	0
QENN	438	1	0
QENN	439	2	0
QENN	440	1	0
QENN	441	2	0
QENN	442	3	0
QENN	443	2	0
QENN	444	1	0
QENN	445	3	0
QENN	446	2	0
QENN	447	2	0
QENN	448	2	0
QENN	449	2	0
QENN	450	3	0
