1.100000	0	"	OK	OK	OK
1.100000	1	instead	OK	OK	OK
1.100000	2	of	OK	OK	OK
1.100000	3	strengthening	OK	OK	OK
1.100000	4	the	OK	OK	OK
1.100000	5	civil	OK	OK	OK
1.100000	6	society	OK	OK	OK
1.100000	7	,	OK	OK	OK
1.100000	8	the	OK	OK	OK
1.100000	9	president	OK	OK	OK
1.100000	10	cancels	OK	OK	OK
1.100000	11	them	OK	Fluency	OK
1.100000	12	de	Word_order	Fluency	OK
1.100000	13	facto	OK	Fluency	OK
1.100000	14	"	OK	OK	OK
1.100000	15	,	OK	OK	OK
1.100000	16	deplores	OK	OK	OK
1.100000	17	saeda	OK	OK	OK
1.100000	18	.	OK	OK	BAD
4.100000	0	the	OK	OK	OK
4.100000	1	word	OK	OK	OK
4.100000	2	orientates	OK	OK	OK
4.100000	3	itself	OK	Fluency	BAD
4.100000	4	by	Mistranslation	OK	BAD
4.100000	5	"	OK	OK	OK
4.100000	6	bang	Tense/aspect/mood	OK	OK
4.100000	7	dakuan	OK	OK	BAD
4.100000	8	"	OK	OK	OK
4.100000	9	.	OK	OK	BAD
5.100000	0	this	OK	OK	OK
5.100000	1	is	OK	OK	OK
5.100000	2	cheap	OK	OK	OK
5.100000	3	and	OK	OK	BAD
5.100000	4	time-efficient	OK	OK	OK
5.100000	5	.	OK	OK	OK
8.100000	0	at	OK	OK	OK
8.100000	1	the	OK	OK	OK
8.100000	2	end	OK	OK	OK
8.100000	3	of	OK	OK	OK
8.100000	4	the	OK	Accuracy	OK
8.100000	5	500-meter-long	Terminology	Accuracy	OK
8.100000	6	journey	OK	OK	OK
8.100000	7	,	OK	OK	OK
8.100000	8	you	OK	OK	OK
8.100000	9	are	OK	OK	OK
8.100000	10	rewarded	OK	OK	BAD
8.100000	11	in	OK	OK	OK
8.100000	12	the	OK	OK	OK
8.100000	13	literature	OK	OK	OK
8.100000	14	café	OK	OK	OK
8.100000	15	,	OK	OK	OK
8.100000	16	not	OK	OK	BAD
8.100000	17	only	OK	OK	OK
8.100000	18	with	OK	OK	OK
8.100000	19	a	OK	OK	OK
8.100000	20	fantastic	OK	OK	OK
8.100000	21	view	OK	OK	BAD
8.100000	22	of	OK	OK	OK
8.100000	23	the	OK	OK	OK
8.100000	24	city	OK	OK	OK
8.100000	25	,	OK	OK	BAD
8.100000	26	but	OK	Fluency	OK
8.100000	27	also	OK	OK	OK
8.100000	28	with	OK	OK	OK
8.100000	29	dutch	OK	OK	OK
8.100000	30	croquettes	OK	OK	OK
8.100000	31	and	OK	OK	OK
8.100000	32	potted	OK	OK	OK
8.100000	33	ficus	OK	OK	OK
8.100000	34	trees	OK	OK	OK
8.100000	35	.	OK	OK	OK
14.100000	0	for	OK	OK	OK
14.100000	1	example	OK	OK	OK
14.100000	2	,	OK	OK	OK
14.100000	3	if	OK	OK	OK
14.100000	4	we	OK	OK	OK
14.100000	5	look	OK	Fluency	OK
14.100000	6	at	OK	OK	OK
14.100000	7	the	OK	OK	OK
14.100000	8	euro	OK	OK	OK
14.100000	9	crisis	OK	OK	OK
14.100000	10	,	OK	OK	OK
14.100000	11	there	OK	OK	OK
14.100000	12	is	OK	Fluency	OK
14.100000	13	every	OK	OK	OK
14.100000	14	time	OK	OK	BAD
14.100000	15	germany	OK	Fluency	BAD
14.100000	16	assumes	OK	OK	BAD
14.100000	17	a	OK	OK	OK
14.100000	18	greater	OK	OK	OK
14.100000	19	role	OK	OK	OK
14.100000	20	,	OK	OK	BAD
14.100000	21	a	OK	OK	BAD
14.100000	22	variety	OK	Fluency	BAD
14.100000	23	of	OK	OK	BAD
14.100000	24	anti-german	OK	OK	OK
14.100000	25	sentiment	OK	OK	OK
14.100000	26	.	OK	OK	OK
19.100000	0	our	OK	OK	OK
19.100000	1	insights	OK	OK	OK
19.100000	2	in	OK	OK	OK
19.100000	3	all	OK	OK	OK
19.100000	4	:	OK	OK	OK
19.100000	5	the	OK	OK	OK
19.100000	6	most	Terminology	OK	OK
19.100000	7	important	OK	OK	OK
19.100000	8	telescopes	OK	OK	OK
30.100000	0	imbongi	OK	OK	OK
30.100000	1	means	OK	OK	OK
30.100000	2	on	OK	OK	OK
30.100000	3	zulu	OK	OK	OK
30.100000	4	storyteller	Terminology	OK	OK
30.100000	5	or	OK	OK	OK
30.100000	6	lobpreiser	Capitalization	OK	OK
30.100000	7	.	OK	OK	OK
38.100000	0	"	OK	OK	OK
38.100000	1	the	OK	OK	OK
38.100000	2	koran	OK	OK	OK
38.100000	3	is	OK	OK	OK
38.100000	4	our	OK	OK	OK
38.100000	5	constitution	OK	OK	OK
38.100000	6	.	OK	OK	OK
38.100000	7	"	OK	OK	OK
44.100000	0	but	OK	OK	OK
44.100000	1	what	OK	OK	OK
44.100000	2	of	OK	OK	OK
44.100000	3	the	OK	OK	OK
44.100000	4	61-year-old	Terminology	Accuracy	OK
44.100000	5	engineer	OK	OK	OK
44.100000	6	,	OK	OK	OK
44.100000	7	who	OK	OK	OK
44.100000	8	has	OK	OK	OK
44.100000	9	a	OK	OK	OK
44.100000	10	doctorate	OK	OK	OK
44.100000	11	from	OK	OK	OK
44.100000	12	the	OK	OK	OK
44.100000	13	american	OK	OK	OK
44.100000	14	university	OK	OK	BAD
44.100000	15	of	OK	OK	BAD
44.100000	16	southern	OK	OK	OK
44.100000	17	california	OK	OK	OK
44.100000	18	,	OK	OK	OK
44.100000	19	really	OK	OK	OK
44.100000	20	wants	OK	OK	OK
44.100000	21	to	OK	OK	OK
44.100000	22	save	OK	OK	OK
44.100000	23	,	OK	OK	OK
44.100000	24	as	OK	OK	OK
44.100000	25	are	OK	OK	OK
44.100000	26	the	OK	OK	OK
44.100000	27	egyptians	OK	OK	OK
44.100000	28	,	OK	Fluency	BAD
44.100000	29	the	OK	OK	OK
44.100000	30	world	OK	OK	OK
44.100000	31	is	OK	OK	BAD
44.100000	32	not	OK	OK	OK
44.100000	33	entirely	OK	OK	BAD
44.100000	34	clear	OK	OK	OK
44.100000	35	.	OK	OK	BAD
45.100000	0	for	OK	OK	OK
45.100000	1	all	OK	OK	OK
45.100000	2	of	OK	OK	OK
45.100000	3	them	OK	OK	OK
45.100000	4	,	OK	OK	OK
45.100000	5	until	OK	OK	OK
45.100000	6	now	OK	OK	BAD
45.100000	7	hopelessly	OK	OK	OK
45.100000	8	estranged	OK	OK	OK
45.100000	9	in	OK	OK	OK
45.100000	10	a	OK	OK	OK
45.100000	11	bewildered	OK	OK	OK
45.100000	12	opposition	Tense/aspect/mood	OK	BAD
45.100000	13	,	OK	OK	OK
45.100000	14	are	OK	OK	BAD
45.100000	15	fearful	OK	OK	OK
45.100000	16	.	OK	OK	OK
47.100000	0	the	OK	OK	OK
47.100000	1	fabulous	OK	OK	OK
47.100000	2	wealth	OK	OK	OK
47.100000	3	the	OK	Fluency	OK
47.100000	4	country	Capitalization	Fluency	OK
47.100000	5	owes	OK	OK	OK
47.100000	6	its	OK	OK	BAD
47.100000	7	oil	OK	OK	OK
47.100000	8	in	OK	OK	OK
47.100000	9	the	OK	OK	OK
47.100000	10	caspian	OK	OK	OK
47.100000	11	sea	OK	OK	OK
47.100000	12	,	OK	OK	OK
47.100000	13	has	OK	OK	OK
47.100000	14	not	OK	OK	OK
47.100000	15	yet	OK	OK	BAD
47.100000	16	arrived	OK	OK	OK
47.100000	17	in	OK	OK	OK
47.100000	18	the	OK	OK	OK
47.100000	19	province	OK	OK	OK
47.100000	20	.	OK	OK	BAD
51.100000	0	in	OK	OK	OK
51.100000	1	the	OK	OK	OK
51.100000	2	next	OK	OK	OK
51.100000	3	two	OK	Accuracy	OK
51.100000	4	instances	OK	OK	OK
51.100000	5	,	OK	OK	OK
51.100000	6	freudenberg	OK	OK	OK
51.100000	7	was	OK	OK	OK
51.100000	8	proven	OK	OK	OK
51.100000	9	right	OK	OK	OK
51.100000	10	,	OK	OK	BAD
51.100000	11	however	OK	OK	BAD
51.100000	12	the	OK	OK	OK
51.100000	13	opposing	OK	Accuracy	OK
51.100000	14	party	OK	Fluency	BAD
51.100000	15	continues	OK	OK	OK
51.100000	16	to	OK	OK	OK
51.100000	17	contest	OK	OK	BAD
51.100000	18	the	OK	OK	OK
51.100000	19	matter	OK	OK	OK
51.100000	20	to	OK	OK	OK
51.100000	21	this	OK	OK	OK
51.100000	22	day	OK	OK	OK
51.100000	23	.	OK	OK	OK
55.100000	0	the	OK	OK	OK
55.100000	1	robert-koch	OK	OK	OK
55.100000	2	institute	OK	OK	OK
55.100000	3	estimates	OK	OK	OK
55.100000	4	that	OK	OK	OK
55.100000	5	at	OK	OK	OK
55.100000	6	least	OK	Fluency	OK
55.100000	7	four	OK	OK	OK
55.100000	8	out	OK	OK	BAD
55.100000	9	of	OK	OK	OK
55.100000	10	five	OK	OK	OK
55.100000	11	of	OK	OK	OK
55.100000	12	all	OK	Accuracy	OK
55.100000	13	syphilis	Mistranslation	OK	OK
55.100000	14	cases	OK	OK	OK
55.100000	15	reported	OK	Accuracy	BAD
55.100000	16	in	OK	OK	OK
55.100000	17	germany	OK	Accuracy	OK
55.100000	18	through	OK	OK	OK
55.100000	19	sexual	OK	Accuracy	OK
55.100000	20	contact	OK	OK	OK
55.100000	21	between	OK	OK	OK
55.100000	22	men	OK	OK	OK
55.100000	23	.	OK	OK	OK
60.100000	0	however	OK	OK	OK
60.100000	1	,	OK	OK	OK
60.100000	2	there	OK	OK	OK
60.100000	3	is	OK	OK	BAD
60.100000	4	not	OK	OK	OK
60.100000	5	a	OK	OK	OK
60.100000	6	birth	OK	OK	OK
60.100000	7	certificate	OK	OK	OK
60.100000	8	.	OK	OK	OK
63.100000	0	here	OK	OK	OK
63.100000	1	,	OK	OK	OK
63.100000	2	humane	OK	OK	OK
63.100000	3	pappilomaviren	OK	OK	OK
63.100000	4	also	OK	Fluency	BAD
63.100000	5	occur	Word_order	OK	OK
63.100000	6	among	Mistranslation	OK	BAD
63.100000	7	young	OK	OK	OK
63.100000	8	people	OK	OK	OK
63.100000	9	.	OK	OK	OK
65.100000	0	"	OK	OK	OK
65.100000	1	the	OK	OK	OK
65.100000	2	revolution	OK	OK	OK
65.100000	3	has	OK	OK	BAD
65.100000	4	returned	OK	OK	OK
65.100000	5	.	OK	OK	OK
65.100000	6	"	OK	OK	OK
74.100000	0	aggravatingly	OK	OK	OK
74.100000	1	comes	OK	OK	OK
74.100000	2	that	OK	OK	OK
74.100000	3	the	OK	OK	OK
74.100000	4	europeans	OK	OK	OK
74.100000	5	have	OK	OK	OK
74.100000	6	no	OK	OK	BAD
74.100000	7	coherent	OK	OK	OK
74.100000	8	and	OK	OK	BAD
74.100000	9	uniform	OK	OK	OK
74.100000	10	politics	OK	OK	OK
74.100000	11	.	OK	OK	OK
77.100000	0	similarly	OK	OK	OK
77.100000	1	,	OK	OK	OK
77.100000	2	the	OK	OK	OK
77.100000	3	phrase	OK	Fluency	OK
77.100000	4	seems	OK	OK	OK
77.100000	5	dubious	OK	OK	OK
77.100000	6	,	OK	OK	OK
77.100000	7	"	OK	OK	OK
77.100000	8	insulting	OK	OK	BAD
77.100000	9	people	OK	OK	BAD
77.100000	10	is	OK	OK	BAD
77.100000	11	prohibited	OK	OK	BAD
77.100000	12	.	OK	OK	BAD
80.100000	0	a	OK	OK	OK
80.100000	1	bus	OK	OK	OK
80.100000	2	full	OK	OK	OK
80.100000	3	of	OK	OK	OK
80.100000	4	white	OK	OK	OK
80.100000	5	people	OK	OK	OK
80.100000	6	,	OK	OK	OK
80.100000	7	who	OK	OK	BAD
80.100000	8	sing	OK	OK	OK
80.100000	9	songs	OK	OK	OK
80.100000	10	in	OK	OK	OK
80.100000	11	a	OK	OK	OK
80.100000	12	black	OK	OK	OK
80.100000	13	language	OK	OK	OK
80.100000	14	-	OK	OK	OK
80.100000	15	this	Word_order	Fluency	OK
80.100000	16	degree	Word_order	Fluency	OK
80.100000	17	of	Word_order	OK	OK
80.100000	18	recognition	Terminology	OK	OK
80.100000	19	brings	OK	OK	OK
80.100000	20	not	OK	OK	OK
80.100000	21	only	OK	OK	OK
80.100000	22	morale	OK	OK	OK
80.100000	23	and	OK	OK	OK
80.100000	24	joy	OK	OK	OK
80.100000	25	,	OK	OK	OK
80.100000	26	but	OK	Fluency	OK
80.100000	27	some	OK	OK	OK
80.100000	28	grim-faced	Word_order	Fluency	BAD
80.100000	29	border	OK	Fluency	OK
80.100000	30	soldiers	OK	Accuracy	OK
80.100000	31	even	OK	OK	BAD
80.100000	32	shed	OK	OK	OK
80.100000	33	a	OK	OK	OK
80.100000	34	few	OK	OK	OK
80.100000	35	tears	OK	OK	OK
80.100000	36	.	OK	OK	OK
84.100000	0	these	OK	OK	OK
84.100000	1	provide	OK	OK	OK
84.100000	2	atmosphere	OK	OK	OK
84.100000	3	,	OK	OK	OK
84.100000	4	but	OK	OK	OK
84.100000	5	most	OK	OK	OK
84.100000	6	importantly	OK	OK	OK
84.100000	7	,	OK	OK	OK
84.100000	8	regulate	OK	Fluency	OK
84.100000	9	the	OK	Fluency	OK
84.100000	10	air	OK	OK	OK
84.100000	11	humidity	OK	OK	BAD
84.100000	12	in	OK	OK	OK
84.100000	13	the	OK	OK	OK
84.100000	14	literary	OK	OK	OK
84.100000	15	mountain	OK	OK	OK
84.100000	16	range	OK	OK	OK
84.100000	17	.	OK	OK	OK
85.100000	0	although	OK	OK	OK
85.100000	1	the	OK	OK	OK
85.100000	2	books	OK	OK	OK
85.100000	3	mountain	OK	OK	OK
85.100000	4	is	OK	OK	OK
85.100000	5	under	OK	OK	OK
85.100000	6	a	OK	OK	OK
85.100000	7	glass	OK	OK	OK
85.100000	8	of	OK	OK	BAD
85.100000	9	fall	OK	OK	OK
85.100000	10	,	OK	OK	BAD
85.100000	11	the	OK	OK	OK
85.100000	12	sun	OK	Fluency	OK
85.100000	13	shines	OK	Accuracy	OK
85.100000	14	even	Grammar	OK	BAD
85.100000	15	on	Mistranslation	OK	OK
85.100000	16	sunny	OK	OK	OK
85.100000	17	days	OK	OK	OK
85.100000	18	,	OK	OK	OK
85.100000	19	briefly	OK	OK	OK
85.100000	20	into	OK	OK	OK
85.100000	21	the	OK	OK	OK
85.100000	22	interior	OK	OK	OK
85.100000	23	.	OK	OK	OK
90.100000	0	"	OK	OK	OK
90.100000	1	and	OK	OK	OK
90.100000	2	now	OK	OK	OK
90.100000	3	the	OK	Fluency	OK
90.100000	4	word	OK	OK	OK
90.100000	5	is	OK	OK	OK
90.100000	6	not	OK	OK	BAD
90.100000	7	even	OK	OK	BAD
90.100000	8	human	OK	OK	OK
90.100000	9	rights	OK	OK	OK
90.100000	10	in	OK	OK	OK
90.100000	11	the	OK	OK	OK
90.100000	12	new	OK	OK	OK
90.100000	13	constitution	OK	OK	OK
90.100000	14	,	OK	OK	BAD
90.100000	15	"	OK	OK	OK
90.100000	16	he	OK	OK	OK
90.100000	17	laments	OK	OK	OK
90.100000	18	in	OK	OK	OK
90.100000	19	conversation	OK	OK	OK
90.100000	20	with	OK	OK	OK
90.100000	21	the	OK	OK	OK
90.100000	22	"	OK	Accuracy	OK
90.100000	23	world	OK	OK	OK
90.100000	24	on	OK	OK	BAD
90.100000	25	sunday	OK	OK	OK
90.100000	26	.	OK	OK	BAD
90.100000	27	"	OK	OK	OK
92.100000	0	nevertheless	OK	OK	OK
92.100000	1	,	OK	OK	OK
92.100000	2	he	OK	OK	OK
92.100000	3	reaches	OK	OK	OK
92.100000	4	a	OK	OK	OK
92.100000	5	diameter	OK	OK	OK
92.100000	6	from	Function_words	OK	OK
92.100000	7	about	OK	OK	OK
92.100000	8	eleven	OK	OK	OK
92.100000	9	metres	OK	OK	OK
92.100000	10	.	OK	OK	OK
94.100000	0	in	OK	OK	OK
94.100000	1	heidelberg	OK	OK	OK
94.100000	2	the	OK	OK	OK
94.100000	3	choir	OK	Accuracy	OK
94.100000	4	rehearses	OK	OK	OK
94.100000	5	imbongi	OK	OK	OK
94.100000	6	-	OK	OK	OK
94.100000	7	and	OK	OK	OK
94.100000	8	in	OK	OK	OK
94.100000	9	swaziland	OK	OK	OK
94.100000	10	aids	OK	OK	OK
94.100000	11	orphans	Tense/aspect/mood	OK	OK
94.100000	12	are	OK	OK	OK
94.100000	13	glad	OK	OK	OK
94.100000	14	about	OK	OK	OK
94.100000	15	it	OK	OK	OK
94.100000	16	.	OK	OK	OK
95.100000	0	everybody	OK	OK	OK
95.100000	1	has	OK	OK	OK
95.100000	2	internet	OK	OK	OK
95.100000	3	,	OK	OK	BAD
95.100000	4	ipad	OK	OK	OK
95.100000	5	and	OK	OK	BAD
95.100000	6	e-books	OK	OK	OK
95.100000	7	.	OK	OK	OK
96.100000	0	this	OK	OK	OK
96.100000	1	plays	OK	OK	OK
96.100000	2	anyway	OK	OK	OK
96.100000	3	a	OK	OK	OK
96.100000	4	role	OK	OK	OK
96.100000	5	.	OK	OK	OK
97.100000	0	the	OK	OK	OK
97.100000	1	germans	OK	OK	OK
97.100000	2	appear	OK	OK	OK
97.100000	3	so	OK	OK	OK
97.100000	4	between	OK	Accuracy	OK
97.100000	5	the	OK	Accuracy	OK
97.100000	6	fronts	Capitalization	OK	OK
97.100000	7	.	OK	OK	BAD
102.100000	0	these	OK	OK	OK
102.100000	1	dishes	OK	OK	OK
102.100000	2	served	OK	OK	OK
102.100000	3	during	Word_order	OK	OK
102.100000	4	mubarak	Word_order	Accuracy	OK
102.100000	5	's	Tense/aspect/mood	OK	OK
102.100000	6	rule	OK	OK	OK
102.100000	7	on	OK	OK	OK
102.100000	8	the	OK	OK	OK
102.100000	9	repression	OK	OK	OK
102.100000	10	of	OK	OK	OK
102.100000	11	political	OK	OK	OK
102.100000	12	opponents	OK	OK	OK
102.100000	13	.	OK	OK	OK
105.100000	0	a	OK	OK	OK
105.100000	1	demonstrator	OK	OK	OK
105.100000	2	on	OK	OK	OK
105.100000	3	the	OK	Fluency	OK
105.100000	4	tahrir	OK	OK	OK
105.100000	5	warns	OK	OK	BAD
105.100000	6	:	OK	Fluency	OK
105.100000	7	"	OK	OK	OK
105.100000	8	you	OK	OK	OK
105.100000	9	gebährt	OK	OK	OK
105.100000	10	a	OK	OK	OK
105.100000	11	monster	OK	OK	OK
105.100000	12	whom	OK	OK	OK
105.100000	13	you	OK	Fluency	OK
105.100000	14	cannot	OK	OK	BAD
105.100000	15	control	OK	OK	BAD
105.100000	16	any	OK	OK	BAD
105.100000	17	more	Word_order	OK	BAD
105.100000	18	.	OK	OK	OK
105.100000	19	"	OK	OK	BAD
107.100000	0	"	OK	OK	OK
107.100000	1	the	OK	OK	OK
107.100000	2	bookshelves	OK	OK	OK
107.100000	3	stand	OK	OK	OK
107.100000	4	ordinarily	OK	OK	OK
107.100000	5	along	OK	OK	OK
107.100000	6	the	OK	OK	OK
107.100000	7	facade	OK	OK	OK
107.100000	8	,	OK	OK	OK
107.100000	9	and	OK	OK	OK
107.100000	10	in	OK	OK	OK
107.100000	11	the	OK	OK	OK
107.100000	12	middle	OK	OK	OK
107.100000	13	lies	OK	OK	OK
107.100000	14	a	OK	OK	OK
107.100000	15	big	OK	OK	OK
107.100000	16	,	OK	OK	OK
107.100000	17	dark	OK	OK	OK
107.100000	18	space	OK	OK	OK
107.100000	19	which	OK	OK	OK
107.100000	20	is	OK	OK	BAD
107.100000	21	mostly	OK	OK	OK
107.100000	22	uncomfortable	OK	OK	OK
107.100000	23	and	OK	OK	OK
107.100000	24	impersonal	OK	OK	OK
107.100000	25	"	OK	OK	OK
107.100000	26	,	OK	OK	OK
107.100000	27	says	OK	OK	OK
107.100000	28	winy	OK	OK	OK
107.100000	29	the	OK	OK	OK
107.100000	30	meuse	OK	OK	OK
107.100000	31	.	OK	OK	OK
109.100000	0	unnoticed	OK	OK	OK
109.100000	1	by	OK	OK	OK
109.100000	2	the	OK	OK	OK
109.100000	3	people	OK	OK	OK
109.100000	4	of	OK	OK	OK
109.100000	5	the	OK	OK	OK
109.100000	6	earth	OK	OK	OK
109.100000	7	probes	OK	OK	OK
109.100000	8	,	OK	OK	OK
109.100000	9	telescopes	OK	OK	OK
109.100000	10	and	OK	OK	OK
109.100000	11	small	OK	OK	OK
109.100000	12	robots	OK	OK	OK
109.100000	13	like	OK	OK	OK
109.100000	14	phoenix	OK	OK	OK
109.100000	15	is	OK	Fluency	BAD
109.100000	16	to	OK	OK	BAD
109.100000	17	explore	OK	OK	BAD
109.100000	18	the	OK	OK	OK
109.100000	19	depths	OK	OK	OK
109.100000	20	of	OK	OK	BAD
109.100000	21	the	OK	OK	OK
109.100000	22	universe	OK	OK	OK
109.100000	23	.	OK	OK	OK
113.100000	0	the	OK	OK	OK
113.100000	1	80,000-inhabitant	OK	OK	OK
113.100000	2	municipality	OK	OK	OK
113.100000	3	shows	OK	OK	OK
113.100000	4	the	OK	OK	OK
113.100000	5	lowest	OK	OK	OK
113.100000	6	educational	OK	OK	OK
113.100000	7	rate	OK	OK	OK
113.100000	8	of	OK	OK	OK
113.100000	9	the	OK	OK	OK
113.100000	10	whole	OK	OK	OK
113.100000	11	netherlands	OK	OK	OK
113.100000	12	.	OK	OK	OK
114.100000	0	the	OK	OK	OK
114.100000	1	mini-bus	OK	OK	OK
114.100000	2	rumbled	OK	OK	OK
114.100000	3	through	OK	OK	OK
114.100000	4	the	OK	OK	OK
114.100000	5	winding	OK	OK	OK
114.100000	6	road	OK	OK	OK
114.100000	7	,	OK	OK	BAD
114.100000	8	past	OK	OK	OK
114.100000	9	densely	OK	OK	OK
114.100000	10	wooded	OK	OK	OK
114.100000	11	hills	OK	OK	OK
114.100000	12	,	OK	OK	OK
114.100000	13	rushing	OK	OK	OK
114.100000	14	rivers	OK	OK	OK
114.100000	15	and	OK	Fluency	OK
114.100000	16	simple	OK	OK	OK
114.100000	17	farmhouses	OK	OK	OK
114.100000	18	.	OK	OK	OK
115.100000	0	almost	OK	OK	OK
115.100000	1	57,000	OK	OK	OK
115.100000	2	such	OK	OK	OK
115.100000	3	cased	Word_order	OK	BAD
115.100000	4	were	OK	OK	OK
115.100000	5	closed	OK	OK	OK
115.100000	6	,	OK	OK	OK
115.100000	7	75	OK	OK	OK
115.100000	8	percent	OK	OK	OK
115.100000	9	more	OK	OK	OK
115.100000	10	than	OK	OK	OK
115.100000	11	in	OK	OK	BAD
115.100000	12	the	OK	OK	OK
115.100000	13	previous	OK	OK	OK
115.100000	14	year	OK	OK	OK
115.100000	15	.	OK	OK	OK
118.100000	0	so	OK	OK	OK
118.100000	1	young	OK	OK	OK
118.100000	2	and	OK	OK	OK
118.100000	3	uneducated	OK	Fluency	OK
118.100000	4	,	OK	OK	OK
118.100000	5	they	Capitalization	OK	BAD
118.100000	6	may	OK	OK	OK
118.100000	7	be	OK	OK	OK
118.100000	8	.	OK	OK	OK
131.100000	0	"	OK	OK	OK
131.100000	1	i	OK	OK	OK
131.100000	2	think	OK	OK	OK
131.100000	3	,	OK	OK	BAD
131.100000	4	now	OK	OK	BAD
131.100000	5	thanks	OK	OK	OK
131.100000	6	to	OK	OK	OK
131.100000	7	our	OK	Fluency	OK
131.100000	8	invitation	OK	OK	OK
131.100000	9	every	Word_order	OK	OK
131.100000	10	inhabitant	OK	OK	BAD
131.100000	11	has	OK	OK	BAD
131.100000	12	a	OK	OK	OK
131.100000	13	certain	OK	OK	OK
131.100000	14	respect	OK	OK	OK
131.100000	15	with	OK	OK	BAD
131.100000	16	this	OK	OK	OK
131.100000	17	new	OK	OK	OK
131.100000	18	house	OK	OK	OK
131.100000	19	.	OK	OK	OK
134.100000	0	but	OK	OK	OK
134.100000	1	i	OK	OK	OK
134.100000	2	wonder	OK	OK	OK
134.100000	3	what	OK	OK	OK
134.100000	4	we	OK	OK	OK
134.100000	5	still	OK	OK	OK
134.100000	6	need	OK	OK	OK
134.100000	7	a	OK	OK	OK
134.100000	8	library	OK	OK	OK
134.100000	9	.	OK	OK	BAD
142.100000	0	the	OK	OK	OK
142.100000	1	messenger	OK	OK	OK
142.100000	2	probe	OK	OK	OK
142.100000	3	has	OK	OK	OK
142.100000	4	found	OK	OK	OK
142.100000	5	evidence	OK	OK	OK
142.100000	6	that	OK	OK	OK
142.100000	7	there	OK	OK	BAD
142.100000	8	is	OK	OK	OK
142.100000	9	on	OK	OK	BAD
142.100000	10	the	OK	OK	BAD
142.100000	11	planet	OK	OK	OK
142.100000	12	mercury	OK	OK	OK
142.100000	13	ice	OK	OK	BAD
142.100000	14	.	OK	OK	BAD
143.100000	0	due	OK	OK	OK
143.100000	1	to	OK	OK	OK
143.100000	2	lacking	OK	OK	OK
143.100000	3	documentation	OK	OK	OK
143.100000	4	,	OK	OK	OK
143.100000	5	however	OK	OK	OK
143.100000	6	,	OK	OK	OK
143.100000	7	there	OK	OK	OK
143.100000	8	is	OK	Fluency	OK
143.100000	9	no	OK	Fluency	OK
143.100000	10	scientific	OK	Fluency	OK
143.100000	11	proof	OK	OK	OK
143.100000	12	of	OK	OK	BAD
143.100000	13	age	OK	OK	BAD
143.100000	14	,	OK	OK	OK
143.100000	15	particularly	OK	OK	OK
143.100000	16	as	OK	OK	BAD
143.100000	17	there	OK	OK	OK
143.100000	18	are	OK	OK	OK
143.100000	19	no	OK	OK	OK
143.100000	20	birth	OK	OK	OK
143.100000	21	registers	OK	OK	OK
143.100000	22	.	OK	OK	OK
145.100000	0	the	OK	OK	OK
145.100000	1	messenger	OK	OK	OK
145.100000	2	probe	OK	OK	OK
145.100000	3	has	OK	OK	OK
145.100000	4	found	OK	OK	OK
145.100000	5	evidence	OK	OK	OK
145.100000	6	that	OK	OK	OK
145.100000	7	there	OK	OK	OK
145.100000	8	is	OK	OK	BAD
145.100000	9	an	OK	OK	BAD
145.100000	10	ice	OK	OK	OK
145.100000	11	cover	OK	OK	OK
145.100000	12	in	OK	OK	OK
145.100000	13	the	OK	OK	OK
145.100000	14	region	OK	OK	OK
145.100000	15	of	OK	OK	BAD
145.100000	16	the	OK	Accuracy	OK
145.100000	17	planet	OK	OK	OK
145.100000	18	that	OK	OK	OK
145.100000	19	lies	OK	OK	OK
145.100000	20	permanently	OK	OK	OK
145.100000	21	in	OK	OK	OK
145.100000	22	shadow	OK	OK	OK
145.100000	23	.	OK	OK	OK
146.100000	0	but	OK	OK	OK
146.100000	1	pilata	OK	OK	OK
146.100000	2	fatulayeva	OK	OK	OK
146.100000	3	(	OK	OK	OK
146.100000	4	48	OK	OK	OK
146.100000	5	)	OK	OK	BAD
146.100000	6	is	OK	Fluency	OK
146.100000	7	convinced	OK	OK	OK
146.100000	8	that	OK	OK	OK
146.100000	9	lerik	OK	OK	OK
146.100000	10	has	OK	Fluency	OK
146.100000	11	the	OK	OK	OK
146.100000	12	stuff	OK	OK	OK
146.100000	13	to	OK	Accuracy	OK
146.100000	14	the	OK	OK	OK
146.100000	15	tourist	OK	OK	OK
146.100000	16	attraction	OK	OK	OK
146.100000	17	.	OK	OK	BAD
147.100000	0	but	OK	OK	OK
147.100000	1	i	OK	OK	OK
147.100000	2	would	OK	OK	OK
147.100000	3	not	OK	Fluency	BAD
147.100000	4	want	OK	OK	OK
147.100000	5	to	OK	OK	OK
147.100000	6	give	OK	OK	BAD
147.100000	7	too	Grammar	OK	OK
147.100000	8	much	OK	Fluency	OK
147.100000	9	weight	OK	OK	OK
147.100000	10	,	OK	OK	OK
147.100000	11	which	OK	OK	BAD
147.100000	12	is	OK	OK	BAD
147.100000	13	not	OK	OK	BAD
147.100000	14	a	OK	OK	BAD
147.100000	15	totally	Tense/aspect/mood	OK	OK
147.100000	16	one-sided	OK	OK	OK
147.100000	17	relationship	OK	OK	OK
147.100000	18	.	OK	OK	OK
148.100000	0	in	OK	OK	OK
148.100000	1	the	OK	OK	OK
148.100000	2	village	OK	OK	OK
148.100000	3	itself	OK	OK	BAD
148.100000	4	zodwa	OK	OK	OK
148.100000	5	dlamini	OK	OK	OK
148.100000	6	,	OK	OK	BAD
148.100000	7	a	OK	OK	OK
148.100000	8	self-confident	OK	OK	OK
148.100000	9	and	OK	OK	BAD
148.100000	10	penetration-strong	OK	OK	OK
148.100000	11	woman	OK	OK	OK
148.100000	12	,	OK	OK	OK
148.100000	13	the	OK	OK	OK
148.100000	14	money	OK	OK	BAD
148.100000	15	from	OK	OK	OK
148.100000	16	germany	OK	OK	OK
148.100000	17	administers	OK	OK	OK
148.100000	18	.	OK	OK	OK
153.100000	0	in	OK	OK	OK
153.100000	1	this	OK	OK	OK
153.100000	2	way	OK	OK	OK
153.100000	3	the	OK	OK	OK
153.100000	4	evolution	OK	Accuracy	OK
153.100000	5	of	OK	OK	BAD
153.100000	6	an	OK	OK	OK
153.100000	7	own	OK	OK	OK
153.100000	8	isolated	OK	OK	BAD
153.100000	9	hominid	OK	OK	BAD
153.100000	10	kind	OK	OK	BAD
153.100000	11	is	OK	OK	OK
153.100000	12	impossible	OK	OK	BAD
153.100000	13	,	OK	OK	OK
153.100000	14	deduce	OK	OK	BAD
153.100000	15	the	OK	OK	OK
153.100000	16	researchers	OK	OK	OK
153.100000	17	.	OK	OK	OK
156.100000	0	the	OK	OK	OK
156.100000	1	hype	OK	OK	OK
156.100000	2	does	OK	OK	OK
156.100000	3	not	OK	OK	OK
156.100000	4	take	OK	OK	OK
156.100000	5	any	OK	OK	OK
156.100000	6	end	OK	OK	OK
156.100000	7	,	OK	OK	BAD
156.100000	8	and	OK	OK	OK
156.100000	9	it	OK	OK	OK
156.100000	10	states	OK	OK	OK
156.100000	11	presumably	OK	OK	OK
156.100000	12	more	OK	OK	OK
156.100000	13	about	OK	OK	OK
156.100000	14	the	OK	OK	OK
156.100000	15	mode	OK	Accuracy	OK
156.100000	16	of	OK	OK	BAD
156.100000	17	operation	OK	OK	OK
156.100000	18	of	OK	Fluency	OK
156.100000	19	the	OK	OK	OK
156.100000	20	media	Capitalization	OK	OK
156.100000	21	society	OK	OK	OK
156.100000	22	than	OK	OK	OK
156.100000	23	about	OK	OK	OK
156.100000	24	the	OK	OK	OK
156.100000	25	kitchen	OK	OK	OK
156.100000	26	of	OK	OK	OK
156.100000	27	the	OK	OK	OK
156.100000	28	present	OK	OK	OK
156.100000	29	.	OK	OK	OK
157.100000	0	the	OK	OK	OK
157.100000	1	user	OK	OK	OK
157.100000	2	declares	OK	OK	OK
157.100000	3	himself	OK	OK	OK
157.100000	4	agreed	OK	OK	OK
157.100000	5	on	OK	OK	OK
157.100000	6	his	OK	OK	OK
157.100000	7	personal	OK	OK	OK
157.100000	8	data	OK	OK	BAD
157.100000	9	being	OK	OK	BAD
157.100000	10	stored	OK	OK	OK
157.100000	11	by	OK	Accuracy	OK
157.100000	12	the	OK	OK	OK
157.100000	13	provider	OK	Accuracy	OK
157.100000	14	in	OK	OK	OK
157.100000	15	electronic	OK	Accuracy	OK
157.100000	16	form	OK	OK	OK
157.100000	17	.	OK	OK	OK
162.100000	0	a	OK	OK	OK
162.100000	1	million	OK	OK	OK
162.100000	2	dollars	OK	OK	OK
162.100000	3	because	OK	Fluency	OK
162.100000	4	the	OK	Fluency	OK
162.100000	5	iphone	OK	OK	OK
162.100000	6	is	OK	OK	BAD
162.100000	7	too	OK	OK	BAD
162.100000	8	cheap	OK	OK	BAD
163.100000	0	whole	OK	OK	OK
163.100000	1	living	OK	OK	OK
163.100000	2	spaces	OK	OK	OK
163.100000	3	around	OK	OK	OK
163.100000	4	the	OK	Fluency	OK
163.100000	5	globe	Terminology	Accuracy	OK
163.100000	6	stand	OK	OK	OK
163.100000	7	before	OK	OK	BAD
163.100000	8	dramatic	OK	OK	BAD
163.100000	9	changes	OK	OK	OK
163.100000	10	.	OK	OK	BAD
165.100000	0	in	OK	OK	OK
165.100000	1	some	OK	OK	OK
165.100000	2	branches	OK	OK	OK
165.100000	3	,	OK	OK	OK
165.100000	4	as	OK	OK	OK
165.100000	5	about	OK	Fluency	OK
165.100000	6	the	OK	OK	OK
165.100000	7	trade	OK	OK	OK
165.100000	8	or	OK	OK	OK
165.100000	9	the	OK	Fluency	OK
165.100000	10	social	OK	OK	OK
165.100000	11	and	OK	OK	OK
165.100000	12	health	OK	OK	OK
165.100000	13	being	OK	OK	OK
165.100000	14	,	OK	OK	OK
165.100000	15	the	OK	OK	OK
165.100000	16	working	OK	OK	OK
165.100000	17	conditions	OK	OK	OK
165.100000	18	worsen	OK	OK	BAD
165.100000	19	in	OK	OK	BAD
165.100000	20	the	OK	Accuracy	OK
165.100000	21	practice	OK	Accuracy	OK
165.100000	22	increasingly	OK	OK	OK
165.100000	23	at	OK	OK	OK
165.100000	24	the	OK	OK	OK
165.100000	25	expense	OK	OK	OK
165.100000	26	of	OK	OK	BAD
165.100000	27	the	OK	OK	OK
165.100000	28	employees	OK	OK	OK
165.100000	29	:	OK	OK	OK
168.100000	0	next	OK	OK	OK
168.100000	1	to	OK	OK	OK
168.100000	2	the	OK	OK	OK
168.100000	3	model	OK	OK	OK
168.100000	4	offensive	OK	OK	OK
168.100000	5	the	OK	OK	OK
168.100000	6	bmw	OK	Accuracy	OK
168.100000	7	group	OK	OK	OK
168.100000	8	and	OK	OK	OK
168.100000	9	the	OK	OK	OK
168.100000	10	climbed	OK	OK	OK
168.100000	11	customer	OK	OK	OK
168.100000	12	expectations	OK	OK	OK
168.100000	13	has	OK	OK	OK
168.100000	14	contributed	OK	OK	OK
168.100000	15	the	OK	Fluency	OK
168.100000	16	successful	Terminology	Accuracy	OK
168.100000	17	business	OK	OK	OK
168.100000	18	development	OK	OK	BAD
168.100000	19	of	OK	OK	OK
168.100000	20	bmw	OK	OK	OK
168.100000	21	in	OK	OK	OK
168.100000	22	berlin	OK	OK	OK
168.100000	23	considerably	OK	OK	OK
168.100000	24	to	OK	OK	OK
168.100000	25	this	OK	OK	OK
168.100000	26	decision	OK	OK	OK
168.100000	27	.	OK	OK	OK
169.100000	0	since	OK	OK	OK
169.100000	1	2005	OK	OK	OK
169.100000	2	the	OK	OK	OK
169.100000	3	gigantic	Capitalization	OK	OK
169.100000	4	iceberg	OK	OK	OK
169.100000	5	was	OK	OK	OK
169.100000	6	a53a	OK	OK	OK
169.100000	7	on	OK	Fluency	OK
169.100000	8	the	OK	OK	OK
169.100000	9	way	OK	OK	OK
169.100000	10	through	OK	OK	BAD
169.100000	11	the	OK	OK	OK
169.100000	12	south	OK	OK	OK
169.100000	13	atlantic	OK	OK	OK
169.100000	14	.	OK	OK	OK
174.100000	0	timoschenko	OK	OK	OK
174.100000	1	and	OK	OK	OK
174.100000	2	juschtschenko	OK	OK	OK
174.100000	3	are	OK	OK	OK
174.100000	4	agreed	OK	OK	OK
174.100000	5	that	OK	OK	OK
174.100000	6	the	OK	OK	OK
174.100000	7	country	Terminology	Fluency	BAD
174.100000	8	needs	OK	OK	OK
174.100000	9	a	OK	OK	BAD
174.100000	10	new	OK	OK	BAD
174.100000	11	constitution	OK	OK	OK
174.100000	12	to	OK	OK	BAD
174.100000	13	themselves	OK	OK	OK
174.100000	14	.	OK	OK	BAD
176.100000	0	in	OK	OK	OK
176.100000	1	order	OK	OK	OK
176.100000	2	to	OK	OK	OK
176.100000	3	negotiate	OK	OK	BAD
176.100000	4	to	OK	OK	OK
176.100000	5	children	OK	OK	OK
176.100000	6	,	OK	OK	BAD
176.100000	7	which	OK	OK	OK
176.100000	8	the	OK	Fluency	OK
176.100000	9	conditions	OK	OK	OK
176.100000	10	of	OK	OK	OK
176.100000	11	a	OK	OK	OK
176.100000	12	burning-process	OK	OK	OK
176.100000	13	are	OK	OK	OK
176.100000	14	,	OK	OK	BAD
176.100000	15	the	OK	Fluency	OK
176.100000	16	„	OK	Accuracy	OK
176.100000	17	combustion	OK	Accuracy	OK
176.100000	18	house	OK	OK	OK
176.100000	19	"	OK	OK	OK
176.100000	20	was	OK	OK	BAD
176.100000	21	developed	OK	OK	OK
176.100000	22	following	OK	OK	OK
176.100000	23	the	OK	OK	OK
176.100000	24	combustion	OK	OK	OK
176.100000	25	triangle	OK	OK	OK
176.100000	26	.	OK	OK	OK
177.100000	0	and	OK	OK	OK
177.100000	1	they	OK	OK	OK
177.100000	2	go	OK	OK	OK
177.100000	3	out	OK	OK	OK
177.100000	4	of	OK	OK	OK
177.100000	5	the	OK	OK	OK
177.100000	6	mentality	OK	OK	OK
177.100000	7	of	OK	OK	BAD
177.100000	8	swiss	OK	OK	OK
177.100000	9	and	OK	OK	OK
177.100000	10	germans	OK	OK	OK
177.100000	11	being	OK	OK	OK
177.100000	12	the	OK	OK	OK
177.100000	13	same	OK	OK	OK
177.100000	14	one	OK	OK	BAD
177.100000	15	.	OK	OK	BAD
179.100000	0	in	OK	OK	OK
179.100000	1	some	OK	OK	OK
179.100000	2	fields	OK	OK	OK
179.100000	3	of	OK	OK	OK
179.100000	4	asia	OK	OK	OK
179.100000	5	(	OK	OK	OK
179.100000	6	e.g.	OK	OK	OK
179.100000	7	nepal	OK	OK	OK
179.100000	8	)	OK	OK	OK
179.100000	9	the	OK	OK	OK
179.100000	10	mellifera	OK	OK	OK
179.100000	11	is	OK	OK	BAD
179.100000	12	in	OK	OK	OK
179.100000	13	addition	OK	OK	BAD
179.100000	14	propagated	Word_order	OK	OK
179.100000	15	by	Function_words	OK	OK
179.100000	16	skillful	OK	OK	OK
179.100000	17	profiteers	OK	OK	OK
179.100000	18	strongly	OK	OK	OK
179.100000	19	.	OK	OK	OK
181.100000	0	also	OK	OK	OK
181.100000	1	microsoft	OK	OK	OK
181.100000	2	office	OK	OK	OK
181.100000	3	2007	Word_order	OK	OK
181.100000	4	supports	OK	OK	OK
181.100000	5	the	OK	OK	OK
181.100000	6	transformation	OK	Accuracy	OK
181.100000	7	according	OK	OK	OK
181.100000	8	to	OK	OK	OK
181.100000	9	pdf	OK	OK	OK
181.100000	10	/	OK	OK	OK
181.100000	11	a	OK	OK	OK
181.100000	12	,	OK	OK	OK
181.100000	13	and	OK	OK	OK
181.100000	14	that	OK	OK	OK
181.100000	15	is	OK	OK	OK
181.100000	16	a	OK	OK	OK
181.100000	17	further	OK	OK	OK
181.100000	18	tip	OK	OK	OK
181.100000	19	for	OK	Accuracy	OK
181.100000	20	the	OK	OK	OK
181.100000	21	importance	OK	OK	OK
181.100000	22	of	OK	OK	BAD
181.100000	23	the	OK	OK	OK
181.100000	24	pdf	OK	OK	OK
181.100000	25	/	OK	OK	OK
181.100000	26	a	OK	OK	OK
181.100000	27	standard	OK	OK	OK
181.100000	28	.	OK	OK	OK
183.100000	0	the	OK	OK	OK
183.100000	1	gdr-science	OK	OK	OK
183.100000	2	gave	OK	OK	OK
183.100000	3	in	OK	OK	OK
183.100000	4	1990	OK	Accuracy	OK
183.100000	5	„	OK	OK	OK
183.100000	6	a	OK	OK	OK
183.100000	7	picture	OK	OK	OK
183.100000	8	of	OK	OK	OK
183.100000	9	the	OK	OK	OK
183.100000	10	decay	Capitalization	OK	OK
183.100000	11	“	OK	OK	OK
183.100000	12	,	OK	OK	BAD
183.100000	13	said	OK	OK	OK
183.100000	14	schipanski	OK	OK	OK
183.100000	15	.	OK	OK	OK
190.100000	0	the	OK	OK	OK
190.100000	1	so-called	OK	OK	OK
190.100000	2	chat	OK	OK	OK
190.100000	3	rooms	OK	Fluency	BAD
190.100000	4	are	OK	OK	BAD
190.100000	5	an	OK	OK	OK
190.100000	6	element	OK	OK	OK
190.100000	7	which	OK	OK	OK
190.100000	8	realizes	OK	OK	OK
190.100000	9	the	OK	OK	OK
190.100000	10	communicative	OK	OK	OK
190.100000	11	thought	OK	OK	OK
190.100000	12	in	OK	OK	OK
190.100000	13	high	OK	OK	OK
190.100000	14	measure	OK	OK	OK
190.100000	15	.	OK	OK	OK
194.100000	0	it	OK	OK	OK
194.100000	1	achieves	OK	OK	OK
194.100000	2	in	OK	OK	OK
194.100000	3	this	OK	OK	OK
194.100000	4	way	OK	OK	OK
194.100000	5	a	OK	OK	OK
194.100000	6	contribution	OK	OK	OK
194.100000	7	to	OK	OK	BAD
194.100000	8	the	OK	OK	OK
194.100000	9	prevention	OK	OK	OK
194.100000	10	of	OK	OK	OK
194.100000	11	the	OK	OK	OK
194.100000	12	re-nationalization	OK	OK	OK
194.100000	13	of	OK	OK	BAD
194.100000	14	security	OK	OK	OK
194.100000	15	and	OK	OK	OK
194.100000	16	defense	OK	OK	OK
194.100000	17	politics	OK	OK	OK
194.100000	18	in	OK	OK	OK
194.100000	19	the	OK	OK	OK
194.100000	20	present	OK	OK	OK
194.100000	21	europe	OK	OK	OK
194.100000	22	.	OK	OK	OK
198.100000	0	the	OK	OK	OK
198.100000	1	business	OK	OK	OK
198.100000	2	administration	OK	OK	OK
198.100000	3	deals	OK	OK	OK
198.100000	4	with	OK	OK	OK
198.100000	5	the	OK	OK	OK
198.100000	6	economical	Terminology	OK	OK
198.100000	7	connections	OK	OK	OK
198.100000	8	and	OK	OK	OK
198.100000	9	lawfulness	OK	OK	OK
198.100000	10	of	OK	OK	OK
198.100000	11	single	OK	OK	OK
198.100000	12	enterprises	OK	Accuracy	OK
198.100000	13	and	OK	OK	OK
198.100000	14	supplies	OK	OK	OK
198.100000	15	findings	OK	OK	OK
198.100000	16	for	OK	OK	OK
198.100000	17	company	OK	OK	OK
198.100000	18	internal	OK	OK	OK
198.100000	19	structures	OK	OK	OK
198.100000	20	and	OK	OK	OK
198.100000	21	processes	OK	OK	OK
198.100000	22	.	OK	OK	OK
200.100000	0	also	OK	OK	OK
200.100000	1	the	OK	OK	OK
200.100000	2	room	OK	OK	OK
200.100000	3	offer	Tense/aspect/mood	OK	BAD
200.100000	4	increased	OK	OK	OK
200.100000	5	.	OK	OK	OK
203.100000	0	that	OK	OK	OK
203.100000	1	is	OK	OK	OK
203.100000	2	one	OK	OK	OK
203.100000	3	of	Terminology	OK	BAD
203.100000	4	many	Word_order	OK	OK
203.100000	5	possible	Word_order	OK	OK
203.100000	6	paraphrases	OK	OK	OK
203.100000	7	of	Word_order	OK	OK
203.100000	8	his	OK	OK	BAD
203.100000	9	"	OK	OK	OK
203.100000	10	freedom	OK	OK	OK
203.100000	11	at	OK	OK	BAD
203.100000	12	the	OK	OK	OK
203.100000	13	band	OK	OK	OK
203.100000	14	of	OK	OK	BAD
203.100000	15	the	OK	OK	OK
203.100000	16	necessity	OK	OK	OK
203.100000	17	"	OK	OK	OK
203.100000	18	.	OK	OK	OK
205.100000	0	the	OK	OK	OK
205.100000	1	railroad	OK	OK	OK
205.100000	2	is	OK	OK	OK
205.100000	3	after	OK	OK	BAD
205.100000	4	all	OK	OK	OK
205.100000	5	also	OK	OK	OK
205.100000	6	the	OK	OK	OK
205.100000	7	engineer	OK	OK	OK
205.100000	8	of	OK	OK	BAD
205.100000	9	the	OK	OK	OK
205.100000	10	hybrid	OK	OK	OK
205.100000	11	engine	OK	OK	OK
205.100000	12	.	OK	OK	OK
212.100000	0	central	OK	OK	OK
212.100000	1	points	OK	OK	OK
212.100000	2	are	OK	OK	OK
212.100000	3	the	OK	OK	OK
212.100000	4	strengthening	OK	OK	OK
212.100000	5	of	OK	OK	OK
212.100000	6	the	OK	OK	OK
212.100000	7	attractivity	Terminology	OK	OK
212.100000	8	as	OK	OK	OK
212.100000	9	destination	OK	OK	OK
212.100000	10	,	OK	OK	OK
212.100000	11	improvement	OK	OK	OK
212.100000	12	of	OK	Accuracy	OK
212.100000	13	the	OK	OK	OK
212.100000	14	offer	OK	OK	OK
212.100000	15	quality	OK	OK	OK
212.100000	16	and	OK	OK	OK
212.100000	17	promotion	OK	OK	OK
212.100000	18	of	OK	OK	OK
212.100000	19	the	OK	OK	OK
212.100000	20	social	OK	OK	OK
212.100000	21	tourism	OK	OK	OK
212.100000	22	.	OK	OK	OK
213.100000	0	„	OK	OK	OK
213.100000	1	economic	OK	OK	OK
213.100000	2	refugees	OK	OK	OK
213.100000	3	"	OK	OK	OK
213.100000	4	are	OK	OK	OK
213.100000	5	mentioned	OK	OK	BAD
213.100000	6	those	Function_words	OK	BAD
213.100000	7	ones	Capitalization	OK	BAD
213.100000	8	who	OK	OK	BAD
213.100000	9	flee	OK	OK	OK
213.100000	10	from	OK	OK	OK
213.100000	11	the	OK	OK	OK
213.100000	12	poverty	OK	OK	OK
213.100000	13	which	OK	OK	BAD
213.100000	14	the	OK	OK	OK
213.100000	15	company	OK	OK	OK
213.100000	16	groups	OK	OK	OK
213.100000	17	of	OK	OK	OK
213.100000	18	the	OK	Accuracy	OK
213.100000	19	g8	Terminology	Accuracy	OK
213.100000	20	countries	OK	OK	OK
213.100000	21	and	OK	OK	OK
213.100000	22	their	OK	OK	OK
213.100000	23	governments	OK	OK	OK
213.100000	24	cause	OK	OK	OK
213.100000	25	and	OK	OK	OK
213.100000	26	deepen	OK	OK	OK
213.100000	27	.	OK	OK	OK
215.100000	0	but	OK	OK	OK
215.100000	1	are	OK	OK	OK
215.100000	2	the	OK	OK	OK
215.100000	3	successes	OK	OK	OK
215.100000	4	not	OK	OK	BAD
215.100000	5	relative	OK	OK	BAD
215.100000	6	?	OK	OK	BAD
222.100000	0	because	OK	OK	OK
222.100000	1	the	OK	OK	OK
222.100000	2	shootings	OK	OK	OK
222.100000	3	will	OK	OK	OK
222.100000	4	not	OK	OK	BAD
222.100000	5	be	OK	Fluency	OK
222.100000	6	before	OK	OK	OK
222.100000	7	at	OK	OK	BAD
222.100000	8	the	OK	OK	OK
222.100000	9	end	OK	OK	OK
222.100000	10	of	OK	OK	OK
222.100000	11	august	OK	OK	OK
222.100000	12	finished	OK	OK	OK
222.100000	13	.	OK	OK	OK
229.100000	0	transportation	OK	OK	OK
229.100000	1	in	OK	OK	OK
229.100000	2	the	OK	OK	OK
229.100000	3	electronic	OK	OK	OK
229.100000	4	form	OK	OK	BAD
234.100000	0	the	OK	OK	OK
234.100000	1	traffic	OK	OK	OK
234.100000	2	on	OK	OK	OK
234.100000	3	the	OK	OK	OK
234.100000	4	ten	Terminology	OK	OK
234.100000	5	lanes	OK	Accuracy	OK
234.100000	6	streets	OK	OK	OK
234.100000	7	kills	OK	OK	OK
234.100000	8	us	OK	OK	OK
234.100000	9	-	OK	OK	OK
234.100000	10	it	OK	OK	OK
234.100000	11	remains	OK	OK	OK
234.100000	12	the	OK	OK	OK
234.100000	13	metro	OK	OK	OK
234.100000	14	as	OK	OK	BAD
234.100000	15	a	OK	OK	OK
234.100000	16	vanishing	OK	OK	OK
234.100000	17	point	OK	OK	OK
234.100000	18	.	OK	OK	OK
236.100000	0	the	OK	OK	OK
236.100000	1	empfäger	OK	OK	OK
236.100000	2	e-mail	OK	OK	BAD
236.100000	3	is	OK	OK	OK
236.100000	4	not	OK	OK	OK
236.100000	5	valid	OK	OK	OK
236.100000	6	.	OK	OK	OK
238.100000	0	«	OK	OK	OK
238.100000	1	contents	OK	OK	OK
238.100000	2	»	OK	OK	OK
238.100000	3	are	OK	OK	OK
238.100000	4	decisive	OK	OK	OK
238.100000	5	for	OK	OK	OK
238.100000	6	it	OK	OK	OK
238.100000	7	:	OK	OK	OK
240.100000	0	in	OK	OK	OK
240.100000	1	the	OK	OK	OK
240.100000	2	first	OK	OK	OK
240.100000	3	place	OK	OK	OK
240.100000	4	next	OK	OK	OK
240.100000	5	to	OK	OK	OK
240.100000	6	the	OK	OK	OK
240.100000	7	clarification	OK	OK	OK
240.100000	8	of	OK	OK	OK
240.100000	9	rights	OK	OK	OK
240.100000	10	and	Word_order	OK	OK
240.100000	11	duties	OK	OK	BAD
240.100000	12	this	OK	OK	OK
240.100000	13	is	OK	Fluency	OK
240.100000	14	legal	Mistranslation	OK	OK
240.100000	15	advice	OK	OK	BAD
240.100000	16	and	OK	OK	OK
240.100000	17	representation	OK	OK	OK
240.100000	18	with	OK	OK	OK
240.100000	19	rent	OK	OK	OK
240.100000	20	quarrels	OK	OK	OK
240.100000	21	.	OK	OK	OK
244.100000	0	during	OK	OK	OK
244.100000	1	the	OK	OK	OK
244.100000	2	this	OK	OK	OK
244.100000	3	year	OK	OK	OK
244.100000	4	's	OK	OK	OK
244.100000	5	competition	OK	OK	OK
244.100000	6	in	OK	OK	OK
244.100000	7	helsinki	Tense/aspect/mood	OK	OK
244.100000	8	nine	OK	OK	OK
244.100000	9	of	OK	OK	OK
244.100000	10	the	OK	OK	OK
244.100000	11	ten	OK	Accuracy	OK
244.100000	12	uppermost	OK	OK	BAD
244.100000	13	places	OK	OK	OK
244.100000	14	were	OK	Fluency	BAD
244.100000	15	occupied	OK	OK	OK
244.100000	16	by	Mistranslation	OK	BAD
244.100000	17	east	OK	OK	OK
244.100000	18	european	OK	Accuracy	BAD
244.100000	19	countries	OK	OK	OK
244.100000	20	including	OK	OK	OK
244.100000	21	the	OK	OK	OK
244.100000	22	serbian	OK	Accuracy	OK
244.100000	23	grand	OK	OK	BAD
244.100000	24	prix	OK	OK	OK
244.100000	25	winner	OK	OK	OK
244.100000	26	marija	OK	OK	OK
244.100000	27	serifovic	OK	OK	OK
244.100000	28	(	OK	OK	OK
244.100000	29	"	OK	OK	OK
244.100000	30	molitva	OK	OK	OK
244.100000	31	"	OK	OK	OK
244.100000	32	)	OK	OK	OK
244.100000	33	.	OK	OK	OK
247.100000	0	the	OK	OK	OK
247.100000	1	answers	OK	OK	OK
247.100000	2	are	OK	OK	OK
247.100000	3	not	OK	OK	BAD
247.100000	4	distinguished	OK	OK	OK
247.100000	5	from	OK	OK	OK
247.100000	6	those	OK	OK	OK
247.100000	7	which	OK	OK	OK
247.100000	8	were	Grammar	OK	OK
247.100000	9	given	Function_words	OK	BAD
247.100000	10	before	OK	OK	BAD
247.100000	11	the	OK	OK	OK
247.100000	12	last	OK	OK	OK
247.100000	13	german	OK	OK	OK
247.100000	14	eu	OK	OK	OK
247.100000	15	council	OK	OK	OK
247.100000	16	premiership	OK	OK	OK
247.100000	17	in	OK	OK	OK
247.100000	18	the	OK	OK	OK
247.100000	19	first	OK	OK	OK
247.100000	20	year	OK	OK	OK
247.100000	21	half	OK	OK	OK
247.100000	22	1999	OK	OK	OK
247.100000	23	.	OK	OK	OK
248.100000	0	about	OK	OK	OK
248.100000	1	two	OK	OK	OK
248.100000	2	million	OK	OK	OK
248.100000	3	kinds	OK	OK	OK
248.100000	4	-	OK	OK	OK
248.100000	5	animals	OK	OK	OK
248.100000	6	,	OK	OK	OK
248.100000	7	plants	OK	OK	OK
248.100000	8	,	OK	OK	OK
248.100000	9	mushrooms	OK	OK	OK
248.100000	10	and	OK	OK	OK
248.100000	11	microorganisms	OK	OK	OK
248.100000	12	-	Tense/aspect/mood	OK	OK
248.100000	13	were	OK	OK	OK
248.100000	14	described	OK	OK	OK
248.100000	15	up	OK	OK	OK
248.100000	16	to	OK	OK	OK
248.100000	17	now	OK	OK	OK
248.100000	18	.	OK	OK	OK
249.100000	0	the	OK	OK	OK
249.100000	1	crisis	OK	OK	OK
249.100000	2	of	OK	OK	BAD
249.100000	3	the	OK	OK	OK
249.100000	4	school	OK	OK	OK
249.100000	5	teaches	OK	OK	OK
249.100000	6	how	OK	OK	BAD
249.100000	7	these	OK	OK	OK
249.100000	8	crossings	OK	OK	BAD
249.100000	9	are	OK	OK	OK
249.100000	10	importantly	OK	OK	OK
249.100000	11	.	OK	OK	OK
252.100000	0	also	OK	OK	OK
252.100000	1	here	OK	OK	OK
252.100000	2	the	OK	OK	OK
252.100000	3	handled	Terminology	Accuracy	OK
252.100000	4	bacteria	OK	OK	OK
252.100000	5	showed	OK	OK	OK
252.100000	6	clear	OK	OK	OK
252.100000	7	changes	OK	OK	OK
252.100000	8	in	OK	OK	OK
252.100000	9	the	OK	OK	OK
252.100000	10	material	OK	OK	OK
252.100000	11	budget	OK	OK	BAD
252.100000	12	as	OK	OK	OK
252.100000	13	well	OK	OK	OK
252.100000	14	as	OK	OK	OK
252.100000	15	an	OK	OK	OK
252.100000	16	increasing	OK	OK	OK
252.100000	17	virulence	OK	OK	OK
252.100000	18	.	OK	OK	OK
254.100000	0	chronology	OK	OK	OK
254.100000	1	of	OK	OK	OK
254.100000	2	an	OK	OK	OK
254.100000	3	extraordinary	OK	OK	OK
254.100000	4	mäzenatentums	OK	OK	OK
257.100000	0	because	OK	OK	OK
257.100000	1	pixar	OK	OK	OK
257.100000	2	and	OK	OK	OK
257.100000	3	disney	OK	OK	OK
257.100000	4	lead	OK	OK	OK
257.100000	5	an	OK	OK	OK
257.100000	6	almost	Tense/aspect/mood	OK	OK
257.100000	7	subversive	OK	OK	OK
257.100000	8	campaign	OK	OK	OK
257.100000	9	with	OK	OK	OK
257.100000	10	the	OK	OK	OK
257.100000	11	aid	OK	OK	OK
257.100000	12	of	OK	OK	OK
257.100000	13	the	OK	OK	OK
257.100000	14	agreeable	OK	OK	OK
257.100000	15	rat	Function_words	OK	OK
257.100000	16	against	OK	OK	OK
257.100000	17	lousy	OK	OK	OK
257.100000	18	fastfood-habits	OK	OK	OK
257.100000	19	.	OK	OK	OK
258.100000	0	the	OK	OK	OK
258.100000	1	trade	OK	OK	OK
258.100000	2	representative	OK	OK	OK
258.100000	3	contracts	OK	OK	BAD
258.100000	4	must	OK	OK	OK
258.100000	5	be	OK	OK	OK
258.100000	6	entered	OK	OK	OK
258.100000	7	into	OK	Accuracy	OK
258.100000	8	the	OK	OK	OK
258.100000	9	commercial	OK	OK	OK
258.100000	10	register	OK	OK	OK
258.100000	11	near	OK	Fluency	OK
258.100000	12	the	OK	OK	OK
258.100000	13	responsible	OK	OK	OK
258.100000	14	local	OK	OK	OK
258.100000	15	chamber	OK	OK	OK
258.100000	16	of	OK	OK	OK
258.100000	17	commerce	OK	OK	OK
258.100000	18	(	OK	OK	OK
258.100000	19	kind	OK	OK	OK
258.100000	20	.	OK	OK	OK
259.100000	0	behaviors	OK	OK	OK
259.100000	1	were	OK	OK	OK
259.100000	2	examined	OK	OK	OK
259.100000	3	systematic	OK	OK	OK
259.100000	4	then	OK	OK	OK
259.100000	5	,	OK	OK	OK
259.100000	6	to	OK	Fluency	OK
259.100000	7	what	OK	OK	OK
259.100000	8	extent	OK	OK	OK
259.100000	9	the	OK	Fluency	OK
259.100000	10	animal	OK	Fluency	OK
259.100000	11	corresponds	OK	OK	BAD
259.100000	12	to	OK	OK	OK
259.100000	13	the	OK	OK	OK
259.100000	14	standards	OK	OK	OK
259.100000	15	of	OK	OK	BAD
259.100000	16	human	OK	OK	OK
259.100000	17	cognition	OK	OK	OK
259.100000	18	.	OK	OK	OK
270.100000	0	the	OK	OK	OK
270.100000	1	ferrostaal	OK	OK	OK
270.100000	2	ag	OK	OK	OK
270.100000	3	is	OK	OK	BAD
270.100000	4	worldwide	OK	OK	OK
270.100000	5	leadingly	OK	OK	OK
270.100000	6	as	OK	OK	OK
270.100000	7	a	OK	OK	OK
270.100000	8	service	OK	OK	OK
270.100000	9	provider	OK	OK	OK
270.100000	10	in	OK	OK	OK
270.100000	11	the	OK	OK	OK
270.100000	12	connection	Terminology	OK	OK
270.100000	13	of	OK	OK	BAD
270.100000	14	technical	OK	OK	OK
270.100000	15	and	OK	OK	OK
270.100000	16	financial	OK	OK	OK
270.100000	17	engineering	OK	OK	OK
270.100000	18	.	OK	OK	OK
273.100000	0	use	OK	OK	OK
273.100000	1	of	OK	OK	OK
273.100000	2	weblogs	OK	OK	OK
273.100000	3	in	OK	OK	OK
273.100000	4	the	OK	OK	OK
273.100000	5	school	OK	OK	OK
273.100000	6	instruction	OK	OK	BAD
273.100000	7	-	OK	OK	OK
273.100000	8	application	OK	OK	OK
273.100000	9	stages	OK	OK	OK
277.100000	0	in	OK	OK	OK
277.100000	1	the	OK	OK	OK
277.100000	2	region	OK	Accuracy	OK
277.100000	3	in	OK	OK	OK
277.100000	4	front	OK	OK	OK
277.100000	5	of	OK	OK	OK
277.100000	6	the	OK	Accuracy	OK
277.100000	7	californian	OK	Accuracy	OK
277.100000	8	coast	OK	OK	OK
277.100000	9	about	OK	OK	OK
277.100000	10	a	OK	OK	OK
277.100000	11	hundred	OK	OK	OK
277.100000	12	blue	OK	OK	OK
277.100000	13	whales	OK	OK	OK
277.100000	14	live	OK	OK	OK
277.100000	15	.	OK	OK	OK
279.100000	0	in	OK	OK	OK
279.100000	1	latter	OK	OK	OK
279.100000	2	case	OK	OK	OK
279.100000	3	this	OK	OK	BAD
279.100000	4	would	OK	OK	OK
279.100000	5	be	OK	OK	OK
279.100000	6	among	Capitalization	OK	OK
279.100000	7	other	OK	OK	OK
279.100000	8	things	OK	OK	OK
279.100000	9	the	OK	Accuracy	OK
279.100000	10	messenger	OK	OK	OK
279.100000	11	material	OK	OK	OK
279.100000	12	(	OK	OK	OK
279.100000	13	neurotransmitter	OK	OK	OK
279.100000	14	)	OK	OK	OK
279.100000	15	serotonin	OK	OK	OK
279.100000	16	.	OK	OK	OK
289.100000	0	please	OK	OK	OK
289.100000	1	hold	OK	OK	OK
289.100000	2	yourself	OK	OK	OK
289.100000	3	for	OK	Fluency	BAD
289.100000	4	the	OK	OK	OK
289.100000	5	exact	OK	OK	OK
289.100000	6	positions	OK	OK	OK
289.100000	7	of	OK	OK	OK
289.100000	8	the	OK	OK	OK
289.100000	9	disks	OK	OK	OK
289.100000	10	onto	OK	OK	BAD
289.100000	11	the	OK	OK	OK
289.100000	12	above	OK	OK	OK
289.100000	13	chart	OK	OK	OK
289.100000	14	.	OK	OK	OK
300.100000	0	in	OK	OK	OK
300.100000	1	addition	OK	OK	OK
300.100000	2	theory	OK	OK	OK
300.100000	3	structures	OK	OK	OK
300.100000	4	come	OK	OK	OK
300.100000	5	for	OK	OK	OK
300.100000	6	the	OK	OK	OK
300.100000	7	characterization	OK	OK	OK
300.100000	8	of	OK	OK	BAD
300.100000	9	the	OK	OK	OK
300.100000	10	single	OK	OK	OK
300.100000	11	constituents	OK	OK	OK
300.100000	12	.	OK	OK	OK
302.100000	0	according	OK	OK	OK
302.100000	1	to	OK	OK	OK
302.100000	2	findings	OK	OK	OK
302.100000	3	which	OK	OK	BAD
302.100000	4	reached	OK	OK	BAD
302.100000	5	the	OK	OK	OK
302.100000	6	british	OK	Accuracy	OK
302.100000	7	secret	OK	OK	OK
302.100000	8	service	OK	OK	OK
302.100000	9	at	OK	OK	OK
302.100000	10	the	OK	OK	OK
302.100000	11	beginning	Capitalization	OK	OK
302.100000	12	of	OK	OK	BAD
302.100000	13	1945	OK	OK	BAD
302.100000	14	a	OK	OK	OK
302.100000	15	destruction	Tense/aspect/mood	OK	OK
302.100000	16	radius	OK	OK	OK
302.100000	17	of	OK	OK	BAD
302.100000	18	about	OK	OK	OK
302.100000	19	600	Tense/aspect/mood	OK	OK
302.100000	20	meters	OK	OK	OK
302.100000	21	was	OK	Fluency	OK
302.100000	22	achieved	OK	OK	OK
302.100000	23	with	OK	OK	OK
302.100000	24	a	OK	OK	OK
302.100000	25	test	OK	OK	OK
302.100000	26	by	OK	OK	OK
302.100000	27	berlin	OK	OK	OK
302.100000	28	to	OK	OK	OK
302.100000	29	the	OK	OK	OK
302.100000	30	north	OK	OK	OK
302.100000	31	.	OK	OK	OK
303.100000	0	speak	OK	OK	OK
303.100000	1	the	OK	OK	OK
303.100000	2	following	OK	Accuracy	OK
303.100000	3	words	OK	OK	OK
303.100000	4	aloud	OK	OK	OK
303.100000	5	and	OK	OK	OK
303.100000	6	mark	OK	OK	OK
303.100000	7	then	OK	OK	OK
303.100000	8	the	OK	OK	OK
303.100000	9	syllable	OK	OK	OK
303.100000	10	which	OK	OK	OK
303.100000	11	bears	OK	OK	OK
303.100000	12	the	OK	OK	OK
303.100000	13	main	OK	Fluency	OK
303.100000	14	stress	OK	OK	BAD
303.100000	15	.	OK	OK	BAD
311.100000	0	the	OK	OK	OK
311.100000	1	new	OK	OK	OK
311.100000	2	head	OK	OK	OK
311.100000	3	of	OK	OK	OK
311.100000	4	the	OK	OK	OK
311.100000	5	berlin	OK	OK	OK
311.100000	6	dussmann	OK	OK	OK
311.100000	7	group	OK	OK	OK
311.100000	8	,	OK	OK	BAD
311.100000	9	thomas	OK	OK	OK
311.100000	10	greiner	OK	OK	OK
311.100000	11	,	OK	OK	OK
311.100000	12	wants	OK	OK	BAD
311.100000	13	to	OK	OK	OK
311.100000	14	create	OK	Fluency	BAD
311.100000	15	still	OK	OK	OK
311.100000	16	this	OK	OK	OK
311.100000	17	year	OK	OK	OK
311.100000	18	1000	OK	OK	OK
311.100000	19	new	OK	OK	OK
311.100000	20	jobs	OK	OK	OK
311.100000	21	,	OK	OK	BAD
311.100000	22	100	OK	OK	BAD
311.100000	23	of	OK	OK	OK
311.100000	24	them	OK	OK	OK
311.100000	25	in	OK	OK	OK
311.100000	26	berlin	OK	OK	OK
311.100000	27	and	OK	OK	OK
311.100000	28	brandenburg	OK	OK	OK
311.100000	29	.	OK	OK	OK
313.100000	0	just	OK	OK	OK
313.100000	1	in	OK	OK	OK
313.100000	2	central	OK	OK	OK
313.100000	3	europe	OK	Accuracy	OK
313.100000	4	there	OK	OK	OK
313.100000	5	are	OK	OK	OK
313.100000	6	now	OK	OK	OK
313.100000	7	and	OK	OK	OK
313.100000	8	then	OK	OK	OK
313.100000	9	strong	OK	OK	OK
313.100000	10	reservations	OK	OK	OK
313.100000	11	against	OK	OK	OK
313.100000	12	the	OK	OK	OK
313.100000	13	preserving	OK	OK	OK
313.100000	14	of	OK	OK	OK
313.100000	15	corpses	OK	OK	OK
313.100000	16	.	OK	OK	OK
316.100000	0	information	OK	OK	OK
316.100000	1	(	OK	OK	OK
316.100000	2	about	OK	OK	OK
316.100000	3	application	OK	OK	OK
316.100000	4	possibilities	OK	OK	OK
316.100000	5	,	OK	OK	OK
316.100000	6	fort	OK	OK	OK
316.100000	7	educations	OK	OK	OK
316.100000	8	,	OK	OK	OK
316.100000	9	fact-finding	OK	OK	BAD
316.100000	10	tours	OK	OK	BAD
316.100000	11	,	OK	OK	BAD
316.100000	12	ideas	OK	OK	OK
316.100000	13	)	OK	OK	OK
319.100000	0	because	OK	OK	OK
319.100000	1	there	OK	OK	OK
319.100000	2	is	OK	OK	OK
319.100000	3	this	OK	OK	OK
319.100000	4	transformation	OK	OK	OK
319.100000	5	process	OK	OK	OK
319.100000	6	,	OK	OK	OK
319.100000	7	it	OK	OK	BAD
319.100000	8	is	OK	OK	OK
319.100000	9	reasonable	OK	OK	OK
319.100000	10	and	OK	OK	OK
319.100000	11	necessary	OK	OK	BAD
319.100000	12	to	OK	OK	OK
319.100000	13	understand	OK	Fluency	BAD
319.100000	14	programmatic	OK	OK	BAD
319.100000	15	ideas	OK	OK	OK
319.100000	16	again	OK	OK	BAD
319.100000	17	.	OK	OK	BAD
321.100000	0	in	OK	OK	OK
321.100000	1	november	OK	OK	OK
321.100000	2	union	OK	OK	OK
321.100000	3	and	OK	OK	OK
321.100000	4	spd	OK	Fluency	OK
321.100000	5	want	OK	OK	OK
321.100000	6	to	OK	OK	OK
321.100000	7	talk	OK	OK	OK
321.100000	8	once	OK	OK	OK
321.100000	9	again	OK	OK	OK
321.100000	10	about	OK	OK	OK
321.100000	11	the	OK	OK	OK
321.100000	12	online-search	Terminology	Accuracy	OK
321.100000	13	as	OK	OK	OK
321.100000	14	union	OK	OK	BAD
321.100000	15	faction	OK	OK	OK
321.100000	16	leader	OK	OK	OK
321.100000	17	volker	OK	OK	OK
321.100000	18	kauder	OK	OK	OK
321.100000	19	explained	OK	OK	OK
321.100000	20	.	OK	OK	OK
323.100000	0	also	OK	OK	OK
323.100000	1	"	OK	OK	OK
323.100000	2	black	OK	OK	OK
323.100000	3	man	OK	Fluency	OK
323.100000	4	working	OK	OK	BAD
323.100000	5	"	OK	OK	OK
323.100000	6	is	OK	OK	OK
323.100000	7	possible	OK	OK	OK
323.100000	8	,	OK	OK	OK
323.100000	9	depends	OK	OK	OK
323.100000	10	on	OK	OK	OK
323.100000	11	who	OK	OK	BAD
323.100000	12	answers	OK	OK	OK
323.100000	13	.	OK	OK	BAD
331.100000	0	the	OK	OK	OK
331.100000	1	liquidation	OK	OK	OK
331.100000	2	is	OK	OK	OK
331.100000	3	carried	OK	OK	OK
331.100000	4	out	OK	OK	OK
331.100000	5	by	OK	OK	OK
331.100000	6	the	OK	OK	OK
331.100000	7	executive	OK	OK	OK
331.100000	8	board	OK	OK	OK
331.100000	9	,	OK	OK	BAD
331.100000	10	provided	OK	OK	OK
331.100000	11	that	OK	OK	OK
331.100000	12	the	OK	OK	OK
331.100000	13	general	OK	OK	OK
331.100000	14	meeting	OK	OK	OK
331.100000	15	orders	OK	OK	OK
331.100000	16	liquidators	OK	OK	OK
331.100000	17	not	OK	OK	OK
331.100000	18	other	OK	OK	OK
331.100000	19	.	OK	OK	OK
333.100000	0	and	OK	OK	OK
333.100000	1	yes	OK	OK	OK
333.100000	2	,	OK	OK	OK
333.100000	3	and	OK	OK	OK
333.100000	4	these	OK	OK	OK
333.100000	5	old	OK	OK	BAD
333.100000	6	mountain	OK	OK	OK
333.100000	7	climbers	OK	OK	OK
333.100000	8	told	OK	OK	OK
333.100000	9	these	OK	OK	OK
333.100000	10	histories	OK	OK	OK
333.100000	11	.	OK	OK	BAD
337.100000	0	the	OK	OK	OK
337.100000	1	same	OK	OK	OK
337.100000	2	sense	OK	OK	OK
337.100000	3	of	OK	OK	OK
337.100000	4	office	OK	OK	BAD
337.100000	5	and	OK	OK	OK
337.100000	6	sacrament	OK	OK	BAD
338.100000	0	the	OK	OK	OK
338.100000	1	expansion	OK	OK	OK
338.100000	2	of	OK	OK	OK
338.100000	3	the	OK	OK	OK
338.100000	4	elementary	OK	Accuracy	OK
338.100000	5	schools	OK	OK	OK
338.100000	6	to	OK	Fluency	OK
338.100000	7	full-time	OK	OK	BAD
338.100000	8	elementary	OK	OK	OK
338.100000	9	schools	OK	OK	OK
338.100000	10	broadens	OK	OK	OK
338.100000	11	the	OK	OK	OK
338.100000	12	pedagogic	Capitalization	OK	OK
338.100000	13	action	Tense/aspect/mood	OK	BAD
338.100000	14	elbow	OK	OK	OK
338.100000	15	room	OK	OK	OK
338.100000	16	and	OK	OK	OK
338.100000	17	offers	OK	OK	OK
338.100000	18	possibilities	OK	OK	OK
338.100000	19	of	OK	OK	OK
338.100000	20	qualified	OK	OK	OK
338.100000	21	care	OK	OK	OK
338.100000	22	.	OK	OK	OK
349.100000	0	the	OK	OK	OK
349.100000	1	finishing	OK	OK	OK
349.100000	2	guarantee	OK	OK	OK
349.100000	3	and	OK	OK	BAD
349.100000	4	/	OK	OK	OK
349.100000	5	or	OK	OK	OK
349.100000	6	.	OK	OK	OK
349.100000	7	finishing	Untranslated	OK	OK
349.100000	8	insurance	OK	OK	OK
349.100000	9	is	OK	OK	OK
349.100000	10	an	OK	OK	OK
349.100000	11	important	OK	OK	OK
349.100000	12	component	OK	OK	OK
349.100000	13	of	OK	Accuracy	OK
349.100000	14	the	OK	OK	OK
349.100000	15	film	OK	OK	OK
349.100000	16	financing	OK	OK	OK
349.100000	17	and	OK	OK	OK
349.100000	18	is	OK	OK	OK
349.100000	19	defined	OK	OK	OK
349.100000	20	before	OK	OK	OK
349.100000	21	beginning	OK	OK	OK
349.100000	22	of	OK	OK	OK
349.100000	23	production	OK	OK	OK
349.100000	24	by	OK	OK	OK
349.100000	25	contract	OK	OK	OK
349.100000	26	.	OK	OK	OK
