1	0	"	OK	OK	OK
1	1	instead	OK	OK	OK
1	2	of	OK	OK	OK
1	3	strengthening	OK	OK	OK
1	4	the	OK	OK	OK
1	5	civil	OK	OK	OK
1	6	society	OK	OK	OK
1	7	,	OK	OK	OK
1	8	the	OK	OK	OK
1	9	president	OK	OK	OK
1	10	cancels	OK	OK	OK
1	11	them	OK	Fluency	OK
1	12	de	Word_order	Fluency	OK
1	13	facto	OK	Fluency	OK
1	14	"	OK	OK	OK
1	15	,	OK	OK	OK
1	16	deplores	OK	OK	OK
1	17	saeda	OK	OK	OK
1	18	.	OK	OK	BAD
4	0	the	OK	OK	OK
4	1	word	OK	OK	OK
4	2	orientates	OK	OK	OK
4	3	itself	OK	Fluency	BAD
4	4	by	Mistranslation	OK	BAD
4	5	"	OK	OK	OK
4	6	bang	Tense/aspect/mood	OK	OK
4	7	dakuan	OK	OK	BAD
4	8	"	OK	OK	OK
4	9	.	OK	OK	BAD
5	0	this	OK	OK	OK
5	1	is	OK	OK	OK
5	2	cheap	OK	OK	OK
5	3	and	OK	OK	BAD
5	4	time-efficient	OK	OK	OK
5	5	.	OK	OK	OK
8	0	at	OK	OK	OK
8	1	the	OK	OK	OK
8	2	end	OK	OK	OK
8	3	of	OK	OK	OK
8	4	the	OK	Accuracy	OK
8	5	500-meter-long	Terminology	Accuracy	OK
8	6	journey	OK	OK	OK
8	7	,	OK	OK	OK
8	8	you	OK	OK	OK
8	9	are	OK	OK	OK
8	10	rewarded	OK	OK	BAD
8	11	in	OK	OK	OK
8	12	the	OK	OK	OK
8	13	literature	OK	OK	OK
8	14	café	OK	OK	OK
8	15	,	OK	OK	OK
8	16	not	OK	OK	BAD
8	17	only	OK	OK	OK
8	18	with	OK	OK	OK
8	19	a	OK	OK	OK
8	20	fantastic	OK	OK	OK
8	21	view	OK	OK	BAD
8	22	of	OK	OK	OK
8	23	the	OK	OK	OK
8	24	city	OK	OK	OK
8	25	,	OK	OK	BAD
8	26	but	OK	Fluency	OK
8	27	also	OK	OK	OK
8	28	with	OK	OK	OK
8	29	dutch	OK	OK	OK
8	30	croquettes	OK	OK	OK
8	31	and	OK	OK	OK
8	32	potted	OK	OK	OK
8	33	ficus	OK	OK	OK
8	34	trees	OK	OK	OK
8	35	.	OK	OK	OK
14	0	for	OK	OK	OK
14	1	example	OK	OK	OK
14	2	,	OK	OK	OK
14	3	if	OK	OK	OK
14	4	we	OK	OK	OK
14	5	look	OK	Fluency	OK
14	6	at	OK	OK	OK
14	7	the	OK	OK	OK
14	8	euro	OK	OK	OK
14	9	crisis	OK	OK	OK
14	10	,	OK	OK	OK
14	11	there	OK	OK	OK
14	12	is	OK	Fluency	OK
14	13	every	OK	OK	OK
14	14	time	OK	OK	BAD
14	15	germany	OK	Fluency	BAD
14	16	assumes	OK	OK	BAD
14	17	a	OK	OK	OK
14	18	greater	OK	OK	OK
14	19	role	OK	OK	OK
14	20	,	OK	OK	BAD
14	21	a	OK	OK	BAD
14	22	variety	OK	Fluency	BAD
14	23	of	OK	OK	BAD
14	24	anti-german	OK	OK	OK
14	25	sentiment	OK	OK	OK
14	26	.	OK	OK	OK
19	0	our	OK	OK	OK
19	1	insights	OK	OK	OK
19	2	in	OK	OK	OK
19	3	all	OK	OK	OK
19	4	:	OK	OK	OK
19	5	the	OK	OK	OK
19	6	most	Terminology	OK	OK
19	7	important	OK	OK	OK
19	8	telescopes	OK	OK	OK
30	0	imbongi	OK	OK	OK
30	1	means	OK	OK	OK
30	2	on	OK	OK	OK
30	3	zulu	OK	OK	OK
30	4	storyteller	Terminology	OK	OK
30	5	or	OK	OK	OK
30	6	lobpreiser	Capitalization	OK	OK
30	7	.	OK	OK	OK
38	0	"	OK	OK	OK
38	1	the	OK	OK	OK
38	2	koran	OK	OK	OK
38	3	is	OK	OK	OK
38	4	our	OK	OK	OK
38	5	constitution	OK	OK	OK
38	6	.	OK	OK	OK
38	7	"	OK	OK	OK
44	0	but	OK	OK	OK
44	1	what	OK	OK	OK
44	2	of	OK	OK	OK
44	3	the	OK	OK	OK
44	4	61-year-old	Terminology	Accuracy	OK
44	5	engineer	OK	OK	OK
44	6	,	OK	OK	OK
44	7	who	OK	OK	OK
44	8	has	OK	OK	OK
44	9	a	OK	OK	OK
44	10	doctorate	OK	OK	OK
44	11	from	OK	OK	OK
44	12	the	OK	OK	OK
44	13	american	OK	OK	OK
44	14	university	OK	OK	BAD
44	15	of	OK	OK	BAD
44	16	southern	OK	OK	OK
44	17	california	OK	OK	OK
44	18	,	OK	OK	OK
44	19	really	OK	OK	OK
44	20	wants	OK	OK	OK
44	21	to	OK	OK	OK
44	22	save	OK	OK	OK
44	23	,	OK	OK	OK
44	24	as	OK	OK	OK
44	25	are	OK	OK	OK
44	26	the	OK	OK	OK
44	27	egyptians	OK	OK	OK
44	28	,	OK	Fluency	BAD
44	29	the	OK	OK	OK
44	30	world	OK	OK	OK
44	31	is	OK	OK	BAD
44	32	not	OK	OK	OK
44	33	entirely	OK	OK	BAD
44	34	clear	OK	OK	OK
44	35	.	OK	OK	BAD
45	0	for	OK	OK	OK
45	1	all	OK	OK	OK
45	2	of	OK	OK	OK
45	3	them	OK	OK	OK
45	4	,	OK	OK	OK
45	5	until	OK	OK	OK
45	6	now	OK	OK	BAD
45	7	hopelessly	OK	OK	OK
45	8	estranged	OK	OK	OK
45	9	in	OK	OK	OK
45	10	a	OK	OK	OK
45	11	bewildered	OK	OK	OK
45	12	opposition	Tense/aspect/mood	OK	BAD
45	13	,	OK	OK	OK
45	14	are	OK	OK	BAD
45	15	fearful	OK	OK	OK
45	16	.	OK	OK	OK
47	0	the	OK	OK	OK
47	1	fabulous	OK	OK	OK
47	2	wealth	OK	OK	OK
47	3	the	OK	Fluency	OK
47	4	country	Capitalization	Fluency	OK
47	5	owes	OK	OK	OK
47	6	its	OK	OK	BAD
47	7	oil	OK	OK	OK
47	8	in	OK	OK	OK
47	9	the	OK	OK	OK
47	10	caspian	OK	OK	OK
47	11	sea	OK	OK	OK
47	12	,	OK	OK	OK
47	13	has	OK	OK	OK
47	14	not	OK	OK	OK
47	15	yet	OK	OK	BAD
47	16	arrived	OK	OK	OK
47	17	in	OK	OK	OK
47	18	the	OK	OK	OK
47	19	province	OK	OK	OK
47	20	.	OK	OK	BAD
51	0	in	OK	OK	OK
51	1	the	OK	OK	OK
51	2	next	OK	OK	OK
51	3	two	OK	Accuracy	OK
51	4	instances	OK	OK	OK
51	5	,	OK	OK	OK
51	6	freudenberg	OK	OK	OK
51	7	was	OK	OK	OK
51	8	proven	OK	OK	OK
51	9	right	OK	OK	OK
51	10	,	OK	OK	BAD
51	11	however	OK	OK	BAD
51	12	the	OK	OK	OK
51	13	opposing	OK	Accuracy	OK
51	14	party	OK	Fluency	BAD
51	15	continues	OK	OK	OK
51	16	to	OK	OK	OK
51	17	contest	OK	OK	BAD
51	18	the	OK	OK	OK
51	19	matter	OK	OK	OK
51	20	to	OK	OK	OK
51	21	this	OK	OK	OK
51	22	day	OK	OK	OK
51	23	.	OK	OK	OK
55	0	the	OK	OK	OK
55	1	robert-koch	OK	OK	OK
55	2	institute	OK	OK	OK
55	3	estimates	OK	OK	OK
55	4	that	OK	OK	OK
55	5	at	OK	OK	OK
55	6	least	OK	Fluency	OK
55	7	four	OK	OK	OK
55	8	out	OK	OK	BAD
55	9	of	OK	OK	OK
55	10	five	OK	OK	OK
55	11	of	OK	OK	OK
55	12	all	OK	Accuracy	OK
55	13	syphilis	Mistranslation	OK	OK
55	14	cases	OK	OK	OK
55	15	reported	OK	Accuracy	BAD
55	16	in	OK	OK	OK
55	17	germany	OK	Accuracy	OK
55	18	through	OK	OK	OK
55	19	sexual	OK	Accuracy	OK
55	20	contact	OK	OK	OK
55	21	between	OK	OK	OK
55	22	men	OK	OK	OK
55	23	.	OK	OK	OK
60	0	however	OK	OK	OK
60	1	,	OK	OK	OK
60	2	there	OK	OK	OK
60	3	is	OK	OK	BAD
60	4	not	OK	OK	OK
60	5	a	OK	OK	OK
60	6	birth	OK	OK	OK
60	7	certificate	OK	OK	OK
60	8	.	OK	OK	OK
63	0	here	OK	OK	OK
63	1	,	OK	OK	OK
63	2	humane	OK	OK	OK
63	3	pappilomaviren	OK	OK	OK
63	4	also	OK	Fluency	BAD
63	5	occur	Word_order	OK	OK
63	6	among	Mistranslation	OK	BAD
63	7	young	OK	OK	OK
63	8	people	OK	OK	OK
63	9	.	OK	OK	OK
65	0	"	OK	OK	OK
65	1	the	OK	OK	OK
65	2	revolution	OK	OK	OK
65	3	has	OK	OK	BAD
65	4	returned	OK	OK	OK
65	5	.	OK	OK	OK
65	6	"	OK	OK	OK
74	0	aggravatingly	OK	OK	OK
74	1	comes	OK	OK	OK
74	2	that	OK	OK	OK
74	3	the	OK	OK	OK
74	4	europeans	OK	OK	OK
74	5	have	OK	OK	OK
74	6	no	OK	OK	BAD
74	7	coherent	OK	OK	OK
74	8	and	OK	OK	BAD
74	9	uniform	OK	OK	OK
74	10	politics	OK	OK	OK
74	11	.	OK	OK	OK
77	0	similarly	OK	OK	OK
77	1	,	OK	OK	OK
77	2	the	OK	OK	OK
77	3	phrase	OK	Fluency	OK
77	4	seems	OK	OK	OK
77	5	dubious	OK	OK	OK
77	6	,	OK	OK	OK
77	7	"	OK	OK	OK
77	8	insulting	OK	OK	BAD
77	9	people	OK	OK	BAD
77	10	is	OK	OK	BAD
77	11	prohibited	OK	OK	BAD
77	12	.	OK	OK	BAD
80	0	a	OK	OK	OK
80	1	bus	OK	OK	OK
80	2	full	OK	OK	OK
80	3	of	OK	OK	OK
80	4	white	OK	OK	OK
80	5	people	OK	OK	OK
80	6	,	OK	OK	OK
80	7	who	OK	OK	BAD
80	8	sing	OK	OK	OK
80	9	songs	OK	OK	OK
80	10	in	OK	OK	OK
80	11	a	OK	OK	OK
80	12	black	OK	OK	OK
80	13	language	OK	OK	OK
80	14	-	OK	OK	OK
80	15	this	Word_order	Fluency	OK
80	16	degree	Word_order	Fluency	OK
80	17	of	Word_order	OK	OK
80	18	recognition	Terminology	OK	OK
80	19	brings	OK	OK	OK
80	20	not	OK	OK	OK
80	21	only	OK	OK	OK
80	22	morale	OK	OK	OK
80	23	and	OK	OK	OK
80	24	joy	OK	OK	OK
80	25	,	OK	OK	OK
80	26	but	OK	Fluency	OK
80	27	some	OK	OK	OK
80	28	grim-faced	Word_order	Fluency	BAD
80	29	border	OK	Fluency	OK
80	30	soldiers	OK	Accuracy	OK
80	31	even	OK	OK	BAD
80	32	shed	OK	OK	OK
80	33	a	OK	OK	OK
80	34	few	OK	OK	OK
80	35	tears	OK	OK	OK
80	36	.	OK	OK	OK
84	0	these	OK	OK	OK
84	1	provide	OK	OK	OK
84	2	atmosphere	OK	OK	OK
84	3	,	OK	OK	OK
84	4	but	OK	OK	OK
84	5	most	OK	OK	OK
84	6	importantly	OK	OK	OK
84	7	,	OK	OK	OK
84	8	regulate	OK	Fluency	OK
84	9	the	OK	Fluency	OK
84	10	air	OK	OK	OK
84	11	humidity	OK	OK	BAD
84	12	in	OK	OK	OK
84	13	the	OK	OK	OK
84	14	literary	OK	OK	OK
84	15	mountain	OK	OK	OK
84	16	range	OK	OK	OK
84	17	.	OK	OK	OK
85	0	although	OK	OK	OK
85	1	the	OK	OK	OK
85	2	books	OK	OK	OK
85	3	mountain	OK	OK	OK
85	4	is	OK	OK	OK
85	5	under	OK	OK	OK
85	6	a	OK	OK	OK
85	7	glass	OK	OK	OK
85	8	of	OK	OK	BAD
85	9	fall	OK	OK	OK
85	10	,	OK	OK	BAD
85	11	the	OK	OK	OK
85	12	sun	OK	Fluency	OK
85	13	shines	OK	Accuracy	OK
85	14	even	Grammar	OK	BAD
85	15	on	Mistranslation	OK	OK
85	16	sunny	OK	OK	OK
85	17	days	OK	OK	OK
85	18	,	OK	OK	OK
85	19	briefly	OK	OK	OK
85	20	into	OK	OK	OK
85	21	the	OK	OK	OK
85	22	interior	OK	OK	OK
85	23	.	OK	OK	OK
90	0	"	OK	OK	OK
90	1	and	OK	OK	OK
90	2	now	OK	OK	OK
90	3	the	OK	Fluency	OK
90	4	word	OK	OK	OK
90	5	is	OK	OK	OK
90	6	not	OK	OK	BAD
90	7	even	OK	OK	BAD
90	8	human	OK	OK	OK
90	9	rights	OK	OK	OK
90	10	in	OK	OK	OK
90	11	the	OK	OK	OK
90	12	new	OK	OK	OK
90	13	constitution	OK	OK	OK
90	14	,	OK	OK	BAD
90	15	"	OK	OK	OK
90	16	he	OK	OK	OK
90	17	laments	OK	OK	OK
90	18	in	OK	OK	OK
90	19	conversation	OK	OK	OK
90	20	with	OK	OK	OK
90	21	the	OK	OK	OK
90	22	"	OK	Accuracy	OK
90	23	world	OK	OK	OK
90	24	on	OK	OK	BAD
90	25	sunday	OK	OK	OK
90	26	.	OK	OK	BAD
90	27	"	OK	OK	OK
92	0	nevertheless	OK	OK	OK
92	1	,	OK	OK	OK
92	2	he	OK	OK	OK
92	3	reaches	OK	OK	OK
92	4	a	OK	OK	OK
92	5	diameter	OK	OK	OK
92	6	from	Function_words	OK	OK
92	7	about	OK	OK	OK
92	8	eleven	OK	OK	OK
92	9	metres	OK	OK	OK
92	10	.	OK	OK	OK
94	0	in	OK	OK	OK
94	1	heidelberg	OK	OK	OK
94	2	the	OK	OK	OK
94	3	choir	OK	Accuracy	OK
94	4	rehearses	OK	OK	OK
94	5	imbongi	OK	OK	OK
94	6	-	OK	OK	OK
94	7	and	OK	OK	OK
94	8	in	OK	OK	OK
94	9	swaziland	OK	OK	OK
94	10	aids	OK	OK	OK
94	11	orphans	Tense/aspect/mood	OK	OK
94	12	are	OK	OK	OK
94	13	glad	OK	OK	OK
94	14	about	OK	OK	OK
94	15	it	OK	OK	OK
94	16	.	OK	OK	OK
95	0	everybody	OK	OK	OK
95	1	has	OK	OK	OK
95	2	internet	OK	OK	OK
95	3	,	OK	OK	BAD
95	4	ipad	OK	OK	OK
95	5	and	OK	OK	BAD
95	6	e-books	OK	OK	OK
95	7	.	OK	OK	OK
96	0	this	OK	OK	OK
96	1	plays	OK	OK	OK
96	2	anyway	OK	OK	OK
96	3	a	OK	OK	OK
96	4	role	OK	OK	OK
96	5	.	OK	OK	OK
97	0	the	OK	OK	OK
97	1	germans	OK	OK	OK
97	2	appear	OK	OK	OK
97	3	so	OK	OK	OK
97	4	between	OK	Accuracy	OK
97	5	the	OK	Accuracy	OK
97	6	fronts	Capitalization	OK	OK
97	7	.	OK	OK	BAD
102	0	these	OK	OK	OK
102	1	dishes	OK	OK	OK
102	2	served	OK	OK	OK
102	3	during	Word_order	OK	OK
102	4	mubarak	Word_order	Accuracy	OK
102	5	's	Tense/aspect/mood	OK	OK
102	6	rule	OK	OK	OK
102	7	on	OK	OK	OK
102	8	the	OK	OK	OK
102	9	repression	OK	OK	OK
102	10	of	OK	OK	OK
102	11	political	OK	OK	OK
102	12	opponents	OK	OK	OK
102	13	.	OK	OK	OK
105	0	a	OK	OK	OK
105	1	demonstrator	OK	OK	OK
105	2	on	OK	OK	OK
105	3	the	OK	Fluency	OK
105	4	tahrir	OK	OK	OK
105	5	warns	OK	OK	BAD
105	6	:	OK	Fluency	OK
105	7	"	OK	OK	OK
105	8	you	OK	OK	OK
105	9	gebährt	OK	OK	OK
105	10	a	OK	OK	OK
105	11	monster	OK	OK	OK
105	12	whom	OK	OK	OK
105	13	you	OK	Fluency	OK
105	14	cannot	OK	OK	BAD
105	15	control	OK	OK	BAD
105	16	any	OK	OK	BAD
105	17	more	Word_order	OK	BAD
105	18	.	OK	OK	OK
105	19	"	OK	OK	BAD
107	0	"	OK	OK	OK
107	1	the	OK	OK	OK
107	2	bookshelves	OK	OK	OK
107	3	stand	OK	OK	OK
107	4	ordinarily	OK	OK	OK
107	5	along	OK	OK	OK
107	6	the	OK	OK	OK
107	7	facade	OK	OK	OK
107	8	,	OK	OK	OK
107	9	and	OK	OK	OK
107	10	in	OK	OK	OK
107	11	the	OK	OK	OK
107	12	middle	OK	OK	OK
107	13	lies	OK	OK	OK
107	14	a	OK	OK	OK
107	15	big	OK	OK	OK
107	16	,	OK	OK	OK
107	17	dark	OK	OK	OK
107	18	space	OK	OK	OK
107	19	which	OK	OK	OK
107	20	is	OK	OK	BAD
107	21	mostly	OK	OK	OK
107	22	uncomfortable	OK	OK	OK
107	23	and	OK	OK	OK
107	24	impersonal	OK	OK	OK
107	25	"	OK	OK	OK
107	26	,	OK	OK	OK
107	27	says	OK	OK	OK
107	28	winy	OK	OK	OK
107	29	the	OK	OK	OK
107	30	meuse	OK	OK	OK
107	31	.	OK	OK	OK
109	0	unnoticed	OK	OK	OK
109	1	by	OK	OK	OK
109	2	the	OK	OK	OK
109	3	people	OK	OK	OK
109	4	of	OK	OK	OK
109	5	the	OK	OK	OK
109	6	earth	OK	OK	OK
109	7	probes	OK	OK	OK
109	8	,	OK	OK	OK
109	9	telescopes	OK	OK	OK
109	10	and	OK	OK	OK
109	11	small	OK	OK	OK
109	12	robots	OK	OK	OK
109	13	like	OK	OK	OK
109	14	phoenix	OK	OK	OK
109	15	is	OK	Fluency	BAD
109	16	to	OK	OK	BAD
109	17	explore	OK	OK	BAD
109	18	the	OK	OK	OK
109	19	depths	OK	OK	OK
109	20	of	OK	OK	BAD
109	21	the	OK	OK	OK
109	22	universe	OK	OK	OK
109	23	.	OK	OK	OK
113	0	the	OK	OK	OK
113	1	80,000-inhabitant	OK	OK	OK
113	2	municipality	OK	OK	OK
113	3	shows	OK	OK	OK
113	4	the	OK	OK	OK
113	5	lowest	OK	OK	OK
113	6	educational	OK	OK	OK
113	7	rate	OK	OK	OK
113	8	of	OK	OK	OK
113	9	the	OK	OK	OK
113	10	whole	OK	OK	OK
113	11	netherlands	OK	OK	OK
113	12	.	OK	OK	OK
114	0	the	OK	OK	OK
114	1	mini-bus	OK	OK	OK
114	2	rumbled	OK	OK	OK
114	3	through	OK	OK	OK
114	4	the	OK	OK	OK
114	5	winding	OK	OK	OK
114	6	road	OK	OK	OK
114	7	,	OK	OK	BAD
114	8	past	OK	OK	OK
114	9	densely	OK	OK	OK
114	10	wooded	OK	OK	OK
114	11	hills	OK	OK	OK
114	12	,	OK	OK	OK
114	13	rushing	OK	OK	OK
114	14	rivers	OK	OK	OK
114	15	and	OK	Fluency	OK
114	16	simple	OK	OK	OK
114	17	farmhouses	OK	OK	OK
114	18	.	OK	OK	OK
115	0	almost	OK	OK	OK
115	1	57,000	OK	OK	OK
115	2	such	OK	OK	OK
115	3	cased	Word_order	OK	BAD
115	4	were	OK	OK	OK
115	5	closed	OK	OK	OK
115	6	,	OK	OK	OK
115	7	75	OK	OK	OK
115	8	percent	OK	OK	OK
115	9	more	OK	OK	OK
115	10	than	OK	OK	OK
115	11	in	OK	OK	BAD
115	12	the	OK	OK	OK
115	13	previous	OK	OK	OK
115	14	year	OK	OK	OK
115	15	.	OK	OK	OK
118	0	so	OK	OK	OK
118	1	young	OK	OK	OK
118	2	and	OK	OK	OK
118	3	uneducated	OK	Fluency	OK
118	4	,	OK	OK	OK
118	5	they	Capitalization	OK	BAD
118	6	may	OK	OK	OK
118	7	be	OK	OK	OK
118	8	.	OK	OK	OK
131	0	"	OK	OK	OK
131	1	i	OK	OK	OK
131	2	think	OK	OK	OK
131	3	,	OK	OK	BAD
131	4	now	OK	OK	BAD
131	5	thanks	OK	OK	OK
131	6	to	OK	OK	OK
131	7	our	OK	Fluency	OK
131	8	invitation	OK	OK	OK
131	9	every	Word_order	OK	OK
131	10	inhabitant	OK	OK	BAD
131	11	has	OK	OK	BAD
131	12	a	OK	OK	OK
131	13	certain	OK	OK	OK
131	14	respect	OK	OK	OK
131	15	with	OK	OK	BAD
131	16	this	OK	OK	OK
131	17	new	OK	OK	OK
131	18	house	OK	OK	OK
131	19	.	OK	OK	OK
134	0	but	OK	OK	OK
134	1	i	OK	OK	OK
134	2	wonder	OK	OK	OK
134	3	what	OK	OK	OK
134	4	we	OK	OK	OK
134	5	still	OK	OK	OK
134	6	need	OK	OK	OK
134	7	a	OK	OK	OK
134	8	library	OK	OK	OK
134	9	.	OK	OK	BAD
142	0	the	OK	OK	OK
142	1	messenger	OK	OK	OK
142	2	probe	OK	OK	OK
142	3	has	OK	OK	OK
142	4	found	OK	OK	OK
142	5	evidence	OK	OK	OK
142	6	that	OK	OK	OK
142	7	there	OK	OK	BAD
142	8	is	OK	OK	OK
142	9	on	OK	OK	BAD
142	10	the	OK	OK	BAD
142	11	planet	OK	OK	OK
142	12	mercury	OK	OK	OK
142	13	ice	OK	OK	BAD
142	14	.	OK	OK	BAD
143	0	due	OK	OK	OK
143	1	to	OK	OK	OK
143	2	lacking	OK	OK	OK
143	3	documentation	OK	OK	OK
143	4	,	OK	OK	OK
143	5	however	OK	OK	OK
143	6	,	OK	OK	OK
143	7	there	OK	OK	OK
143	8	is	OK	Fluency	OK
143	9	no	OK	Fluency	OK
143	10	scientific	OK	Fluency	OK
143	11	proof	OK	OK	OK
143	12	of	OK	OK	BAD
143	13	age	OK	OK	BAD
143	14	,	OK	OK	OK
143	15	particularly	OK	OK	OK
143	16	as	OK	OK	BAD
143	17	there	OK	OK	OK
143	18	are	OK	OK	OK
143	19	no	OK	OK	OK
143	20	birth	OK	OK	OK
143	21	registers	OK	OK	OK
143	22	.	OK	OK	OK
145	0	the	OK	OK	OK
145	1	messenger	OK	OK	OK
145	2	probe	OK	OK	OK
145	3	has	OK	OK	OK
145	4	found	OK	OK	OK
145	5	evidence	OK	OK	OK
145	6	that	OK	OK	OK
145	7	there	OK	OK	OK
145	8	is	OK	OK	BAD
145	9	an	OK	OK	BAD
145	10	ice	OK	OK	OK
145	11	cover	OK	OK	OK
145	12	in	OK	OK	OK
145	13	the	OK	OK	OK
145	14	region	OK	OK	OK
145	15	of	OK	OK	BAD
145	16	the	OK	Accuracy	OK
145	17	planet	OK	OK	OK
145	18	that	OK	OK	OK
145	19	lies	OK	OK	OK
145	20	permanently	OK	OK	OK
145	21	in	OK	OK	OK
145	22	shadow	OK	OK	OK
145	23	.	OK	OK	OK
146	0	but	OK	OK	OK
146	1	pilata	OK	OK	OK
146	2	fatulayeva	OK	OK	OK
146	3	(	OK	OK	OK
146	4	48	OK	OK	OK
146	5	)	OK	OK	BAD
146	6	is	OK	Fluency	OK
146	7	convinced	OK	OK	OK
146	8	that	OK	OK	OK
146	9	lerik	OK	OK	OK
146	10	has	OK	Fluency	OK
146	11	the	OK	OK	OK
146	12	stuff	OK	OK	OK
146	13	to	OK	Accuracy	OK
146	14	the	OK	OK	OK
146	15	tourist	OK	OK	OK
146	16	attraction	OK	OK	OK
146	17	.	OK	OK	BAD
147	0	but	OK	OK	OK
147	1	i	OK	OK	OK
147	2	would	OK	OK	OK
147	3	not	OK	Fluency	BAD
147	4	want	OK	OK	OK
147	5	to	OK	OK	OK
147	6	give	OK	OK	BAD
147	7	too	Grammar	OK	OK
147	8	much	OK	Fluency	OK
147	9	weight	OK	OK	OK
147	10	,	OK	OK	OK
147	11	which	OK	OK	BAD
147	12	is	OK	OK	BAD
147	13	not	OK	OK	BAD
147	14	a	OK	OK	BAD
147	15	totally	Tense/aspect/mood	OK	OK
147	16	one-sided	OK	OK	OK
147	17	relationship	OK	OK	OK
147	18	.	OK	OK	OK
148	0	in	OK	OK	OK
148	1	the	OK	OK	OK
148	2	village	OK	OK	OK
148	3	itself	OK	OK	BAD
148	4	zodwa	OK	OK	OK
148	5	dlamini	OK	OK	OK
148	6	,	OK	OK	BAD
148	7	a	OK	OK	OK
148	8	self-confident	OK	OK	OK
148	9	and	OK	OK	BAD
148	10	penetration-strong	OK	OK	OK
148	11	woman	OK	OK	OK
148	12	,	OK	OK	OK
148	13	the	OK	OK	OK
148	14	money	OK	OK	BAD
148	15	from	OK	OK	OK
148	16	germany	OK	OK	OK
148	17	administers	OK	OK	OK
148	18	.	OK	OK	OK
153	0	in	OK	OK	OK
153	1	this	OK	OK	OK
153	2	way	OK	OK	OK
153	3	the	OK	OK	OK
153	4	evolution	OK	Accuracy	OK
153	5	of	OK	OK	BAD
153	6	an	OK	OK	OK
153	7	own	OK	OK	OK
153	8	isolated	OK	OK	BAD
153	9	hominid	OK	OK	BAD
153	10	kind	OK	OK	BAD
153	11	is	OK	OK	OK
153	12	impossible	OK	OK	BAD
153	13	,	OK	OK	OK
153	14	deduce	OK	OK	BAD
153	15	the	OK	OK	OK
153	16	researchers	OK	OK	OK
153	17	.	OK	OK	OK
156	0	the	OK	OK	OK
156	1	hype	OK	OK	OK
156	2	does	OK	OK	OK
156	3	not	OK	OK	OK
156	4	take	OK	OK	OK
156	5	any	OK	OK	OK
156	6	end	OK	OK	OK
156	7	,	OK	OK	BAD
156	8	and	OK	OK	OK
156	9	it	OK	OK	OK
156	10	states	OK	OK	OK
156	11	presumably	OK	OK	OK
156	12	more	OK	OK	OK
156	13	about	OK	OK	OK
156	14	the	OK	OK	OK
156	15	mode	OK	Accuracy	OK
156	16	of	OK	OK	BAD
156	17	operation	OK	OK	OK
156	18	of	OK	Fluency	OK
156	19	the	OK	OK	OK
156	20	media	Capitalization	OK	OK
156	21	society	OK	OK	OK
156	22	than	OK	OK	OK
156	23	about	OK	OK	OK
156	24	the	OK	OK	OK
156	25	kitchen	OK	OK	OK
156	26	of	OK	OK	OK
156	27	the	OK	OK	OK
156	28	present	OK	OK	OK
156	29	.	OK	OK	OK
157	0	the	OK	OK	OK
157	1	user	OK	OK	OK
157	2	declares	OK	OK	OK
157	3	himself	OK	OK	OK
157	4	agreed	OK	OK	OK
157	5	on	OK	OK	OK
157	6	his	OK	OK	OK
157	7	personal	OK	OK	OK
157	8	data	OK	OK	BAD
157	9	being	OK	OK	BAD
157	10	stored	OK	OK	OK
157	11	by	OK	Accuracy	OK
157	12	the	OK	OK	OK
157	13	provider	OK	Accuracy	OK
157	14	in	OK	OK	OK
157	15	electronic	OK	Accuracy	OK
157	16	form	OK	OK	OK
157	17	.	OK	OK	OK
162	0	a	OK	OK	OK
162	1	million	OK	OK	OK
162	2	dollars	OK	OK	OK
162	3	because	OK	Fluency	OK
162	4	the	OK	Fluency	OK
162	5	iphone	OK	OK	OK
162	6	is	OK	OK	BAD
162	7	too	OK	OK	BAD
162	8	cheap	OK	OK	BAD
163	0	whole	OK	OK	OK
163	1	living	OK	OK	OK
163	2	spaces	OK	OK	OK
163	3	around	OK	OK	OK
163	4	the	OK	Fluency	OK
163	5	globe	Terminology	Accuracy	OK
163	6	stand	OK	OK	OK
163	7	before	OK	OK	BAD
163	8	dramatic	OK	OK	BAD
163	9	changes	OK	OK	OK
163	10	.	OK	OK	BAD
165	0	in	OK	OK	OK
165	1	some	OK	OK	OK
165	2	branches	OK	OK	OK
165	3	,	OK	OK	OK
165	4	as	OK	OK	OK
165	5	about	OK	Fluency	OK
165	6	the	OK	OK	OK
165	7	trade	OK	OK	OK
165	8	or	OK	OK	OK
165	9	the	OK	Fluency	OK
165	10	social	OK	OK	OK
165	11	and	OK	OK	OK
165	12	health	OK	OK	OK
165	13	being	OK	OK	OK
165	14	,	OK	OK	OK
165	15	the	OK	OK	OK
165	16	working	OK	OK	OK
165	17	conditions	OK	OK	OK
165	18	worsen	OK	OK	BAD
165	19	in	OK	OK	BAD
165	20	the	OK	Accuracy	OK
165	21	practice	OK	Accuracy	OK
165	22	increasingly	OK	OK	OK
165	23	at	OK	OK	OK
165	24	the	OK	OK	OK
165	25	expense	OK	OK	OK
165	26	of	OK	OK	BAD
165	27	the	OK	OK	OK
165	28	employees	OK	OK	OK
165	29	:	OK	OK	OK
168	0	next	OK	OK	OK
168	1	to	OK	OK	OK
168	2	the	OK	OK	OK
168	3	model	OK	OK	OK
168	4	offensive	OK	OK	OK
168	5	the	OK	OK	OK
168	6	bmw	OK	Accuracy	OK
168	7	group	OK	OK	OK
168	8	and	OK	OK	OK
168	9	the	OK	OK	OK
168	10	climbed	OK	OK	OK
168	11	customer	OK	OK	OK
168	12	expectations	OK	OK	OK
168	13	has	OK	OK	OK
168	14	contributed	OK	OK	OK
168	15	the	OK	Fluency	OK
168	16	successful	Terminology	Accuracy	OK
168	17	business	OK	OK	OK
168	18	development	OK	OK	BAD
168	19	of	OK	OK	OK
168	20	bmw	OK	OK	OK
168	21	in	OK	OK	OK
168	22	berlin	OK	OK	OK
168	23	considerably	OK	OK	OK
168	24	to	OK	OK	OK
168	25	this	OK	OK	OK
168	26	decision	OK	OK	OK
168	27	.	OK	OK	OK
169	0	since	OK	OK	OK
169	1	2005	OK	OK	OK
169	2	the	OK	OK	OK
169	3	gigantic	Capitalization	OK	OK
169	4	iceberg	OK	OK	OK
169	5	was	OK	OK	OK
169	6	a53a	OK	OK	OK
169	7	on	OK	Fluency	OK
169	8	the	OK	OK	OK
169	9	way	OK	OK	OK
169	10	through	OK	OK	BAD
169	11	the	OK	OK	OK
169	12	south	OK	OK	OK
169	13	atlantic	OK	OK	OK
169	14	.	OK	OK	OK
174	0	timoschenko	OK	OK	OK
174	1	and	OK	OK	OK
174	2	juschtschenko	OK	OK	OK
174	3	are	OK	OK	OK
174	4	agreed	OK	OK	OK
174	5	that	OK	OK	OK
174	6	the	OK	OK	OK
174	7	country	Terminology	Fluency	BAD
174	8	needs	OK	OK	OK
174	9	a	OK	OK	BAD
174	10	new	OK	OK	BAD
174	11	constitution	OK	OK	OK
174	12	to	OK	OK	BAD
174	13	themselves	OK	OK	OK
174	14	.	OK	OK	BAD
176	0	in	OK	OK	OK
176	1	order	OK	OK	OK
176	2	to	OK	OK	OK
176	3	negotiate	OK	OK	BAD
176	4	to	OK	OK	OK
176	5	children	OK	OK	OK
176	6	,	OK	OK	BAD
176	7	which	OK	OK	OK
176	8	the	OK	Fluency	OK
176	9	conditions	OK	OK	OK
176	10	of	OK	OK	OK
176	11	a	OK	OK	OK
176	12	burning-process	OK	OK	OK
176	13	are	OK	OK	OK
176	14	,	OK	OK	BAD
176	15	the	OK	Fluency	OK
176	16	„	OK	Accuracy	OK
176	17	combustion	OK	Accuracy	OK
176	18	house	OK	OK	OK
176	19	"	OK	OK	OK
176	20	was	OK	OK	BAD
176	21	developed	OK	OK	OK
176	22	following	OK	OK	OK
176	23	the	OK	OK	OK
176	24	combustion	OK	OK	OK
176	25	triangle	OK	OK	OK
176	26	.	OK	OK	OK
177	0	and	OK	OK	OK
177	1	they	OK	OK	OK
177	2	go	OK	OK	OK
177	3	out	OK	OK	OK
177	4	of	OK	OK	OK
177	5	the	OK	OK	OK
177	6	mentality	OK	OK	OK
177	7	of	OK	OK	BAD
177	8	swiss	OK	OK	OK
177	9	and	OK	OK	OK
177	10	germans	OK	OK	OK
177	11	being	OK	OK	OK
177	12	the	OK	OK	OK
177	13	same	OK	OK	OK
177	14	one	OK	OK	BAD
177	15	.	OK	OK	BAD
179	0	in	OK	OK	OK
179	1	some	OK	OK	OK
179	2	fields	OK	OK	OK
179	3	of	OK	OK	OK
179	4	asia	OK	OK	OK
179	5	(	OK	OK	OK
179	6	e.g.	OK	OK	OK
179	7	nepal	OK	OK	OK
179	8	)	OK	OK	OK
179	9	the	OK	OK	OK
179	10	mellifera	OK	OK	OK
179	11	is	OK	OK	BAD
179	12	in	OK	OK	OK
179	13	addition	OK	OK	BAD
179	14	propagated	Word_order	OK	OK
179	15	by	Function_words	OK	OK
179	16	skillful	OK	OK	OK
179	17	profiteers	OK	OK	OK
179	18	strongly	OK	OK	OK
179	19	.	OK	OK	OK
181	0	also	OK	OK	OK
181	1	microsoft	OK	OK	OK
181	2	office	OK	OK	OK
181	3	2007	Word_order	OK	OK
181	4	supports	OK	OK	OK
181	5	the	OK	OK	OK
181	6	transformation	OK	Accuracy	OK
181	7	according	OK	OK	OK
181	8	to	OK	OK	OK
181	9	pdf	OK	OK	OK
181	10	/	OK	OK	OK
181	11	a	OK	OK	OK
181	12	,	OK	OK	OK
181	13	and	OK	OK	OK
181	14	that	OK	OK	OK
181	15	is	OK	OK	OK
181	16	a	OK	OK	OK
181	17	further	OK	OK	OK
181	18	tip	OK	OK	OK
181	19	for	OK	Accuracy	OK
181	20	the	OK	OK	OK
181	21	importance	OK	OK	OK
181	22	of	OK	OK	BAD
181	23	the	OK	OK	OK
181	24	pdf	OK	OK	OK
181	25	/	OK	OK	OK
181	26	a	OK	OK	OK
181	27	standard	OK	OK	OK
181	28	.	OK	OK	OK
183	0	the	OK	OK	OK
183	1	gdr-science	OK	OK	OK
183	2	gave	OK	OK	OK
183	3	in	OK	OK	OK
183	4	1990	OK	Accuracy	OK
183	5	„	OK	OK	OK
183	6	a	OK	OK	OK
183	7	picture	OK	OK	OK
183	8	of	OK	OK	OK
183	9	the	OK	OK	OK
183	10	decay	Capitalization	OK	OK
183	11	“	OK	OK	OK
183	12	,	OK	OK	BAD
183	13	said	OK	OK	OK
183	14	schipanski	OK	OK	OK
183	15	.	OK	OK	OK
190	0	the	OK	OK	OK
190	1	so-called	OK	OK	OK
190	2	chat	OK	OK	OK
190	3	rooms	OK	Fluency	BAD
190	4	are	OK	OK	BAD
190	5	an	OK	OK	OK
190	6	element	OK	OK	OK
190	7	which	OK	OK	OK
190	8	realizes	OK	OK	OK
190	9	the	OK	OK	OK
190	10	communicative	OK	OK	OK
190	11	thought	OK	OK	OK
190	12	in	OK	OK	OK
190	13	high	OK	OK	OK
190	14	measure	OK	OK	OK
190	15	.	OK	OK	OK
194	0	it	OK	OK	OK
194	1	achieves	OK	OK	OK
194	2	in	OK	OK	OK
194	3	this	OK	OK	OK
194	4	way	OK	OK	OK
194	5	a	OK	OK	OK
194	6	contribution	OK	OK	OK
194	7	to	OK	OK	BAD
194	8	the	OK	OK	OK
194	9	prevention	OK	OK	OK
194	10	of	OK	OK	OK
194	11	the	OK	OK	OK
194	12	re-nationalization	OK	OK	OK
194	13	of	OK	OK	BAD
194	14	security	OK	OK	OK
194	15	and	OK	OK	OK
194	16	defense	OK	OK	OK
194	17	politics	OK	OK	OK
194	18	in	OK	OK	OK
194	19	the	OK	OK	OK
194	20	present	OK	OK	OK
194	21	europe	OK	OK	OK
194	22	.	OK	OK	OK
198	0	the	OK	OK	OK
198	1	business	OK	OK	OK
198	2	administration	OK	OK	OK
198	3	deals	OK	OK	OK
198	4	with	OK	OK	OK
198	5	the	OK	OK	OK
198	6	economical	Terminology	OK	OK
198	7	connections	OK	OK	OK
198	8	and	OK	OK	OK
198	9	lawfulness	OK	OK	OK
198	10	of	OK	OK	OK
198	11	single	OK	OK	OK
198	12	enterprises	OK	Accuracy	OK
198	13	and	OK	OK	OK
198	14	supplies	OK	OK	OK
198	15	findings	OK	OK	OK
198	16	for	OK	OK	OK
198	17	company	OK	OK	OK
198	18	internal	OK	OK	OK
198	19	structures	OK	OK	OK
198	20	and	OK	OK	OK
198	21	processes	OK	OK	OK
198	22	.	OK	OK	OK
200	0	also	OK	OK	OK
200	1	the	OK	OK	OK
200	2	room	OK	OK	OK
200	3	offer	Tense/aspect/mood	OK	BAD
200	4	increased	OK	OK	OK
200	5	.	OK	OK	OK
203	0	that	OK	OK	OK
203	1	is	OK	OK	OK
203	2	one	OK	OK	OK
203	3	of	Terminology	OK	BAD
203	4	many	Word_order	OK	OK
203	5	possible	Word_order	OK	OK
203	6	paraphrases	OK	OK	OK
203	7	of	Word_order	OK	OK
203	8	his	OK	OK	BAD
203	9	"	OK	OK	OK
203	10	freedom	OK	OK	OK
203	11	at	OK	OK	BAD
203	12	the	OK	OK	OK
203	13	band	OK	OK	OK
203	14	of	OK	OK	BAD
203	15	the	OK	OK	OK
203	16	necessity	OK	OK	OK
203	17	"	OK	OK	OK
203	18	.	OK	OK	OK
205	0	the	OK	OK	OK
205	1	railroad	OK	OK	OK
205	2	is	OK	OK	OK
205	3	after	OK	OK	BAD
205	4	all	OK	OK	OK
205	5	also	OK	OK	OK
205	6	the	OK	OK	OK
205	7	engineer	OK	OK	OK
205	8	of	OK	OK	BAD
205	9	the	OK	OK	OK
205	10	hybrid	OK	OK	OK
205	11	engine	OK	OK	OK
205	12	.	OK	OK	OK
212	0	central	OK	OK	OK
212	1	points	OK	OK	OK
212	2	are	OK	OK	OK
212	3	the	OK	OK	OK
212	4	strengthening	OK	OK	OK
212	5	of	OK	OK	OK
212	6	the	OK	OK	OK
212	7	attractivity	Terminology	OK	OK
212	8	as	OK	OK	OK
212	9	destination	OK	OK	OK
212	10	,	OK	OK	OK
212	11	improvement	OK	OK	OK
212	12	of	OK	Accuracy	OK
212	13	the	OK	OK	OK
212	14	offer	OK	OK	OK
212	15	quality	OK	OK	OK
212	16	and	OK	OK	OK
212	17	promotion	OK	OK	OK
212	18	of	OK	OK	OK
212	19	the	OK	OK	OK
212	20	social	OK	OK	OK
212	21	tourism	OK	OK	OK
212	22	.	OK	OK	OK
213	0	„	OK	OK	OK
213	1	economic	OK	OK	OK
213	2	refugees	OK	OK	OK
213	3	"	OK	OK	OK
213	4	are	OK	OK	OK
213	5	mentioned	OK	OK	BAD
213	6	those	Function_words	OK	BAD
213	7	ones	Capitalization	OK	BAD
213	8	who	OK	OK	BAD
213	9	flee	OK	OK	OK
213	10	from	OK	OK	OK
213	11	the	OK	OK	OK
213	12	poverty	OK	OK	OK
213	13	which	OK	OK	BAD
213	14	the	OK	OK	OK
213	15	company	OK	OK	OK
213	16	groups	OK	OK	OK
213	17	of	OK	OK	OK
213	18	the	OK	Accuracy	OK
213	19	g8	Terminology	Accuracy	OK
213	20	countries	OK	OK	OK
213	21	and	OK	OK	OK
213	22	their	OK	OK	OK
213	23	governments	OK	OK	OK
213	24	cause	OK	OK	OK
213	25	and	OK	OK	OK
213	26	deepen	OK	OK	OK
213	27	.	OK	OK	OK
215	0	but	OK	OK	OK
215	1	are	OK	OK	OK
215	2	the	OK	OK	OK
215	3	successes	OK	OK	OK
215	4	not	OK	OK	BAD
215	5	relative	OK	OK	BAD
215	6	?	OK	OK	BAD
222	0	because	OK	OK	OK
222	1	the	OK	OK	OK
222	2	shootings	OK	OK	OK
222	3	will	OK	OK	OK
222	4	not	OK	OK	BAD
222	5	be	OK	Fluency	OK
222	6	before	OK	OK	OK
222	7	at	OK	OK	BAD
222	8	the	OK	OK	OK
222	9	end	OK	OK	OK
222	10	of	OK	OK	OK
222	11	august	OK	OK	OK
222	12	finished	OK	OK	OK
222	13	.	OK	OK	OK
229	0	transportation	OK	OK	OK
229	1	in	OK	OK	OK
229	2	the	OK	OK	OK
229	3	electronic	OK	OK	OK
229	4	form	OK	OK	BAD
234	0	the	OK	OK	OK
234	1	traffic	OK	OK	OK
234	2	on	OK	OK	OK
234	3	the	OK	OK	OK
234	4	ten	Terminology	OK	OK
234	5	lanes	OK	Accuracy	OK
234	6	streets	OK	OK	OK
234	7	kills	OK	OK	OK
234	8	us	OK	OK	OK
234	9	-	OK	OK	OK
234	10	it	OK	OK	OK
234	11	remains	OK	OK	OK
234	12	the	OK	OK	OK
234	13	metro	OK	OK	OK
234	14	as	OK	OK	BAD
234	15	a	OK	OK	OK
234	16	vanishing	OK	OK	OK
234	17	point	OK	OK	OK
234	18	.	OK	OK	OK
236	0	the	OK	OK	OK
236	1	empfäger	OK	OK	OK
236	2	e-mail	OK	OK	BAD
236	3	is	OK	OK	OK
236	4	not	OK	OK	OK
236	5	valid	OK	OK	OK
236	6	.	OK	OK	OK
238	0	«	OK	OK	OK
238	1	contents	OK	OK	OK
238	2	»	OK	OK	OK
238	3	are	OK	OK	OK
238	4	decisive	OK	OK	OK
238	5	for	OK	OK	OK
238	6	it	OK	OK	OK
238	7	:	OK	OK	OK
240	0	in	OK	OK	OK
240	1	the	OK	OK	OK
240	2	first	OK	OK	OK
240	3	place	OK	OK	OK
240	4	next	OK	OK	OK
240	5	to	OK	OK	OK
240	6	the	OK	OK	OK
240	7	clarification	OK	OK	OK
240	8	of	OK	OK	OK
240	9	rights	OK	OK	OK
240	10	and	Word_order	OK	OK
240	11	duties	OK	OK	BAD
240	12	this	OK	OK	OK
240	13	is	OK	Fluency	OK
240	14	legal	Mistranslation	OK	OK
240	15	advice	OK	OK	BAD
240	16	and	OK	OK	OK
240	17	representation	OK	OK	OK
240	18	with	OK	OK	OK
240	19	rent	OK	OK	OK
240	20	quarrels	OK	OK	OK
240	21	.	OK	OK	OK
244	0	during	OK	OK	OK
244	1	the	OK	OK	OK
244	2	this	OK	OK	OK
244	3	year	OK	OK	OK
244	4	's	OK	OK	OK
244	5	competition	OK	OK	OK
244	6	in	OK	OK	OK
244	7	helsinki	Tense/aspect/mood	OK	OK
244	8	nine	OK	OK	OK
244	9	of	OK	OK	OK
244	10	the	OK	OK	OK
244	11	ten	OK	Accuracy	OK
244	12	uppermost	OK	OK	BAD
244	13	places	OK	OK	OK
244	14	were	OK	Fluency	BAD
244	15	occupied	OK	OK	OK
244	16	by	Mistranslation	OK	BAD
244	17	east	OK	OK	OK
244	18	european	OK	Accuracy	BAD
244	19	countries	OK	OK	OK
244	20	including	OK	OK	OK
244	21	the	OK	OK	OK
244	22	serbian	OK	Accuracy	OK
244	23	grand	OK	OK	BAD
244	24	prix	OK	OK	OK
244	25	winner	OK	OK	OK
244	26	marija	OK	OK	OK
244	27	serifovic	OK	OK	OK
244	28	(	OK	OK	OK
244	29	"	OK	OK	OK
244	30	molitva	OK	OK	OK
244	31	"	OK	OK	OK
244	32	)	OK	OK	OK
244	33	.	OK	OK	OK
247	0	the	OK	OK	OK
247	1	answers	OK	OK	OK
247	2	are	OK	OK	OK
247	3	not	OK	OK	BAD
247	4	distinguished	OK	OK	OK
247	5	from	OK	OK	OK
247	6	those	OK	OK	OK
247	7	which	OK	OK	OK
247	8	were	Grammar	OK	OK
247	9	given	Function_words	OK	BAD
247	10	before	OK	OK	BAD
247	11	the	OK	OK	OK
247	12	last	OK	OK	OK
247	13	german	OK	OK	OK
247	14	eu	OK	OK	OK
247	15	council	OK	OK	OK
247	16	premiership	OK	OK	OK
247	17	in	OK	OK	OK
247	18	the	OK	OK	OK
247	19	first	OK	OK	OK
247	20	year	OK	OK	OK
247	21	half	OK	OK	OK
247	22	1999	OK	OK	OK
247	23	.	OK	OK	OK
248	0	about	OK	OK	OK
248	1	two	OK	OK	OK
248	2	million	OK	OK	OK
248	3	kinds	OK	OK	OK
248	4	-	OK	OK	OK
248	5	animals	OK	OK	OK
248	6	,	OK	OK	OK
248	7	plants	OK	OK	OK
248	8	,	OK	OK	OK
248	9	mushrooms	OK	OK	OK
248	10	and	OK	OK	OK
248	11	microorganisms	OK	OK	OK
248	12	-	Tense/aspect/mood	OK	OK
248	13	were	OK	OK	OK
248	14	described	OK	OK	OK
248	15	up	OK	OK	OK
248	16	to	OK	OK	OK
248	17	now	OK	OK	OK
248	18	.	OK	OK	OK
249	0	the	OK	OK	OK
249	1	crisis	OK	OK	OK
249	2	of	OK	OK	BAD
249	3	the	OK	OK	OK
249	4	school	OK	OK	OK
249	5	teaches	OK	OK	OK
249	6	how	OK	OK	BAD
249	7	these	OK	OK	OK
249	8	crossings	OK	OK	BAD
249	9	are	OK	OK	OK
249	10	importantly	OK	OK	OK
249	11	.	OK	OK	OK
252	0	also	OK	OK	OK
252	1	here	OK	OK	OK
252	2	the	OK	OK	OK
252	3	handled	Terminology	Accuracy	OK
252	4	bacteria	OK	OK	OK
252	5	showed	OK	OK	OK
252	6	clear	OK	OK	OK
252	7	changes	OK	OK	OK
252	8	in	OK	OK	OK
252	9	the	OK	OK	OK
252	10	material	OK	OK	OK
252	11	budget	OK	OK	BAD
252	12	as	OK	OK	OK
252	13	well	OK	OK	OK
252	14	as	OK	OK	OK
252	15	an	OK	OK	OK
252	16	increasing	OK	OK	OK
252	17	virulence	OK	OK	OK
252	18	.	OK	OK	OK
254	0	chronology	OK	OK	OK
254	1	of	OK	OK	OK
254	2	an	OK	OK	OK
254	3	extraordinary	OK	OK	OK
254	4	mäzenatentums	OK	OK	OK
257	0	because	OK	OK	OK
257	1	pixar	OK	OK	OK
257	2	and	OK	OK	OK
257	3	disney	OK	OK	OK
257	4	lead	OK	OK	OK
257	5	an	OK	OK	OK
257	6	almost	Tense/aspect/mood	OK	OK
257	7	subversive	OK	OK	OK
257	8	campaign	OK	OK	OK
257	9	with	OK	OK	OK
257	10	the	OK	OK	OK
257	11	aid	OK	OK	OK
257	12	of	OK	OK	OK
257	13	the	OK	OK	OK
257	14	agreeable	OK	OK	OK
257	15	rat	Function_words	OK	OK
257	16	against	OK	OK	OK
257	17	lousy	OK	OK	OK
257	18	fastfood-habits	OK	OK	OK
257	19	.	OK	OK	OK
258	0	the	OK	OK	OK
258	1	trade	OK	OK	OK
258	2	representative	OK	OK	OK
258	3	contracts	OK	OK	BAD
258	4	must	OK	OK	OK
258	5	be	OK	OK	OK
258	6	entered	OK	OK	OK
258	7	into	OK	Accuracy	OK
258	8	the	OK	OK	OK
258	9	commercial	OK	OK	OK
258	10	register	OK	OK	OK
258	11	near	OK	Fluency	OK
258	12	the	OK	OK	OK
258	13	responsible	OK	OK	OK
258	14	local	OK	OK	OK
258	15	chamber	OK	OK	OK
258	16	of	OK	OK	OK
258	17	commerce	OK	OK	OK
258	18	(	OK	OK	OK
258	19	kind	OK	OK	OK
258	20	.	OK	OK	OK
259	0	behaviors	OK	OK	OK
259	1	were	OK	OK	OK
259	2	examined	OK	OK	OK
259	3	systematic	OK	OK	OK
259	4	then	OK	OK	OK
259	5	,	OK	OK	OK
259	6	to	OK	Fluency	OK
259	7	what	OK	OK	OK
259	8	extent	OK	OK	OK
259	9	the	OK	Fluency	OK
259	10	animal	OK	Fluency	OK
259	11	corresponds	OK	OK	BAD
259	12	to	OK	OK	OK
259	13	the	OK	OK	OK
259	14	standards	OK	OK	OK
259	15	of	OK	OK	BAD
259	16	human	OK	OK	OK
259	17	cognition	OK	OK	OK
259	18	.	OK	OK	OK
270	0	the	OK	OK	OK
270	1	ferrostaal	OK	OK	OK
270	2	ag	OK	OK	OK
270	3	is	OK	OK	BAD
270	4	worldwide	OK	OK	OK
270	5	leadingly	OK	OK	OK
270	6	as	OK	OK	OK
270	7	a	OK	OK	OK
270	8	service	OK	OK	OK
270	9	provider	OK	OK	OK
270	10	in	OK	OK	OK
270	11	the	OK	OK	OK
270	12	connection	Terminology	OK	OK
270	13	of	OK	OK	BAD
270	14	technical	OK	OK	OK
270	15	and	OK	OK	OK
270	16	financial	OK	OK	OK
270	17	engineering	OK	OK	OK
270	18	.	OK	OK	OK
273	0	use	OK	OK	OK
273	1	of	OK	OK	OK
273	2	weblogs	OK	OK	OK
273	3	in	OK	OK	OK
273	4	the	OK	OK	OK
273	5	school	OK	OK	OK
273	6	instruction	OK	OK	BAD
273	7	-	OK	OK	OK
273	8	application	OK	OK	OK
273	9	stages	OK	OK	OK
277	0	in	OK	OK	OK
277	1	the	OK	OK	OK
277	2	region	OK	Accuracy	OK
277	3	in	OK	OK	OK
277	4	front	OK	OK	OK
277	5	of	OK	OK	OK
277	6	the	OK	Accuracy	OK
277	7	californian	OK	Accuracy	OK
277	8	coast	OK	OK	OK
277	9	about	OK	OK	OK
277	10	a	OK	OK	OK
277	11	hundred	OK	OK	OK
277	12	blue	OK	OK	OK
277	13	whales	OK	OK	OK
277	14	live	OK	OK	OK
277	15	.	OK	OK	OK
279	0	in	OK	OK	OK
279	1	latter	OK	OK	OK
279	2	case	OK	OK	OK
279	3	this	OK	OK	BAD
279	4	would	OK	OK	OK
279	5	be	OK	OK	OK
279	6	among	Capitalization	OK	OK
279	7	other	OK	OK	OK
279	8	things	OK	OK	OK
279	9	the	OK	Accuracy	OK
279	10	messenger	OK	OK	OK
279	11	material	OK	OK	OK
279	12	(	OK	OK	OK
279	13	neurotransmitter	OK	OK	OK
279	14	)	OK	OK	OK
279	15	serotonin	OK	OK	OK
279	16	.	OK	OK	OK
289	0	please	OK	OK	OK
289	1	hold	OK	OK	OK
289	2	yourself	OK	OK	OK
289	3	for	OK	Fluency	BAD
289	4	the	OK	OK	OK
289	5	exact	OK	OK	OK
289	6	positions	OK	OK	OK
289	7	of	OK	OK	OK
289	8	the	OK	OK	OK
289	9	disks	OK	OK	OK
289	10	onto	OK	OK	BAD
289	11	the	OK	OK	OK
289	12	above	OK	OK	OK
289	13	chart	OK	OK	OK
289	14	.	OK	OK	OK
300	0	in	OK	OK	OK
300	1	addition	OK	OK	OK
300	2	theory	OK	OK	OK
300	3	structures	OK	OK	OK
300	4	come	OK	OK	OK
300	5	for	OK	OK	OK
300	6	the	OK	OK	OK
300	7	characterization	OK	OK	OK
300	8	of	OK	OK	BAD
300	9	the	OK	OK	OK
300	10	single	OK	OK	OK
300	11	constituents	OK	OK	OK
300	12	.	OK	OK	OK
302	0	according	OK	OK	OK
302	1	to	OK	OK	OK
302	2	findings	OK	OK	OK
302	3	which	OK	OK	BAD
302	4	reached	OK	OK	BAD
302	5	the	OK	OK	OK
302	6	british	OK	Accuracy	OK
302	7	secret	OK	OK	OK
302	8	service	OK	OK	OK
302	9	at	OK	OK	OK
302	10	the	OK	OK	OK
302	11	beginning	Capitalization	OK	OK
302	12	of	OK	OK	BAD
302	13	1945	OK	OK	BAD
302	14	a	OK	OK	OK
302	15	destruction	Tense/aspect/mood	OK	OK
302	16	radius	OK	OK	OK
302	17	of	OK	OK	BAD
302	18	about	OK	OK	OK
302	19	600	Tense/aspect/mood	OK	OK
302	20	meters	OK	OK	OK
302	21	was	OK	Fluency	OK
302	22	achieved	OK	OK	OK
302	23	with	OK	OK	OK
302	24	a	OK	OK	OK
302	25	test	OK	OK	OK
302	26	by	OK	OK	OK
302	27	berlin	OK	OK	OK
302	28	to	OK	OK	OK
302	29	the	OK	OK	OK
302	30	north	OK	OK	OK
302	31	.	OK	OK	OK
303	0	speak	OK	OK	OK
303	1	the	OK	OK	OK
303	2	following	OK	Accuracy	OK
303	3	words	OK	OK	OK
303	4	aloud	OK	OK	OK
303	5	and	OK	OK	OK
303	6	mark	OK	OK	OK
303	7	then	OK	OK	OK
303	8	the	OK	OK	OK
303	9	syllable	OK	OK	OK
303	10	which	OK	OK	OK
303	11	bears	OK	OK	OK
303	12	the	OK	OK	OK
303	13	main	OK	Fluency	OK
303	14	stress	OK	OK	BAD
303	15	.	OK	OK	BAD
311	0	the	OK	OK	OK
311	1	new	OK	OK	OK
311	2	head	OK	OK	OK
311	3	of	OK	OK	OK
311	4	the	OK	OK	OK
311	5	berlin	OK	OK	OK
311	6	dussmann	OK	OK	OK
311	7	group	OK	OK	OK
311	8	,	OK	OK	BAD
311	9	thomas	OK	OK	OK
311	10	greiner	OK	OK	OK
311	11	,	OK	OK	OK
311	12	wants	OK	OK	BAD
311	13	to	OK	OK	OK
311	14	create	OK	Fluency	BAD
311	15	still	OK	OK	OK
311	16	this	OK	OK	OK
311	17	year	OK	OK	OK
311	18	1000	OK	OK	OK
311	19	new	OK	OK	OK
311	20	jobs	OK	OK	OK
311	21	,	OK	OK	BAD
311	22	100	OK	OK	BAD
311	23	of	OK	OK	OK
311	24	them	OK	OK	OK
311	25	in	OK	OK	OK
311	26	berlin	OK	OK	OK
311	27	and	OK	OK	OK
311	28	brandenburg	OK	OK	OK
311	29	.	OK	OK	OK
313	0	just	OK	OK	OK
313	1	in	OK	OK	OK
313	2	central	OK	OK	OK
313	3	europe	OK	Accuracy	OK
313	4	there	OK	OK	OK
313	5	are	OK	OK	OK
313	6	now	OK	OK	OK
313	7	and	OK	OK	OK
313	8	then	OK	OK	OK
313	9	strong	OK	OK	OK
313	10	reservations	OK	OK	OK
313	11	against	OK	OK	OK
313	12	the	OK	OK	OK
313	13	preserving	OK	OK	OK
313	14	of	OK	OK	OK
313	15	corpses	OK	OK	OK
313	16	.	OK	OK	OK
316	0	information	OK	OK	OK
316	1	(	OK	OK	OK
316	2	about	OK	OK	OK
316	3	application	OK	OK	OK
316	4	possibilities	OK	OK	OK
316	5	,	OK	OK	OK
316	6	fort	OK	OK	OK
316	7	educations	OK	OK	OK
316	8	,	OK	OK	OK
316	9	fact-finding	OK	OK	BAD
316	10	tours	OK	OK	BAD
316	11	,	OK	OK	BAD
316	12	ideas	OK	OK	OK
316	13	)	OK	OK	OK
319	0	because	OK	OK	OK
319	1	there	OK	OK	OK
319	2	is	OK	OK	OK
319	3	this	OK	OK	OK
319	4	transformation	OK	OK	OK
319	5	process	OK	OK	OK
319	6	,	OK	OK	OK
319	7	it	OK	OK	BAD
319	8	is	OK	OK	OK
319	9	reasonable	OK	OK	OK
319	10	and	OK	OK	OK
319	11	necessary	OK	OK	BAD
319	12	to	OK	OK	OK
319	13	understand	OK	Fluency	BAD
319	14	programmatic	OK	OK	BAD
319	15	ideas	OK	OK	OK
319	16	again	OK	OK	BAD
319	17	.	OK	OK	BAD
321	0	in	OK	OK	OK
321	1	november	OK	OK	OK
321	2	union	OK	OK	OK
321	3	and	OK	OK	OK
321	4	spd	OK	Fluency	OK
321	5	want	OK	OK	OK
321	6	to	OK	OK	OK
321	7	talk	OK	OK	OK
321	8	once	OK	OK	OK
321	9	again	OK	OK	OK
321	10	about	OK	OK	OK
321	11	the	OK	OK	OK
321	12	online-search	Terminology	Accuracy	OK
321	13	as	OK	OK	OK
321	14	union	OK	OK	BAD
321	15	faction	OK	OK	OK
321	16	leader	OK	OK	OK
321	17	volker	OK	OK	OK
321	18	kauder	OK	OK	OK
321	19	explained	OK	OK	OK
321	20	.	OK	OK	OK
323	0	also	OK	OK	OK
323	1	"	OK	OK	OK
323	2	black	OK	OK	OK
323	3	man	OK	Fluency	OK
323	4	working	OK	OK	BAD
323	5	"	OK	OK	OK
323	6	is	OK	OK	OK
323	7	possible	OK	OK	OK
323	8	,	OK	OK	OK
323	9	depends	OK	OK	OK
323	10	on	OK	OK	OK
323	11	who	OK	OK	BAD
323	12	answers	OK	OK	OK
323	13	.	OK	OK	BAD
331	0	the	OK	OK	OK
331	1	liquidation	OK	OK	OK
331	2	is	OK	OK	OK
331	3	carried	OK	OK	OK
331	4	out	OK	OK	OK
331	5	by	OK	OK	OK
331	6	the	OK	OK	OK
331	7	executive	OK	OK	OK
331	8	board	OK	OK	OK
331	9	,	OK	OK	BAD
331	10	provided	OK	OK	OK
331	11	that	OK	OK	OK
331	12	the	OK	OK	OK
331	13	general	OK	OK	OK
331	14	meeting	OK	OK	OK
331	15	orders	OK	OK	OK
331	16	liquidators	OK	OK	OK
331	17	not	OK	OK	OK
331	18	other	OK	OK	OK
331	19	.	OK	OK	OK
333	0	and	OK	OK	OK
333	1	yes	OK	OK	OK
333	2	,	OK	OK	OK
333	3	and	OK	OK	OK
333	4	these	OK	OK	OK
333	5	old	OK	OK	BAD
333	6	mountain	OK	OK	OK
333	7	climbers	OK	OK	OK
333	8	told	OK	OK	OK
333	9	these	OK	OK	OK
333	10	histories	OK	OK	OK
333	11	.	OK	OK	BAD
337	0	the	OK	OK	OK
337	1	same	OK	OK	OK
337	2	sense	OK	OK	OK
337	3	of	OK	OK	OK
337	4	office	OK	OK	BAD
337	5	and	OK	OK	OK
337	6	sacrament	OK	OK	BAD
338	0	the	OK	OK	OK
338	1	expansion	OK	OK	OK
338	2	of	OK	OK	OK
338	3	the	OK	OK	OK
338	4	elementary	OK	Accuracy	OK
338	5	schools	OK	OK	OK
338	6	to	OK	Fluency	OK
338	7	full-time	OK	OK	BAD
338	8	elementary	OK	OK	OK
338	9	schools	OK	OK	OK
338	10	broadens	OK	OK	OK
338	11	the	OK	OK	OK
338	12	pedagogic	Capitalization	OK	OK
338	13	action	Tense/aspect/mood	OK	BAD
338	14	elbow	OK	OK	OK
338	15	room	OK	OK	OK
338	16	and	OK	OK	OK
338	17	offers	OK	OK	OK
338	18	possibilities	OK	OK	OK
338	19	of	OK	OK	OK
338	20	qualified	OK	OK	OK
338	21	care	OK	OK	OK
338	22	.	OK	OK	OK
349	0	the	OK	OK	OK
349	1	finishing	OK	OK	OK
349	2	guarantee	OK	OK	OK
349	3	and	OK	OK	BAD
349	4	/	OK	OK	OK
349	5	or	OK	OK	OK
349	6	.	OK	OK	OK
349	7	finishing	Untranslated	OK	OK
349	8	insurance	OK	OK	OK
349	9	is	OK	OK	OK
349	10	an	OK	OK	OK
349	11	important	OK	OK	OK
349	12	component	OK	OK	OK
349	13	of	OK	Accuracy	OK
349	14	the	OK	OK	OK
349	15	film	OK	OK	OK
349	16	financing	OK	OK	OK
349	17	and	OK	OK	OK
349	18	is	OK	OK	OK
349	19	defined	OK	OK	OK
349	20	before	OK	OK	OK
349	21	beginning	OK	OK	OK
349	22	of	OK	OK	OK
349	23	production	OK	OK	OK
349	24	by	OK	OK	OK
349	25	contract	OK	OK	OK
349	26	.	OK	OK	OK
