3.1	0	so	Mistranslation	Accuracy	BAD
3.1	1	ein	OK	OK	OK
3.1	2	elch-burger	OK	OK	OK
3.1	3	ist	OK	OK	OK
3.1	4	auf	OK	OK	OK
3.1	5	jeden	OK	OK	OK
3.1	6	fall	OK	OK	OK
3.1	7	etwas	OK	OK	OK
3.1	8	anderes	OK	OK	OK
3.1	9	.	OK	OK	OK
3.1	10	das	OK	OK	OK
3.1	11	saftige	OK	OK	OK
3.1	12	fleisch	OK	OK	OK
3.1	13	mundet	Style/register	Fluency	BAD
3.1	14	mir	OK	OK	BAD
3.1	15	.	OK	OK	OK
11.1	0	ich	OK	Fluency	OK
11.1	1	will	OK	Fluency	BAD
11.1	2	nicht	Word_order	Fluency	OK
11.1	3	lügen	OK	Fluency	BAD
11.1	4	.	OK	OK	OK
13.1	0	er	OK	OK	OK
13.1	1	sei	Word_order	OK	OK
13.1	2	sich	OK	Accuracy	OK
13.1	3	jedoch	OK	OK	OK
13.1	4	sicher	OK	OK	OK
13.1	5	,	OK	OK	OK
13.1	6	dass	OK	OK	OK
13.1	7	"	OK	OK	OK
13.1	8	die	OK	OK	OK
13.1	9	jugend	OK	OK	BAD
13.1	10	als	OK	Fluency	OK
13.1	11	besonders	OK	OK	BAD
13.1	12	langweilig	OK	Accuracy	OK
13.1	13	empfunden	OK	OK	OK
13.1	14	wird	OK	Fluency	OK
13.1	15	"	Word_order	OK	BAD
13.1	16	,	OK	OK	OK
13.1	17	hauptsächlich	OK	Fluency	BAD
13.1	18	,	OK	OK	OK
13.1	19	weil	Unintelligible	OK	OK
13.1	20	kinder	OK	Fluency	BAD
13.1	21	und	Terminology	Accuracy	BAD
13.1	22	teenager	Word_order	OK	OK
13.1	23	keinen	OK	OK	OK
13.1	24	großen	OK	OK	OK
13.1	25	einfluss	Word_order	Accuracy	OK
13.1	26	auf	OK	Fluency	OK
13.1	27	ihren	OK	Accuracy	OK
13.1	28	alltagsablauf	Mistranslation	Fluency	OK
13.1	29	haben	Mistranslation	OK	BAD
13.1	30	.	OK	OK	OK
15.1	0	wenn	OK	OK	OK
15.1	1	man	OK	OK	OK
15.1	2	hingegen	Word_order	OK	BAD
15.1	3	eine	OK	Accuracy	OK
15.1	4	eintönige	OK	OK	OK
15.1	5	tätigkeit	Agreement	Fluency	BAD
15.1	6	ausgeübt	OK	OK	OK
15.1	7	-	OK	OK	OK
15.1	8	"	Function_words	OK	OK
15.1	9	so	OK	Accuracy	BAD
15.1	10	wie	OK	OK	OK
15.1	11	die	OK	Fluency	OK
15.1	12	suche	OK	OK	OK
15.1	13	nach	OK	OK	OK
15.1	14	fehlerhaften	OK	Fluency	OK
15.1	15	produkten	Mistranslation	OK	OK
15.1	16	auf	OK	Accuracy	OK
15.1	17	einem	OK	OK	OK
15.1	18	fabrikförderband	OK	OK	BAD
15.1	19	,	OK	Accuracy	OK
15.1	20	kann	OK	OK	BAD
15.1	21	musik	Word_order	OK	BAD
15.1	22	ablenken	Mistranslation	Fluency	BAD
15.1	23	und	OK	OK	BAD
15.1	24	dabei	Terminology	OK	BAD
15.1	25	helfen	Mistranslation	Accuracy	OK
15.1	26	,	OK	OK	OK
15.1	27	sich	OK	OK	OK
15.1	28	nicht	Mistranslation	Accuracy	BAD
15.1	29	gelangweilt	OK	Accuracy	BAD
15.1	30	zu	OK	OK	OK
15.1	31	fühlen	OK	OK	OK
15.1	32	"	Tense/aspect/mood	OK	BAD
15.1	33	.	OK	OK	OK
38.1	0	aber	OK	OK	OK
38.1	1	ich	OK	OK	OK
38.1	2	werde	Capitalization	Fluency	BAD
38.1	3	wieder	OK	Fluency	OK
38.1	4	zurück	OK	Fluency	OK
38.1	5	.	OK	OK	OK
40.1	0	professor	OK	Accuracy	OK
40.1	1	eastwood	OK	Accuracy	OK
40.1	2	vereinbart	Mistranslation	OK	OK
40.1	3	.	OK	OK	OK
50.1	0	mit	OK	OK	OK
50.1	1	solchen	OK	OK	OK
50.1	2	skalen	Terminology	OK	OK
50.1	3	haben	OK	OK	OK
50.1	4	forscher	Word_order	OK	OK
50.1	5	entdeckt	Word_order	OK	BAD
50.1	6	,	OK	OK	BAD
50.1	7	dass	Mistranslation	Fluency	OK
50.1	8	jungen	OK	OK	OK
50.1	9	dazu	Mistranslation	OK	OK
50.1	10	neigen	Mistranslation	Fluency	BAD
50.1	11	,	OK	OK	OK
50.1	12	sich	OK	OK	OK
50.1	13	öfter	OK	OK	OK
50.1	14	zu	OK	OK	OK
50.1	15	langweilen	OK	OK	OK
50.1	16	,	OK	OK	OK
50.1	17	als	OK	OK	OK
50.1	18	mädchen	OK	OK	OK
50.1	19	,	OK	OK	OK
50.1	20	hat	OK	Accuracy	OK
50.1	21	stephen	OK	OK	OK
50.1	22	vodanovich	OK	OK	BAD
50.1	23	,	OK	OK	OK
50.1	24	ein	Word_order	OK	BAD
50.1	25	professor	OK	OK	OK
50.1	26	der	OK	OK	OK
50.1	27	psychologie	OK	OK	OK
50.1	28	an	OK	OK	OK
50.1	29	der	Function_words	OK	BAD
50.1	30	universität	OK	OK	OK
50.1	31	des	OK	OK	BAD
50.1	32	westlichen	OK	OK	OK
50.1	33	floridas	OK	Accuracy	BAD
50.1	34	besonders	Agreement	Accuracy	BAD
50.1	35	gesagt	OK	OK	BAD
50.1	36	,	OK	OK	OK
50.1	37	wenn	OK	OK	OK
50.1	38	es	Mistranslation	OK	OK
50.1	39	kommt	OK	OK	BAD
50.1	40	,	OK	OK	BAD
50.1	41	mehr	OK	OK	OK
50.1	42	und	OK	OK	OK
50.1	43	eine	OK	OK	BAD
50.1	44	vielfalt	OK	Accuracy	OK
50.1	45	,	OK	OK	BAD
50.1	46	außenanregung	Mistranslation	OK	BAD
50.1	47	brauchend	OK	OK	BAD
50.1	48	.	OK	OK	OK
53.1	0	mitten	OK	OK	OK
53.1	1	in	OK	OK	OK
53.1	2	den	OK	OK	OK
53.1	3	üblichen	Punctuation	Accuracy	BAD
53.1	4	sinnlosen	Part_of_speech	OK	OK
53.1	5	argumenten	OK	Fluency	BAD
53.1	6	darüber	Mistranslation	Accuracy	OK
53.1	7	,	OK	OK	BAD
53.1	8	wer	OK	OK	OK
53.1	9	es	OK	OK	OK
53.1	10	angefangen	OK	OK	BAD
53.1	11	hat	OK	OK	OK
53.1	12	,	OK	OK	BAD
53.1	13	sind	OK	OK	OK
53.1	14	hunderte	OK	OK	OK
53.1	15	von	OK	OK	BAD
53.1	16	gebäuden	Terminology	OK	BAD
53.1	17	auf	OK	Accuracy	BAD
53.1	18	trümmer	Mistranslation	Fluency	BAD
53.1	19	reduziert	OK	Fluency	OK
53.1	20	worden	Word_order	OK	BAD
53.1	21	;	OK	OK	OK
53.1	22	mehr	OK	OK	OK
53.1	23	als	OK	OK	OK
53.1	24	140	OK	OK	BAD
53.1	25	palästinenser	OK	OK	OK
53.1	26	,	OK	OK	OK
53.1	27	die	OK	OK	OK
53.1	28	meisten	OK	OK	OK
53.1	29	von	OK	OK	OK
53.1	30	ihnen	OK	OK	OK
53.1	31	bürger	OK	OK	OK
53.1	32	und	OK	OK	OK
53.1	33	sechs	OK	OK	OK
53.1	34	israelis	OK	OK	OK
53.1	35	sind	OK	OK	OK
53.1	36	getötet	OK	OK	BAD
53.1	37	worden	OK	OK	OK
53.1	38	;	OK	OK	OK
53.1	39	und	OK	OK	OK
53.1	40	,	OK	OK	OK
53.1	41	zum	Function_words	OK	BAD
53.1	42	ersten	Mistranslation	Accuracy	BAD
53.1	43	mal	OK	OK	OK
53.1	44	,	OK	OK	OK
53.1	45	sind	OK	OK	OK
53.1	46	raketen	OK	OK	OK
53.1	47	von	OK	OK	OK
53.1	48	gaza	Word_order	OK	OK
53.1	49	in	Word_order	OK	BAD
53.1	50	der	OK	Fluency	BAD
53.1	51	nähe	OK	OK	OK
53.1	52	vom	OK	OK	OK
53.1	53	tel	OK	OK	OK
53.1	54	aviv	OK	OK	OK
53.1	55	,	OK	OK	OK
53.1	56	israels	OK	OK	OK
53.1	57	metropole	OK	OK	OK
53.1	58	und	OK	OK	OK
53.1	59	der	OK	OK	OK
53.1	60	heiligen	OK	OK	OK
53.1	61	stadt	OK	OK	OK
53.1	62	jerusalem	OK	OK	OK
53.1	63	gelandet	OK	Fluency	BAD
53.1	64	.	OK	OK	OK
69.1	0	sagt	OK	OK	OK
69.1	1	navarrette	Terminology	OK	BAD
69.1	2	mexikanischen-amerikaner	Typography	Fluency	BAD
69.1	3	sind	OK	Accuracy	OK
69.1	4	gefangen	Mistranslation	OK	OK
69.1	5	zwischen	OK	OK	OK
69.1	6	zwei	OK	OK	OK
69.1	7	welten	OK	OK	BAD
72.1	0	"	Word_order	OK	OK
72.1	1	welche	Word_order	Fluency	OK
72.1	2	punktzahl	Mistranslation	Accuracy	BAD
72.1	3	habt	OK	OK	OK
72.1	4	ihr	OK	OK	OK
72.1	5	dort	OK	OK	OK
72.1	6	oben	OK	OK	OK
72.1	7	in	OK	OK	OK
72.1	8	den	OK	OK	OK
72.1	9	bergen	OK	OK	OK
72.1	10	für	OK	OK	OK
72.1	11	den	OK	OK	OK
72.1	12	besten	OK	OK	OK
72.1	13	fisch	OK	OK	OK
72.1	14	,	OK	OK	OK
72.1	15	thor-jürgen	OK	OK	OK
72.1	16	?	Mistranslation	Fluency	OK
72.1	17	"	Word_order	OK	OK
103.1	0	andere	OK	Accuracy	BAD
103.1	1	studenten	OK	OK	OK
103.1	2	haben	OK	OK	OK
103.1	3	den	OK	OK	OK
103.1	4	refrain	Mistranslation	OK	OK
103.1	5	aufgenommen	Word_order	Accuracy	OK
103.1	6	.	OK	OK	OK
104.1	0	ich	OK	OK	OK
104.1	1	kauerte	OK	OK	BAD
104.1	2	innen	OK	Fluency	OK
104.1	3	und	OK	OK	OK
104.1	4	nach	OK	OK	OK
104.1	5	fünf	OK	Accuracy	OK
104.1	6	minuten	OK	OK	BAD
104.1	7	meine	Mistranslation	OK	OK
104.1	8	verfolger	Style/register	Fluency	BAD
104.1	9	aufgaben	OK	OK	BAD
104.1	10	.	OK	OK	OK
111.1	0	ich	OK	OK	OK
111.1	1	fühlte	OK	OK	OK
111.1	2	die	OK	OK	OK
111.1	3	art	Mistranslation	OK	BAD
111.1	4	und	OK	Accuracy	OK
111.1	5	weise	OK	Fluency	BAD
111.1	6	,	OK	OK	OK
111.1	7	wie	OK	OK	OK
111.1	8	sich	Mistranslation	OK	OK
111.1	9	homosexuelle	OK	OK	OK
111.1	10	vor	OK	Accuracy	OK
111.1	11	der	OK	OK	BAD
111.1	12	liberalen	Mistranslation	Accuracy	BAD
111.1	13	gesetzgebung	OK	OK	OK
111.1	14	der	Mistranslation	OK	OK
111.1	15	sechziger	OK	OK	OK
111.1	16	jahre	OK	OK	OK
111.1	17	gefühlt	OK	OK	OK
111.1	18	haben	Mistranslation	Accuracy	BAD
111.1	19	müssen	OK	OK	OK
111.1	20	.	OK	OK	OK
114.1	0	zu	OK	OK	OK
114.1	1	viele	OK	OK	OK
114.1	2	harte	Mistranslation	Accuracy	BAD
114.1	3	gefühle	Mistranslation	Fluency	BAD
114.1	4	.	OK	OK	OK
115.1	0	die	OK	OK	OK
115.1	1	polizeibehörden	OK	OK	OK
115.1	2	verfolgen	OK	OK	OK
115.1	3	erwachsene	OK	OK	OK
115.1	4	über	OK	OK	OK
115.1	5	21	OK	OK	OK
115.1	6	jahren	OK	OK	OK
115.1	7	nicht	OK	OK	OK
115.1	8	länger	OK	OK	OK
115.1	9	für	OK	OK	OK
115.1	10	besitz	OK	OK	OK
115.1	11	in	OK	OK	OK
115.1	12	kleinem	OK	OK	OK
115.1	13	maße	OK	OK	OK
115.1	14	.	OK	OK	OK
115.1	15	dieser	OK	OK	OK
115.1	16	wird	OK	OK	OK
115.1	17	gesetzlich	OK	OK	OK
115.1	18	gestattet	OK	OK	OK
115.1	19	,	OK	OK	OK
115.1	20	sobald	OK	OK	OK
115.1	21	die	OK	OK	OK
115.1	22	neuen	OK	OK	OK
115.1	23	gesetze	OK	OK	OK
115.1	24	in	OK	OK	OK
115.1	25	den	OK	OK	OK
115.1	26	nächsten	OK	OK	OK
115.1	27	wochen	OK	OK	OK
115.1	28	in	OK	OK	OK
115.1	29	kraft	OK	OK	OK
115.1	30	treten	Mistranslation	OK	OK
115.1	31	.	OK	OK	OK
122.1	0	"	OK	Fluency	OK
122.1	1	solange	OK	OK	BAD
122.1	2	können	OK	OK	OK
122.1	3	wir	OK	OK	OK
122.1	4	im	OK	OK	OK
122.1	5	winter	Mistranslation	OK	OK
122.1	6	ski	OK	OK	OK
122.1	7	und	OK	OK	OK
122.1	8	wandern	Tense/aspect/mood	OK	BAD
122.1	9	im	OK	OK	OK
122.1	10	sommer	Grammar	OK	OK
122.1	11	sind	OK	OK	OK
122.1	12	wir	OK	OK	OK
122.1	13	glücklich	Word_order	Fluency	OK
122.1	14	"	OK	OK	OK
122.1	15	,	Punctuation	OK	OK
122.1	16	sagt	OK	Accuracy	BAD
122.1	17	anna	OK	OK	OK
122.1	18	.	OK	OK	OK
124.1	0	es	OK	OK	OK
124.1	1	sind	OK	OK	OK
124.1	2	nicht	OK	OK	OK
124.1	3	nur	OK	OK	OK
124.1	4	heutige	Agreement	OK	BAD
124.1	5	universitätsstudenten	Mistranslation	OK	BAD
124.1	6	,	OK	OK	OK
124.1	7	die	Mistranslation	OK	BAD
124.1	8	für	OK	OK	OK
124.1	9	ihre	Mistranslation	OK	OK
124.1	10	ansichten	Punctuation	Accuracy	BAD
124.1	11	angegriffen	Word_order	Accuracy	BAD
124.1	12	werden	OK	Fluency	OK
132.1	0	diplomatisch	Word_order	Fluency	BAD
132.1	1	:	Mistranslation	OK	OK
132.1	2	amerika	Word_order	Accuracy	OK
132.1	3	ist	OK	OK	BAD
132.1	4	so	OK	OK	BAD
132.1	5	standhaft	OK	Fluency	OK
132.1	6	wie	OK	Fluency	OK
132.1	7	eh	OK	OK	OK
132.1	8	und	OK	OK	OK
132.1	9	je	Grammar	Accuracy	BAD
132.1	10	;	Agreement	Fluency	OK
132.1	11	viele	OK	OK	OK
132.1	12	europäische	Word_order	OK	BAD
132.1	13	länder	OK	Fluency	OK
132.1	14	,	Style/register	OK	OK
132.1	15	auch	Style/register	Fluency	BAD
132.1	16	die	Punctuation	Fluency	OK
132.1	17	hamas	OK	Fluency	OK
132.1	18	die	Mistranslation	Fluency	OK
132.1	19	schuld	OK	OK	BAD
132.1	20	für	OK	Accuracy	OK
132.1	21	den	OK	OK	OK
132.1	22	ausbruch	OK	OK	OK
132.1	23	der	OK	OK	BAD
132.1	24	jüngsten	OK	OK	BAD
132.1	25	runde	OK	OK	OK
132.1	26	der	OK	Fluency	OK
132.1	27	gewalt	OK	Fluency	OK
132.1	28	.	OK	OK	OK
136.1	0	hosni	OK	OK	OK
136.1	1	mubarak	OK	OK	OK
136.1	2	,	Mistranslation	OK	OK
136.1	3	der	OK	Fluency	OK
136.1	4	säkulare	OK	OK	OK
136.1	5	tyrann	OK	OK	BAD
136.1	6	,	OK	OK	OK
136.1	7	der	OK	OK	OK
136.1	8	ägypten	OK	OK	OK
136.1	9	seit	OK	OK	OK
136.1	10	30	OK	OK	OK
136.1	11	jahren	OK	OK	OK
136.1	12	bis	OK	OK	OK
136.1	13	zu	OK	OK	BAD
136.1	14	seinem	OK	OK	BAD
136.1	15	sturz	Agreement	Fluency	OK
136.1	16	2011	OK	OK	OK
136.1	17	führte	OK	OK	OK
136.1	18	,	OK	OK	OK
136.1	19	hatte	OK	OK	OK
136.1	20	für	OK	OK	OK
136.1	21	die	OK	OK	OK
136.1	22	hamas	Mistranslation	OK	OK
136.1	23	wenig	Mistranslation	OK	OK
136.1	24	zeit	OK	OK	BAD
136.1	25	.	OK	OK	OK
137.1	0	darüber	OK	OK	OK
137.1	1	hinaus	Tense/aspect/mood	Accuracy	OK
137.1	2	hat	OK	OK	BAD
137.1	3	die	OK	OK	OK
137.1	4	führung	OK	OK	OK
137.1	5	der	OK	Fluency	OK
137.1	6	hamas	Typography	OK	OK
137.1	7	möglicherweise	OK	OK	OK
137.1	8	zu	Omission	Accuracy	OK
137.1	9	dem	OK	OK	OK
137.1	10	schluss	OK	OK	OK
137.1	11	,	OK	OK	OK
137.1	12	dass	Mistranslation	Accuracy	OK
137.1	13	die	OK	OK	OK
137.1	14	zeit	OK	OK	OK
137.1	15	auf	OK	OK	OK
137.1	16	ihrer	OK	OK	OK
137.1	17	seite	OK	OK	OK
137.1	18	.	OK	OK	OK
139.1	0	in	OK	OK	OK
139.1	1	der	OK	Fluency	BAD
139.1	2	zukünftigen	OK	OK	OK
139.1	3	diplomatie	Addition	Fluency	OK
139.1	4	kann	OK	OK	OK
139.1	5	hamas	OK	Fluency	OK
139.1	6	als	OK	OK	OK
139.1	7	ein	OK	OK	OK
139.1	8	schauspieler	OK	OK	OK
139.1	9	erscheinen	OK	OK	OK
139.1	10	,	OK	OK	OK
139.1	11	der	OK	OK	OK
139.1	12	sogar	OK	OK	OK
139.1	13	durch	OK	Accuracy	OK
139.1	14	israel	Punctuation	Accuracy	BAD
139.1	15	und	OK	Fluency	BAD
139.1	16	amerika	OK	Fluency	BAD
139.1	17	nicht	Mistranslation	Accuracy	OK
139.1	18	ausgeschlossen	OK	OK	BAD
139.1	19	werden	OK	Accuracy	BAD
139.1	20	kann	OK	OK	BAD
139.1	21	.	OK	OK	OK
140.1	0	vielleicht	OK	OK	OK
140.1	1	werden	OK	OK	OK
140.1	2	die	OK	OK	OK
140.1	3	harten	OK	Accuracy	OK
140.1	4	verfechter	Unintelligible	Accuracy	BAD
140.1	5	gewinnen	OK	OK	BAD
140.1	6	;	Mistranslation	Fluency	BAD
140.1	7	noch	OK	OK	OK
140.1	8	kann	OK	OK	OK
140.1	9	der	OK	Fluency	OK
140.1	10	arabische	OK	Fluency	OK
140.1	11	frühling	Word_order	OK	BAD
140.1	12	ihre	OK	Accuracy	BAD
140.1	13	berechnungen	OK	Fluency	BAD
140.1	14	ändern	Tense/aspect/mood	Accuracy	OK
140.1	15	.	OK	OK	OK
147.1	0	ich	OK	OK	OK
147.1	1	war	OK	OK	OK
147.1	2	einfach	OK	OK	OK
147.1	3	nur	OK	OK	OK
147.1	4	ein	Mistranslation	OK	BAD
147.1	5	amerikaner	OK	OK	OK
147.1	6	.	OK	OK	OK
151.1	0	ihr	OK	OK	OK
151.1	1	englisch	OK	OK	OK
151.1	2	,	OK	OK	OK
151.1	3	wie	OK	OK	OK
151.1	4	die	OK	OK	OK
151.1	5	meisten	Mistranslation	OK	OK
151.1	6	menschen	OK	OK	OK
151.1	7	hier	OK	OK	OK
151.1	8	,	OK	OK	OK
151.1	9	ist	OK	OK	OK
151.1	10	einwandfrei	OK	OK	OK
151.1	11	.	OK	OK	OK
156.1	0	zehntausende	OK	OK	OK
156.1	1	von	OK	OK	OK
156.1	2	familien	OK	OK	OK
156.1	3	sind	OK	OK	OK
156.1	4	durch	OK	OK	OK
156.1	5	das	OK	OK	OK
156.1	6	gewaltsame	Grammar	OK	BAD
156.1	7	verbrechen	Style/register	Accuracy	OK
156.1	8	in	OK	Fluency	OK
156.1	9	mexiko	Terminology	OK	BAD
156.1	10	im	Word_order	Accuracy	OK
156.1	11	laufe	Grammar	OK	OK
156.1	12	der	OK	OK	BAD
156.1	13	letzten	Terminology	OK	OK
156.1	14	sechs	OK	Accuracy	OK
156.1	15	jahre	Mistranslation	Accuracy	OK
156.1	16	betroffen	OK	OK	BAD
156.1	17	worden	OK	Fluency	BAD
156.1	18	,	OK	OK	OK
156.1	19	und	OK	OK	OK
156.1	20	der	Terminology	Accuracy	OK
156.1	21	neue	OK	Accuracy	OK
156.1	22	präsident	OK	Fluency	OK
156.1	23	hat	Mistranslation	OK	OK
156.1	24	versprochen	OK	Accuracy	OK
156.1	25	,	OK	OK	OK
156.1	26	sie	OK	Fluency	OK
156.1	27	einen	Mistranslation	OK	BAD
156.1	28	vorrang	Morphology_(word_form)	OK	OK
156.1	29	während	OK	Accuracy	BAD
156.1	30	seiner	Mistranslation	OK	OK
156.1	31	amtsperiode	Mistranslation	Accuracy	OK
156.1	32	zu	Style/register	Accuracy	BAD
156.1	33	machen	OK	OK	BAD
156.1	34	.	OK	OK	OK
161.1	0	es	Mistranslation	Accuracy	OK
161.1	1	ist	Mistranslation	Accuracy	BAD
161.1	2	schön	OK	OK	OK
161.1	3	.	OK	OK	OK
162.1	0	die	OK	OK	OK
162.1	1	israelis	OK	OK	OK
162.1	2	sollten	OK	OK	OK
162.1	3	auch	Mistranslation	OK	OK
162.1	4	auf	OK	OK	OK
162.1	5	längere	OK	OK	OK
162.1	6	sicht	Grammar	OK	BAD
162.1	7	schauen	Agreement	Accuracy	BAD
162.1	8	.	OK	OK	OK
171.1	0	unsere	OK	OK	BAD
171.1	1	gemeinschaft	Mistranslation	Accuracy	BAD
171.1	2	habe	OK	Accuracy	BAD
171.1	3	gegen	OK	OK	OK
171.1	4	diesen	OK	Accuracy	OK
171.1	5	änderungsantrag	OK	OK	OK
171.1	6	gestimmt	Mistranslation	Accuracy	OK
171.1	7	.	OK	OK	OK
173.1	0	ich	OK	OK	OK
173.1	1	lief	OK	OK	BAD
173.1	2	davon	OK	OK	OK
173.1	3	.	OK	OK	OK
184.1	0	"	OK	Accuracy	OK
184.1	1	wenn	OK	OK	OK
184.1	2	sie	OK	OK	OK
184.1	3	ein	Mistranslation	OK	OK
184.1	4	tabak	OK	OK	OK
184.1	5	händler	OK	OK	OK
184.1	6	sind	OK	OK	BAD
184.1	7	und	OK	OK	OK
184.1	8	sie	OK	OK	OK
184.1	9	nur	OK	OK	OK
184.1	10	dieses	OK	Fluency	BAD
184.1	11	kleine	Function_words	Fluency	BAD
184.1	12	fenster	OK	OK	OK
184.1	13	verlassen	OK	OK	OK
184.1	14	lassen	Grammar	Accuracy	OK
184.1	15	haben	Unintelligible	Accuracy	OK
184.1	16	,	OK	OK	OK
184.1	17	um	OK	Accuracy	BAD
184.1	18	ihre	OK	OK	OK
184.1	19	produkte	OK	OK	OK
184.1	20	zu	OK	OK	BAD
184.1	21	fördern	OK	OK	OK
184.1	22	,	OK	OK	OK
184.1	23	online	OK	OK	OK
184.1	24	ist	OK	OK	OK
184.1	25	der	Tense/aspect/mood	OK	BAD
184.1	26	zwingende	OK	OK	OK
184.1	27	ort	OK	OK	OK
184.1	28	für	OK	OK	BAD
184.1	29	sie	OK	Accuracy	OK
184.1	30	,	OK	OK	OK
184.1	31	dafür	OK	OK	BAD
184.1	32	zu	OK	OK	OK
184.1	33	sein	OK	OK	OK
184.1	34	"	OK	OK	OK
184.1	35	,	OK	OK	OK
184.1	36	sagte	OK	OK	OK
184.1	37	becky	OK	Accuracy	OK
184.1	38	freeman	Word_order	OK	OK
184.1	39	,	Punctuation	Accuracy	BAD
184.1	40	ein	Spelling	Fluency	BAD
184.1	41	gesundheitswesenforscher	OK	OK	BAD
184.1	42	an	OK	OK	OK
184.1	43	der	OK	Accuracy	BAD
184.1	44	sydney	Mistranslation	Accuracy	OK
184.1	45	universität	Grammar	Accuracy	OK
184.1	46	.	OK	OK	OK
185.1	0	mit	OK	OK	OK
185.1	1	solchen	OK	OK	OK
185.1	2	intensivskalen	OK	OK	OK
185.1	3	haben	OK	Accuracy	OK
185.1	4	forscher	Word_order	OK	OK
185.1	5	entdeckt	Word_order	OK	BAD
185.1	6	,	OK	OK	BAD
185.1	7	dass	Mistranslation	Fluency	OK
185.1	8	jungen	OK	OK	OK
185.1	9	dazu	Mistranslation	OK	OK
185.1	10	neigen	Mistranslation	Fluency	BAD
185.1	11	,	OK	OK	OK
185.1	12	sich	Mistranslation	OK	OK
185.1	13	häufiger	OK	OK	OK
185.1	14	zu	Mistranslation	OK	OK
185.1	15	langweilen	OK	OK	OK
185.1	16	,	OK	OK	OK
185.1	17	als	OK	OK	OK
185.1	18	mädchen	OK	OK	OK
185.1	19	,	OK	OK	OK
185.1	20	sagte	OK	OK	OK
185.1	21	stephen	Mistranslation	Accuracy	OK
185.1	22	vodanovich	OK	OK	OK
185.1	23	,	Unintelligible	OK	OK
185.1	24	professor	OK	OK	OK
185.1	25	für	OK	OK	OK
185.1	26	psychologie	OK	OK	OK
185.1	27	an	OK	OK	OK
185.1	28	der	OK	OK	OK
185.1	29	universität	OK	Accuracy	OK
185.1	30	des	OK	OK	OK
185.1	31	westlichen	Mistranslation	OK	OK
185.1	32	florida	OK	OK	OK
185.1	33	vor	OK	OK	BAD
185.1	34	allem	Mistranslation	Accuracy	BAD
185.1	35	,	Mistranslation	OK	OK
185.1	36	wenn	OK	OK	OK
185.1	37	es	Mistranslation	OK	OK
185.1	38	darum	OK	OK	BAD
185.1	39	geht	OK	Accuracy	BAD
185.1	40	,	OK	OK	OK
185.1	41	mehr	OK	OK	OK
185.1	42	und	OK	OK	OK
185.1	43	verschiedene	Mistranslation	Fluency	BAD
185.1	44	stimulation	OK	OK	OK
185.1	45	brauchend	OK	OK	BAD
185.1	46	.	OK	OK	OK
188.1	0	aber	OK	OK	OK
188.1	1	ich	OK	Fluency	OK
188.1	2	werde	Tense/aspect/mood	OK	BAD
188.1	3	dazu	Style/register	Fluency	BAD
188.1	4	zurückkommen	Unintelligible	Accuracy	OK
188.1	5	.	OK	OK	OK
190.1	0	bradley	OK	OK	OK
190.1	1	manning	Morphology_(word_form)	Accuracy	OK
190.1	2	hat	Morphology_(word_form)	OK	BAD
190.1	3	sich	Word_order	Fluency	OK
190.1	4	über	OK	OK	OK
190.1	5	die	OK	OK	BAD
190.1	6	misshandlung	Mistranslation	Accuracy	OK
190.1	7	nicht	OK	Accuracy	BAD
190.1	8	beklagt	OK	OK	BAD
190.1	9	,	OK	OK	BAD
190.1	10	ankläger	OK	OK	OK
190.1	11	kämpfen	OK	OK	OK
192.1	0	es	OK	OK	OK
192.1	1	ist	OK	OK	OK
192.1	2	das	OK	OK	OK
192.1	3	strengste	OK	OK	BAD
192.1	4	regime	Tense/aspect/mood	Accuracy	BAD
192.1	5	in	OK	OK	OK
192.1	6	der	OK	OK	OK
192.1	7	welt	Terminology	OK	BAD
192.1	8	für	OK	Accuracy	BAD
192.1	9	das	OK	OK	OK
192.1	10	verpacken	OK	OK	OK
192.1	11	von	Mistranslation	OK	BAD
192.1	12	tabak	OK	OK	OK
192.1	13	.	OK	OK	OK
197.1	0	es	OK	OK	OK
197.1	1	gibt	Mistranslation	OK	OK
197.1	2	jedoch	OK	OK	BAD
197.1	3	gute	OK	OK	BAD
197.1	4	gründe	Style/register	OK	BAD
197.1	5	für	Untranslated	Accuracy	OK
197.1	6	die	OK	OK	OK
197.1	7	annahme	OK	OK	OK
197.1	8	,	OK	OK	OK
197.1	9	es	OK	OK	BAD
197.1	10	könnte	OK	OK	BAD
197.1	11	nur	OK	OK	OK
197.1	12	ihre	OK	Fluency	BAD
197.1	13	tödliche	Function_words	Fluency	BAD
197.1	14	pattsituation	OK	Accuracy	BAD
197.1	15	durchbrechen	Agreement	OK	BAD
197.1	16	.	OK	OK	OK
198.1	0	besser	Mistranslation	OK	OK
198.1	1	,	OK	OK	OK
198.1	2	um	OK	OK	BAD
198.1	3	sie	Word_order	Accuracy	OK
198.1	4	hinter	OK	OK	OK
198.1	5	dieser	OK	Fluency	OK
198.1	6	mauer	OK	Accuracy	OK
198.1	7	zu	Morphology_(word_form)	OK	BAD
198.1	8	halten	OK	OK	OK
198.1	9	und	Mistranslation	OK	BAD
198.1	10	sie	OK	OK	OK
198.1	11	zu	Mistranslation	OK	OK
198.1	12	schlagen	OK	Accuracy	BAD
198.1	13	,	OK	OK	OK
198.1	14	wenn	Mistranslation	OK	BAD
198.1	15	sie	OK	OK	OK
198.1	16	haupt	OK	OK	BAD
198.1	17	erheben	OK	Fluency	OK
198.1	18	.	OK	OK	OK
208.1	0	geben	OK	OK	OK
208.1	1	sie	OK	OK	OK
208.1	2	ihm	OK	OK	BAD
208.1	3	eine	Mistranslation	Fluency	OK
208.1	4	chance	OK	OK	BAD
208.1	5	.	OK	OK	OK
219.1	0	sie	OK	Accuracy	OK
219.1	1	können	Mistranslation	Accuracy	OK
219.1	2	mich	OK	OK	BAD
219.1	3	einen	Mistranslation	OK	OK
219.1	4	triefnasigen	Mistranslation	Accuracy	BAD
219.1	5	weichling	Function_words	Accuracy	BAD
219.1	6	nennen	Mistranslation	Accuracy	BAD
219.1	7	.	OK	OK	OK
231.1	0	"	OK	OK	OK
231.1	1	forschung	Function_words	Fluency	BAD
231.1	2	zeigt	OK	OK	OK
231.1	3	,	OK	OK	OK
231.1	4	dass	OK	OK	OK
231.1	5	kinder	OK	OK	OK
231.1	6	,	OK	OK	OK
231.1	7	denen	OK	OK	OK
231.1	8	erlaubt	OK	Accuracy	OK
231.1	9	wird	Tense/aspect/mood	Fluency	OK
231.1	10	herumzuzappeln	OK	OK	OK
231.1	11	,	OK	OK	OK
231.1	12	mehr	OK	OK	OK
231.1	13	erfahren	OK	OK	OK
231.1	14	und	OK	OK	OK
231.1	15	mehr	Mistranslation	OK	OK
231.1	16	information	Morphology_(word_form)	OK	OK
231.1	17	behalten	Mistranslation	Fluency	BAD
231.1	18	als	Word_order	Accuracy	BAD
231.1	19	diejenigen	OK	Accuracy	OK
231.1	20	,	OK	OK	OK
231.1	21	die	OK	OK	OK
231.1	22	gezwungen	OK	OK	OK
231.1	23	werden	Mistranslation	Accuracy	OK
231.1	24	stillzusitzen	OK	OK	OK
231.1	25	,	OK	OK	OK
231.1	26	"	OK	OK	OK
231.1	27	hat	OK	Fluency	BAD
231.1	28	professor	OK	OK	OK
231.1	29	fenske	OK	OK	OK
231.1	30	gesagt	Tense/aspect/mood	OK	BAD
231.1	31	.	OK	OK	OK
233.1	0	"	OK	OK	OK
233.1	1	ich	OK	Accuracy	OK
233.1	2	weiß	OK	Fluency	BAD
233.1	3	,	OK	OK	OK
233.1	4	wer	Mistranslation	Accuracy	BAD
233.1	5	sie	OK	OK	OK
233.1	6	sind	OK	OK	OK
233.1	7	,	OK	OK	OK
233.1	8	"	OK	OK	OK
233.1	9	hat	OK	OK	OK
233.1	10	er	OK	OK	OK
233.1	11	freundlich	OK	OK	OK
233.1	12	gesagt	Agreement	Fluency	BAD
233.1	13	.	OK	OK	OK
236.1	0	wir	OK	OK	OK
236.1	1	sind	OK	OK	BAD
236.1	2	ihre	OK	OK	OK
236.1	3	nachkommenschaft	OK	OK	OK
236.1	4	,	OK	OK	OK
236.1	5	und	OK	OK	OK
236.1	6	wir	OK	OK	OK
236.1	7	sind	OK	OK	OK
236.1	8	gegenüber	OK	OK	OK
236.1	9	ihnen	OK	OK	OK
236.1	10	loyal	OK	OK	OK
236.1	11	.	Word_order	OK	OK
241.1	0	"	OK	OK	OK
241.1	1	meine	OK	OK	OK
241.1	2	regierung	OK	OK	OK
241.1	3	hat	OK	OK	OK
241.1	4	ein	OK	OK	OK
241.1	5	großes	OK	OK	OK
241.1	6	engagement	Mistranslation	Accuracy	BAD
241.1	7	den	OK	OK	OK
241.1	8	mexikanischen	OK	OK	OK
241.1	9	leuten	OK	OK	OK
241.1	10	,	OK	Accuracy	OK
241.1	11	die	OK	OK	OK
241.1	12	gewalt	OK	OK	OK
241.1	13	zu	OK	OK	OK
241.1	14	reduzieren	OK	OK	BAD
241.1	15	,	OK	OK	OK
241.1	16	"	OK	Accuracy	BAD
241.1	17	hat	Morphology_(word_form)	Fluency	OK
241.1	18	herr	OK	OK	OK
241.1	19	pena	OK	OK	OK
241.1	20	nieto	OK	OK	OK
241.1	21	dem	OK	OK	OK
241.1	22	amerikanischen	OK	OK	OK
241.1	23	präsidenten	OK	OK	OK
241.1	24	barack	OK	OK	OK
241.1	25	obama	Word_order	OK	BAD
241.1	26	im	OK	Accuracy	BAD
241.1	27	ovalen	OK	Accuracy	OK
241.1	28	büro	OK	OK	OK
241.1	29	früher	Grammar	Accuracy	BAD
241.1	30	in	OK	OK	OK
241.1	31	dieser	Mistranslation	Accuracy	OK
241.1	32	woche	Mistranslation	Accuracy	BAD
241.1	33	erzählt	OK	OK	BAD
241.1	34	.	OK	OK	OK
247.1	0	"	OK	OK	OK
247.1	1	das	OK	OK	OK
247.1	2	stellt	OK	OK	OK
247.1	3	eine	OK	OK	OK
247.1	4	gefahr	OK	OK	OK
247.1	5	für	OK	OK	BAD
247.1	6	die	OK	OK	OK
247.1	7	atmosphäre	Mistranslation	Accuracy	BAD
247.1	8	der	Mistranslation	Accuracy	BAD
247.1	9	intellektuellen	Mistranslation	OK	BAD
247.1	10	diskussion	Agreement	OK	BAD
247.1	11	sowie	Grammar	OK	BAD
247.1	12	zum	OK	Fluency	OK
247.1	13	wohl	OK	OK	OK
247.1	14	der	Mistranslation	Fluency	BAD
247.1	15	mitglieder	OK	OK	OK
247.1	16	dar	OK	OK	OK
247.1	17	"	Mistranslation	OK	BAD
247.1	18	,	OK	Fluency	OK
247.1	19	sagt	OK	OK	BAD
247.1	20	sie	OK	OK	BAD
247.1	21	.	OK	OK	OK
249.1	0	ich	OK	OK	OK
249.1	1	bin	OK	OK	OK
249.1	2	in	OK	Fluency	OK
249.1	3	der	Terminology	OK	OK
249.1	4	kleinstadt	OK	OK	OK
249.1	5	fagernes	OK	OK	OK
249.1	6	,	OK	OK	OK
249.1	7	etwa	Mistranslation	Accuracy	OK
249.1	8	drei	Mistranslation	OK	OK
249.1	9	stunden	Mistranslation	Accuracy	BAD
249.1	10	von	Word_order	Accuracy	BAD
249.1	11	oslo	OK	OK	OK
249.1	12	.	OK	OK	OK
252.1	0	das	OK	OK	OK
252.1	1	gefühl	OK	OK	OK
252.1	2	ist	Style/register	Fluency	BAD
252.1	3	gegenseitig	OK	OK	OK
252.1	4	.	OK	OK	OK
255.1	0	"	OK	OK	OK
255.1	1	aber	OK	OK	OK
255.1	2	es	OK	OK	OK
255.1	3	ist	OK	OK	OK
255.1	4	der	OK	OK	OK
255.1	5	beste	Style/register	Fluency	BAD
255.1	6	platz	Style/register	Fluency	BAD
255.1	7	in	Style/register	Fluency	BAD
255.1	8	der	Style/register	Fluency	BAD
255.1	9	welt	OK	OK	BAD
255.1	10	,	OK	OK	OK
255.1	11	"	OK	OK	OK
255.1	12	hat	OK	OK	OK
255.1	13	er	Mistranslation	OK	OK
255.1	14	kläglich	OK	OK	BAD
255.1	15	gesagt	OK	Accuracy	OK
255.1	16	.	OK	OK	OK
256.1	0	das	OK	OK	OK
256.1	1	ziel	Mistranslation	OK	BAD
256.1	2	war	OK	OK	OK
256.1	3	jedoch	OK	OK	OK
256.1	4	pendler	OK	OK	OK
256.1	5	nicht	OK	OK	BAD
256.1	6	zu	Grammar	OK	OK
256.1	7	stoppen	Mistranslation	Accuracy	OK
256.1	8	,	OK	OK	OK
256.1	9	die	OK	Accuracy	BAD
256.1	10	kommen	Mistranslation	Fluency	BAD
256.1	11	,	Mistranslation	Accuracy	OK
256.1	12	um	OK	OK	BAD
256.1	13	zu	Mistranslation	OK	BAD
256.1	14	arbeiten	OK	Accuracy	OK
256.1	15	,	OK	Accuracy	BAD
256.1	16	aber	Style/register	OK	BAD
256.1	17	die	Mistranslation	Accuracy	BAD
256.1	18	demonstranten	Style/register	Accuracy	OK
256.1	19	daran	OK	OK	OK
256.1	20	zu	OK	Accuracy	BAD
256.1	21	hindern	OK	OK	OK
256.1	22	,	OK	OK	OK
256.1	23	das	OK	OK	OK
256.1	24	parlament	OK	OK	OK
256.1	25	zu	OK	OK	OK
256.1	26	erreichen	OK	OK	OK
256.1	27	.	OK	OK	OK
261.1	0	die	OK	OK	OK
261.1	1	vierfache	OK	OK	OK
261.1	2	auswertung	OK	OK	OK
261.1	3	,	OK	Fluency	BAD
261.1	4	die	Mistranslation	OK	OK
261.1	5	im	Mistranslation	Fluency	BAD
261.1	6	inverter	OK	OK	BAD
261.1	7	stattfindet	OK	Accuracy	OK
261.1	8	,	OK	Fluency	OK
261.1	9	wächst	OK	OK	OK
261.1	10	die	OK	OK	BAD
261.1	11	genauigkeit	Mistranslation	Accuracy	OK
261.1	12	bis	OK	Accuracy	BAD
261.1	13	tafsewende096	OK	Fluency	BAD
261.1	14	inkremente	OK	Accuracy	OK
261.1	15	an	Word_order	OK	OK
261.1	16	/	Word_order	Accuracy	BAD
261.1	17	revolution	OK	OK	OK
261.1	18	.	OK	OK	OK
262.1	0	die	OK	OK	OK
262.1	1	auswertungselektronik	OK	OK	OK
262.1	2	korrigiert	OK	OK	OK
262.1	3	die	Mistranslation	Accuracy	OK
262.1	4	gelagerten	OK	OK	OK
262.1	5	werte	Function_words	Accuracy	OK
262.1	6	automatisch	Function_words	Fluency	BAD
262.1	7	mit	Mistranslation	Accuracy	OK
262.1	8	jenen	Word_order	OK	BAD
262.1	9	betretenen	Mistranslation	OK	OK
262.1	10	.	OK	OK	OK
271.1	0	controller-	OK	OK	OK
271.1	1	auswahlangebotsmöglichkeiten	OK	Fluency	OK
271.1	2	für	OK	OK	BAD
271.1	3	die	OK	OK	OK
271.1	4	auswahl	OK	OK	BAD
271.1	5	von	OK	Fluency	BAD
271.1	6	:	OK	OK	OK
272.1	0	messen	OK	Accuracy	BAD
272.1	1	sie	Mistranslation	OK	OK
272.1	2	kodiererausgangspannung	Mistranslation	OK	BAD
272.1	3	mit	OK	OK	BAD
272.1	4	messinstrument	Omission	Accuracy	OK
273.1	0	fußboden-beschicker	Capitalization	OK	BAD
277.1	0	tps-stationärumwandler	Mistranslation	Fluency	OK
277.1	1	[	Mistranslation	Fluency	OK
277.1	2	1	Omission	Fluency	BAD
277.1	3	]	Tense/aspect/mood	Accuracy	BAD
282.1	0	tpm-mobilumwandler	Terminology	OK	BAD
282.1	1	[	Mistranslation	Fluency	BAD
282.1	2	5	Terminology	Accuracy	BAD
282.1	3	]	Mistranslation	Accuracy	BAD
285.1	0	weite	OK	OK	OK
285.1	1	eingabespannungsreihe	Mistranslation	OK	OK
285.1	2	:	OK	OK	OK
293.1	0	gezahnte	OK	OK	BAD
293.1	1	gürtelsprünge	OK	Accuracy	BAD
298.1	0	movitrans	OK	OK	OK
298.1	1	ist	OK	OK	OK
298.1	2	ein	OK	OK	OK
298.1	3	system	OK	OK	OK
298.1	4	,	OK	OK	OK
298.1	5	das	OK	OK	OK
298.1	6	aus	Mistranslation	Accuracy	BAD
298.1	7	stationären	OK	Fluency	OK
298.1	8	und	OK	OK	OK
298.1	9	mobilen	OK	Accuracy	OK
298.1	10	bestandteilen	OK	OK	OK
298.1	11	besteht	OK	OK	OK
298.1	12	,	OK	OK	OK
298.1	13	das	Style/register	Accuracy	BAD
298.1	14	elektrischer	Mistranslation	Accuracy	OK
298.1	15	energie	Mistranslation	Accuracy	BAD
298.1	16	ermöglicht	Mistranslation	Accuracy	OK
298.1	17	,	OK	OK	BAD
298.1	18	mobilen	Mistranslation	OK	BAD
298.1	19	elektrischen	Mistranslation	Accuracy	BAD
298.1	20	verbrauchern	OK	Accuracy	OK
298.1	21	geliefert	OK	Accuracy	OK
298.1	22	zu	Mistranslation	OK	BAD
298.1	23	werden	OK	OK	OK
298.1	24	.	OK	OK	OK
299.1	0	mit	Morphology_(word_form)	OK	OK
299.1	1	allen	OK	OK	OK
299.1	2	sklaven	Terminology	Accuracy	BAD
299.1	3	wird	Tense/aspect/mood	Fluency	OK
299.1	4	p700-betriebsart	Tense/aspect/mood	OK	BAD
299.1	5	1	Typography	Fluency	OK
299.1	6	nach	OK	OK	OK
299.1	7	cfc	OK	Accuracy	BAD
299.1	8	&	OK	Fluency	BAD
299.1	9	sync	Omission	Fluency	BAD
299.1	10	gesetzt	OK	OK	BAD
304.1	0	liefern	Mistranslation	Accuracy	BAD
304.1	1	sie	OK	Fluency	BAD
304.1	2	frequenz-fmains	Mistranslation	OK	BAD
315.1	0	nennleistungs-strom	Mistranslation	OK	OK
315.1	1	herein	Mistranslation	Accuracy	BAD
320.1	0	reihe	OK	OK	BAD
320.1	1	von	OK	OK	OK
320.1	2	anwendungen	OK	OK	OK
320.1	3	von	OK	OK	OK
320.1	4	movitrans	Agreement	OK	OK
327.1	0	verfahren	OK	Fluency	BAD
327.1	1	wenn	Agreement	OK	OK
327.1	2	einen	Mistranslation	Fluency	OK
327.1	3	kodierer	OK	Accuracy	OK
327.1	4	ersetzend	Agreement	OK	OK
337.1	0	setzen	Function_words	OK	OK
337.1	1	sie	Mistranslation	Fluency	OK
337.1	2	einen	OK	OK	OK
337.1	3	identischen	OK	Fluency	OK
337.1	4	kodierer	Addition	OK	BAD
337.1	5	ein	Word_order	Fluency	OK
337.1	6	(	OK	OK	OK
337.1	7	sehen	Agreement	Accuracy	OK
337.1	8	sie	Mistranslation	OK	OK
337.1	9	türschild	Mistranslation	OK	OK
337.1	10	)	Tense/aspect/mood	Accuracy	BAD
342.1	0	technische	Mistranslation	OK	OK
342.1	1	merkmale	OK	Accuracy	OK
342.1	2	von	OK	OK	OK
342.1	3	movitrans-	Morphology_(word_form)	OK	BAD
342.1	4	bestandteile	Word_order	Accuracy	OK
342.1	5	-tps-	OK	OK	BAD
342.1	6	stationärumwandler	OK	Accuracy	BAD
347.1	0	überdies	OK	OK	OK
347.1	1	wurden	OK	Fluency	BAD
347.1	2	5	OK	OK	BAD
347.1	3	graduands	OK	OK	BAD
347.1	4	in	Mistranslation	Fluency	OK
347.1	5	elektrotechnik	OK	Fluency	BAD
347.1	6	,	OK	OK	OK
347.1	7	5	OK	Fluency	OK
347.1	8	in	Mistranslation	Fluency	OK
347.1	9	maschinenbau	Unintelligible	Fluency	OK
347.1	10	und	OK	Fluency	BAD
347.1	11	2	Mistranslation	OK	BAD
347.1	12	in	OK	Accuracy	OK
347.1	13	ökonomie	OK	Fluency	OK
347.1	14	für	Word_order	OK	BAD
347.1	15	hervorragende	OK	OK	OK
347.1	16	leistungen	Capitalization	Fluency	OK
347.1	17	in	Word_order	OK	BAD
347.1	18	ihrem	Word_order	Fluency	BAD
347.1	19	gebiet	Style/register	Fluency	BAD
347.1	20	geehrt	Word_order	Accuracy	BAD
347.1	21	.	OK	OK	OK
350.1	0	drehzahlregelung	OK	OK	OK
350.1	1	findet	OK	OK	OK
350.1	2	in	OK	Fluency	OK
350.1	3	einem	OK	OK	OK
350.1	4	1	OK	OK	OK
350.1	5	ms	Mistranslation	Accuracy	BAD
350.1	6	zyklus	OK	Accuracy	BAD
350.1	7	statt	Style/register	Accuracy	BAD
350.1	8	;	Omission	OK	OK
350.1	9	cfc-stromkontrolle	Tense/aspect/mood	Fluency	OK
350.1	10	hat	Spelling	OK	OK
350.1	11	eine	Untranslated	Fluency	OK
350.1	12	taktzeit	OK	OK	OK
350.1	13	von	Mistranslation	OK	BAD
350.1	14	125	Mistranslation	Accuracy	OK
350.1	15	µs	OK	Fluency	OK
352.1	0	der	OK	Fluency	OK
352.1	1	wert	OK	OK	BAD
352.1	2	in	OK	OK	OK
352.1	3	h511	OK	Accuracy	BAD
352.1	4	oder	OK	OK	OK
352.1	5	p003	Unintelligible	OK	OK
352.1	6	wird	Mistranslation	Fluency	BAD
352.1	7	von	Word_order	OK	OK
352.1	8	tafsewende096	Typography	OK	BAD
352.1	9	inkrementen	OK	OK	BAD
352.1	10	verändert	Agreement	OK	OK
352.1	11	,	OK	OK	OK
352.1	12	wenn	Mistranslation	Fluency	BAD
352.1	13	der	Untranslated	OK	BAD
352.1	14	motor	Terminology	OK	BAD
352.1	15	einmal	OK	OK	OK
352.1	16	umgedreht	Mistranslation	OK	OK
352.1	17	wird	OK	OK	OK
352.1	18	.	OK	OK	OK
354.1	0	lassen	OK	OK	OK
354.1	1	sie	OK	OK	OK
354.1	2	uns	OK	OK	OK
354.1	3	uns	OK	OK	OK
354.1	4	mit	Mistranslation	OK	OK
354.1	5	den	Terminology	OK	OK
354.1	6	kommenden	Terminology	Accuracy	BAD
354.1	7	aufgaben	OK	OK	BAD
354.1	8	befassen	Mistranslation	Accuracy	BAD
354.1	9	und	Mistranslation	OK	BAD
354.1	10	planen	OK	OK	OK
354.1	11	:	OK	OK	BAD
354.1	12	zusammen	OK	OK	OK
354.1	13	können	OK	OK	OK
354.1	14	wir	OK	OK	OK
354.1	15	die	OK	OK	OK
354.1	16	zukunft	Mistranslation	OK	BAD
354.1	17	von	OK	OK	OK
354.1	18	sew	OK	OK	OK
354.1	19	tafsewende004	Mistranslation	OK	BAD
354.1	20	formen	OK	OK	OK
354.1	21	und	OK	OK	OK
354.1	22	es	OK	OK	OK
354.1	23	so	OK	OK	OK
354.1	24	erfolgreich	OK	OK	OK
354.1	25	machen	OK	OK	OK
354.1	26	wie	Mistranslation	OK	OK
354.1	27	diese	OK	OK	OK
354.1	28	!	OK	Accuracy	BAD
357.1	0	die	OK	Accuracy	OK
357.1	1	anwendungsbereichs	OK	OK	OK
357.1	2	-funktion	OK	Accuracy	OK
357.1	3	ist	Mistranslation	Fluency	OK
357.1	4	jetzt	OK	OK	OK
357.1	5	aktiv	Mistranslation	OK	OK
357.1	6	und	OK	OK	BAD
357.1	7	wartet	Word_order	OK	OK
357.1	8	im	OK	OK	BAD
357.1	9	hintergrund	Mistranslation	Accuracy	OK
357.1	10	,	OK	OK	OK
357.1	11	falls	OK	OK	OK
357.1	12	eine	OK	OK	OK
357.1	13	inverterstörung	Grammar	OK	OK
357.1	14	auftreten	OK	Fluency	OK
357.1	15	sollte	Tense/aspect/mood	OK	BAD
357.1	16	.	OK	OK	OK
362.1	0	zerleger-überprüfungs	Terminology	OK	OK
362.1	1	möglichkeiten	Morphology_(word_form)	OK	OK
362.1	2	(	OK	OK	OK
362.1	3	sehen	OK	OK	OK
362.1	4	sie	Terminology	Accuracy	BAD
362.1	5	kodierer	Mistranslation	Fluency	OK
362.1	6	)	OK	OK	BAD
364.1	0	hr.	OK	OK	BAD
364.1	1	blickle	OK	OK	OK
364.1	2	präsentierte	OK	OK	OK
364.1	3	einer	OK	OK	OK
364.1	4	anzahl	OK	OK	OK
364.1	5	von	OK	OK	OK
364.1	6	begeisterten	OK	OK	OK
364.1	7	gästen	Mistranslation	OK	OK
364.1	8	während	Mistranslation	OK	BAD
364.1	9	einer	OK	OK	OK
364.1	10	formalen	Mistranslation	OK	OK
364.1	11	eröffnungszeremonie	OK	Accuracy	OK
364.1	12	den	OK	Accuracy	OK
364.1	13	beeindruckenden	OK	OK	BAD
364.1	14	neubau	OK	OK	OK
364.1	15	und	Mistranslation	Accuracy	OK
364.1	16	das	OK	OK	OK
364.1	17	test-zentrum	OK	Fluency	OK
364.1	18	.	OK	OK	OK
365.1	0	der	OK	OK	OK
365.1	1	bremsberichtiger	OK	OK	OK
365.1	2	ist	OK	OK	OK
365.1	3	entweder	OK	OK	BAD
365.1	4	im	OK	Accuracy	BAD
365.1	5	kontrollkabinett	OK	OK	BAD
365.1	6	oder	Word_order	OK	OK
365.1	7	im	OK	OK	OK
365.1	8	terminalen	OK	OK	OK
365.1	9	kasten	Grammar	OK	OK
365.1	10	.	OK	OK	OK
370.1	0	ärmere	OK	OK	OK
370.1	1	einmischungsunterdrückungswirkung	Terminology	OK	BAD
382.1	0	die	OK	OK	OK
382.1	1	setpoint-spannung	OK	Fluency	OK
382.1	2	wird	OK	OK	BAD
382.1	3	mit	Spelling	OK	OK
382.1	4	p020	Terminology	OK	BAD
382.1	5	gezeigt	Agreement	Accuracy	BAD
382.1	6	(	Omission	Accuracy	BAD
382.1	7	analoges	OK	Fluency	BAD
382.1	8	eingegebenes	Mistranslation	OK	OK
382.1	9	ai1	OK	OK	OK
382.1	10	)	OK	OK	BAD
382.1	11	.	OK	OK	OK
384.1	0	je	OK	OK	OK
384.1	1	nach	OK	OK	OK
384.1	2	der	OK	Fluency	OK
384.1	3	motorenbauform	OK	OK	BAD
384.1	4	,	OK	OK	OK
384.1	5	terminalem	Word_order	OK	OK
384.1	6	kasten	Mistranslation	OK	OK
384.1	7	(	Omission	OK	OK
384.1	8	10-pol	Agreement	OK	OK
384.1	9	phoenix-	Terminology	OK	BAD
384.1	10	terminal-leiste	OK	OK	OK
384.1	11	)	Accuracy	OK	OK
384.1	12	oder	Agreement	Accuracy	BAD
384.1	13	verbindungsstecker	Morphology_(word_form)	OK	OK
384.1	14	.	OK	OK	OK
399.1	0	dies	OK	OK	OK
399.1	1	heißt	OK	OK	OK
399.1	2	,	OK	OK	OK
399.1	3	dass	Mistranslation	OK	OK
399.1	4	ein	OK	OK	OK
399.1	5	motor	OK	Fluency	OK
399.1	6	sich	Mistranslation	Accuracy	BAD
399.1	7	in	OK	OK	OK
399.1	8	einer	OK	OK	OK
399.1	9	richtung	Word_order	OK	OK
399.1	10	für	OK	Accuracy	BAD
399.1	11	170	OK	OK	OK
399.1	12	minuten	Accuracy	Fluency	BAD
399.1	13	bei	Agreement	Accuracy	BAD
399.1	14	tafsewende000	Terminology	Fluency	BAD
399.1	15	rpm	Part_of_speech	Accuracy	BAD
399.1	16	drehen	Mistranslation	Accuracy	BAD
399.1	17	muss	OK	Accuracy	BAD
399.1	18	,	OK	OK	OK
399.1	19	bevor	OK	OK	BAD
399.1	20	ein	OK	OK	OK
399.1	21	überlauf	OK	OK	OK
399.1	22	auftritt	OK	OK	OK
399.1	23	,	OK	OK	OK
399.1	24	und	OK	OK	OK
399.1	25	die	OK	OK	OK
399.1	26	position	OK	Accuracy	BAD
399.1	27	nicht	Mistranslation	Accuracy	BAD
399.1	28	mehr	OK	OK	OK
399.1	29	klar	OK	OK	OK
399.1	30	ist	Mistranslation	OK	OK
399.1	31	.	OK	OK	OK
400.1	0	elektrische	OK	OK	OK
400.1	1	energie	OK	Accuracy	OK
400.1	2	wird	Mistranslation	Accuracy	OK
400.1	3	contactlessly	OK	OK	BAD
400.1	4	zu	Mistranslation	OK	OK
400.1	5	einem	Spelling	Accuracy	OK
400.1	6	oder	OK	OK	OK
400.1	7	einigen	Capitalization	OK	BAD
400.1	8	mobilen	OK	OK	BAD
400.1	9	verbrauchern	Mistranslation	OK	OK
400.1	10	überwiesen	OK	Fluency	OK
400.1	11	.	OK	OK	OK
401.1	0	linien-kabel	Mistranslation	OK	OK
401.1	1	(	Mistranslation	OK	OK
401.1	2	übertragungsweg	Terminology	OK	OK
401.1	3	)	OK	Accuracy	OK
403.1	0	nutzen	OK	OK	OK
403.1	1	von	OK	OK	OK
403.1	2	benützungs-movitrans	OK	Accuracy	BAD
404.1	0	alle	OK	OK	OK
404.1	1	teile	OK	Fluency	BAD
404.1	2	des	OK	OK	OK
404.1	3	systems	OK	OK	OK
404.1	4	müssen	Mistranslation	Fluency	OK
404.1	5	mit	Unintelligible	Accuracy	OK
404.1	6	großen	Mistranslation	OK	BAD
404.1	7	oberflächenbodenlaschen	Capitalization	Accuracy	OK
404.1	8	verbunden	Mistranslation	Accuracy	BAD
404.1	9	werden	Addition	OK	BAD
404.1	10	.	Mistranslation	OK	OK
410.1	0	nochmals	OK	OK	OK
410.1	1	die	OK	OK	OK
410.1	2	stromversorgung	OK	OK	BAD
410.1	3	aus	Mistranslation	Accuracy	BAD
410.1	4	und	OK	OK	BAD
410.1	5	an	Word_order	Accuracy	BAD
410.1	6	umschalten	OK	Accuracy	BAD
410.1	7	.	OK	OK	OK
412.1	0	movidrivesymbol-b-größe	Word_order	OK	BAD
412.1	1	0	Word_order	Accuracy	OK
412.1	2	unterscheidet	Morphology_(word_form)	OK	OK
412.1	3	sich	Tense/aspect/mood	Fluency	BAD
412.1	4	von	Word_order	OK	BAD
412.1	5	movidrivesymbol-a	OK	Fluency	BAD
412.1	6	und	OK	Accuracy	OK
412.1	7	movidrivesymbol-	OK	OK	OK
412.1	8	vereinbarungsgröße	OK	Fluency	BAD
412.1	9	1	Mistranslation	OK	OK
412.1	10	eingehend	Mistranslation	OK	BAD
412.1	11	,	OK	Accuracy	BAD
412.1	12	höhe	OK	OK	OK
412.1	13	und	OK	Accuracy	OK
412.1	14	breite	OK	OK	OK
412.1	15	.	OK	OK	OK
415.1	0	oktober	OK	OK	OK
415.1	1	tafsewende003	OK	Accuracy	BAD
415.1	2	ausgabe	OK	Accuracy	OK
420.1	0	movitranssymbol	OK	Fluency	OK
420.1	1	-	OK	OK	OK
420.1	2	ein	OK	OK	OK
420.1	3	technologischer	OK	OK	OK
420.1	4	durchbruch	OK	Fluency	BAD
420.1	5	in	OK	OK	BAD
420.1	6	energieübertragung	Word_order	Accuracy	OK
425.1	0	über	Mistranslation	Fluency	BAD
425.1	1	dem	OK	OK	OK
425.1	2	dbg	OK	OK	OK
425.1	3	können	OK	OK	OK
425.1	4	sie	OK	OK	BAD
425.1	5	mit	OK	OK	OK
425.1	6	parameter	Mistranslation	Accuracy	BAD
425.1	7	p931	Mistranslation	OK	BAD
425.1	8	(	OK	Fluency	OK
425.1	9	task1	Accuracy	OK	BAD
425.1	10	)	OK	OK	OK
425.1	11	kontrollieren	OK	OK	OK
425.1	12	,	Function_words	OK	OK
425.1	13	wenn	OK	OK	OK
425.1	14	ein	OK	Fluency	BAD
425.1	15	ipos-programm	Part_of_speech	OK	OK
425.1	16	gestartet	OK	OK	OK
425.1	17	oder	Part_of_speech	OK	OK
425.1	18	gestoppt	OK	OK	OK
425.1	19	worden	OK	OK	OK
425.1	20	ist	OK	OK	BAD
425.1	21	.	OK	OK	OK
432.1	0	stück	OK	Accuracy	OK
432.1	1	13	OK	OK	OK
432.1	2	befestigte	Mistranslation	OK	OK
432.1	3	setpoint-umschaltung	OK	OK	OK
434.1	0	sew-eurodrive	OK	OK	OK
434.1	1	gewährt	OK	OK	OK
434.1	2	dem	Mistranslation	OK	OK
434.1	3	käufer	Mistranslation	OK	OK
434.1	4	die	Mistranslation	Accuracy	OK
434.1	5	rechte	Mistranslation	OK	BAD
434.1	6	,	OK	OK	OK
434.1	7	um	Mistranslation	Accuracy	BAD
434.1	8	die	OK	OK	BAD
434.1	9	feilen	OK	OK	OK
434.1	10	(	OK	OK	BAD
434.1	11	funktionsblöcke	OK	OK	OK
434.1	12	und	OK	OK	OK
434.1	13	datenblöcke	Mistranslation	OK	OK
434.1	14	)	OK	OK	OK
434.1	15	zu	Mistranslation	Fluency	BAD
434.1	16	importieren	Mistranslation	OK	BAD
434.1	17	und	OK	OK	OK
434.1	18	auf	OK	OK	OK
434.1	19	genau	OK	Accuracy	BAD
434.1	20	einer	Mistranslation	OK	OK
434.1	21	simatic-s7-steuereinrichtung	Mistranslation	Fluency	BAD
434.1	22	zu	Typography	Fluency	BAD
434.1	23	steuern	Mistranslation	OK	BAD
434.1	24	.	OK	OK	OK
446.1	0	ipos-punktsteuerung	Terminology	OK	OK
446.1	1	wird	OK	OK	OK
446.1	2	in	OK	OK	OK
446.1	3	der	OK	OK	OK
446.1	4	b-einheit	OK	OK	BAD
446.1	5	integriert	OK	OK	OK
446.1	6	,	Mistranslation	Fluency	BAD
446.1	7	wie	OK	OK	OK
446.1	8	standardmäßig	OK	OK	OK
446.1	9	.	OK	OK	OK
461.1	0	mexiko	OK	OK	OK
461.1	1	hat	OK	OK	OK
461.1	2	gewinner	OK	OK	OK
461.1	3	und	OK	OK	OK
461.1	4	verlierer	OK	OK	OK
461.1	5	.	OK	OK	OK
461.1	6	menschen	OK	OK	OK
461.1	7	,	OK	OK	OK
461.1	8	für	OK	OK	OK
461.1	9	die	OK	OK	OK
461.1	10	das	OK	OK	OK
461.1	11	land	OK	OK	OK
461.1	12	chancen	OK	OK	OK
461.1	13	bietet	OK	OK	OK
461.1	14	,	OK	OK	OK
461.1	15	und	OK	OK	OK
461.1	16	andere	OK	OK	OK
461.1	17	,	OK	OK	OK
461.1	18	für	OK	OK	OK
461.1	19	die	OK	OK	OK
461.1	20	es	OK	OK	OK
461.1	21	dies	OK	OK	OK
461.1	22	nicht	OK	OK	OK
461.1	23	tut	OK	OK	OK
461.1	24	.	OK	OK	OK
462.1	0	nicht	OK	OK	OK
462.1	1	mexiko	OK	OK	OK
462.1	2	.	OK	OK	OK
476.1	0	"	OK	OK	OK
476.1	1	sie	Morphology_(word_form)	Fluency	BAD
476.1	2	werden	Mistranslation	Fluency	OK
476.1	3	hier	OK	OK	OK
476.1	4	sein	Agreement	Fluency	BAD
476.1	5	glück	OK	OK	OK
476.1	6	nicht	Word_order	Accuracy	BAD
476.1	7	"	Word_order	OK	OK
476.1	8	,	OK	OK	OK
476.1	9	erzählte	OK	Fluency	BAD
476.1	10	er	Mistranslation	Fluency	OK
476.1	11	mir	Tense/aspect/mood	Fluency	BAD
476.1	12	.	OK	Accuracy	OK
481.1	0	kongressabgeordneter	OK	OK	OK
481.1	1	olvera	OK	OK	OK
481.1	2	gibt	Tense/aspect/mood	Accuracy	BAD
481.1	3	zu	Word_order	Accuracy	BAD
481.1	4	,	OK	OK	OK
481.1	5	dass	Mistranslation	OK	OK
481.1	6	nach	OK	OK	OK
481.1	7	12	OK	OK	OK
481.1	8	jahren	OK	Accuracy	OK
481.1	9	außerhalb	OK	Fluency	OK
481.1	10	des	OK	Accuracy	OK
481.1	11	präsidentenpalasts	OK	OK	OK
481.1	12	von	OK	OK	OK
481.1	13	los	OK	OK	BAD
481.1	14	pinos	OK	OK	OK
481.1	15	es	OK	OK	OK
481.1	16	viel	OK	OK	OK
481.1	17	erwartung	OK	OK	OK
481.1	18	innerhalb	OK	OK	OK
481.1	19	der	OK	OK	OK
481.1	20	partei	OK	OK	OK
481.1	21	über	OK	OK	BAD
481.1	22	enrique	OK	OK	OK
481.1	23	pena	Mistranslation	OK	OK
481.1	24	nieto	OK	OK	OK
481.1	25	gibt	OK	OK	BAD
481.1	26	.	OK	OK	OK
485.1	0	wenn	OK	OK	OK
485.1	1	unsere	OK	OK	BAD
485.1	2	familien	Word_order	Accuracy	BAD
485.1	3	in	Tense/aspect/mood	Fluency	OK
485.1	4	mexiko	Style/register	Fluency	OK
485.1	5	nicht	Omission	OK	BAD
485.1	6	gescheitert	Word_order	Fluency	OK
485.1	7	hatten	Word_order	Accuracy	OK
485.1	8	,	Grammar	OK	BAD
485.1	9	würden	Mistranslation	OK	OK
485.1	10	sie	OK	Fluency	BAD
485.1	11	nicht	OK	OK	OK
485.1	12	abreisen	OK	OK	BAD
485.1	13	.	OK	OK	OK
487.1	0	die	OK	OK	OK
487.1	1	wahrheit	OK	OK	OK
487.1	2	war	OK	OK	BAD
487.1	3	weniger	Mistranslation	OK	BAD
487.1	4	skurrile	OK	Accuracy	OK
487.1	5	.	OK	OK	OK
493.1	0	ich	OK	OK	OK
493.1	1	wurde	OK	OK	OK
493.1	2	aus	Word_order	Fluency	BAD
493.1	3	einem	Word_order	Fluency	BAD
493.1	4	grund	Word_order	Fluency	BAD
493.1	5	nur	Word_order	Fluency	BAD
493.1	6	verfolgt	OK	OK	OK
493.1	7	,	OK	OK	OK
493.1	8	und	OK	OK	OK
493.1	9	in	Mistranslation	Accuracy	BAD
493.1	10	dieser	Mistranslation	Accuracy	BAD
493.1	11	wiege	Mistranslation	Accuracy	BAD
493.1	12	der	Mistranslation	OK	BAD
493.1	13	angenommenen	OK	OK	OK
493.1	14	aufklärung	Mistranslation	Accuracy	OK
493.1	15	war	Mistranslation	OK	BAD
493.1	16	es	OK	OK	OK
493.1	17	sowohl	Mistranslation	Accuracy	BAD
493.1	18	fanatisch	Mistranslation	Accuracy	BAD
493.1	19	als	Mistranslation	Accuracy	BAD
493.1	20	auch	Mistranslation	Accuracy	BAD
493.1	21	barbarisch	Mistranslation	Accuracy	BAD
493.1	22	:	OK	OK	OK
493.1	23	mein	OK	OK	OK
493.1	24	vater	OK	OK	OK
493.1	25	,	OK	OK	OK
493.1	26	der	OK	OK	OK
493.1	27	verstorbene	Word_order	OK	OK
493.1	28	woodrow	OK	OK	OK
493.1	29	wyatts	OK	OK	OK
493.1	30	,	OK	Accuracy	OK
493.1	31	war	OK	OK	OK
493.1	32	ein	OK	OK	OK
493.1	33	bemerkenswerter	Mistranslation	Accuracy	BAD
493.1	34	berater	OK	OK	OK
493.1	35	von	OK	OK	OK
493.1	36	margaret	OK	OK	OK
493.1	37	thatcher	OK	OK	OK
493.1	38	,	OK	OK	OK
493.1	39	und	OK	OK	OK
493.1	40	ich	OK	OK	OK
493.1	41	war	Mistranslation	Accuracy	BAD
493.1	42	ein	Mistranslation	Fluency	BAD
493.1	43	konservativer	OK	OK	OK
493.1	44	anhänger	OK	Fluency	OK
493.1	45	.	OK	OK	OK
501.1	0	konservative	OK	Accuracy	OK
501.1	1	mitglieder	Terminology	Accuracy	BAD
501.1	2	des	OK	Accuracy	BAD
501.1	3	juniorfronleichnam-universitätsgemeinschaftsraums	OK	OK	OK
501.1	4	(	Agreement	Accuracy	BAD
501.1	5	jcr	Word_order	Accuracy	OK
501.1	6	)	Mistranslation	Accuracy	BAD
501.1	7	behaupten	OK	Accuracy	OK
501.1	8	,	OK	OK	OK
501.1	9	dass	OK	OK	OK
501.1	10	sie	OK	OK	BAD
501.1	11	häufig	Grammar	Accuracy	BAD
501.1	12	"	OK	OK	OK
501.1	13	aktiv	Grammar	Fluency	OK
501.1	14	isoliert	OK	OK	OK
501.1	15	,	OK	OK	OK
501.1	16	persönlich	Word_order	Fluency	BAD
501.1	17	angegriffen	OK	Fluency	BAD
501.1	18	und	Mistranslation	OK	OK
501.1	19	veranlasst	OK	Accuracy	BAD
501.1	20	werden	OK	OK	OK
501.1	21	,	Mistranslation	OK	OK
501.1	22	sich	OK	Accuracy	BAD
501.1	23	unwillkommen	OK	Fluency	BAD
501.1	24	"	Omission	OK	OK
501.1	25	wegen	OK	OK	OK
501.1	26	ihrer	Mistranslation	OK	OK
501.1	27	politischen	Word_order	OK	OK
501.1	28	ansichten	OK	OK	BAD
501.1	29	zu	OK	Fluency	BAD
501.1	30	fühlen	Grammar	Fluency	BAD
501.1	31	.	OK	OK	OK
502.1	0	jeder	OK	OK	OK
502.1	1	vermutete	OK	OK	OK
502.1	2	,	OK	OK	OK
502.1	3	ein	Agreement	OK	OK
502.1	4	tory	OK	OK	BAD
502.1	5	zu	OK	OK	BAD
502.1	6	sein	OK	OK	BAD
502.1	7	,	OK	OK	OK
502.1	8	wird	OK	OK	OK
502.1	9	entschieden	OK	OK	BAD
502.1	10	.	OK	OK	OK
504.1	0	er	OK	OK	OK
504.1	1	war	OK	OK	OK
504.1	2	es	OK	OK	OK
504.1	3	nicht	OK	OK	BAD
504.1	4	glauben	OK	OK	OK
504.1	5	.	OK	OK	OK
505.1	0	der	OK	OK	OK
505.1	1	rechtsanwalt	OK	OK	OK
505.1	2	von	OK	OK	OK
505.1	3	manning	OK	OK	BAD
505.1	4	hat	OK	OK	OK
505.1	5	einen	OK	OK	OK
505.1	6	formellen	OK	OK	OK
505.1	7	einwand	OK	OK	OK
505.1	8	gegen	Function_words	OK	OK
505.1	9	die	OK	OK	OK
505.1	10	behandlung	OK	Accuracy	BAD
505.1	11	von	OK	OK	OK
505.1	12	manning	Untranslated	Fluency	BAD
505.1	13	im	OK	Accuracy	OK
505.1	14	januar	OK	OK	BAD
505.1	15	2011	OK	OK	BAD
505.1	16	abgelegt	Mistranslation	OK	BAD
505.1	17	.	OK	OK	OK
513.1	0	der	OK	OK	OK
513.1	1	hass	OK	OK	OK
513.1	2	der	OK	OK	OK
513.1	3	konservativen	OK	OK	OK
513.1	4	partei	OK	OK	OK
513.1	5	war	OK	OK	OK
513.1	6	von	OK	OK	BAD
513.1	7	seinem	OK	Accuracy	OK
513.1	8	fiebrigsten	OK	OK	BAD
513.1	9	.	OK	OK	OK
515.1	0	die	OK	OK	OK
515.1	1	wto-entscheidung	OK	OK	OK
515.1	2	ist	OK	OK	BAD
515.1	3	für	OK	Fluency	OK
515.1	4	mitte	Typography	OK	BAD
515.1	5	2013	OK	OK	OK
515.1	6	.	OK	OK	OK
522.1	0	israels	Function_words	OK	OK
522.1	1	raketenabwehrsystem	OK	OK	OK
522.1	2	iron	OK	Accuracy	BAD
522.1	3	dome	OK	OK	OK
522.1	4	hat	OK	OK	OK
522.1	5	sich	OK	Fluency	BAD
522.1	6	bewährt	Tense/aspect/mood	OK	BAD
522.1	7	und	Mistranslation	OK	OK
522.1	8	viele	OK	Fluency	OK
522.1	9	von	OK	OK	OK
522.1	10	hamas-raketen	OK	OK	OK
522.1	11	zerstört	Mistranslation	OK	OK
522.1	12	worden	OK	OK	OK
522.1	13	.	OK	OK	OK
525.1	0	sie	OK	OK	OK
525.1	1	strecken	OK	OK	OK
525.1	2	sich	OK	OK	OK
525.1	3	jetzt	OK	OK	OK
525.1	4	bis	Mistranslation	OK	OK
525.1	5	zu	Style/register	OK	OK
525.1	6	mehr	Mistranslation	Fluency	BAD
525.1	7	als	OK	Fluency	OK
525.1	8	40	OK	OK	BAD
525.1	9	länder	OK	OK	BAD
525.1	10	einschließlich	OK	Fluency	OK
525.1	11	brasiliens	OK	OK	OK
525.1	12	,	OK	OK	OK
525.1	13	der	OK	OK	BAD
525.1	14	türkei	OK	Accuracy	BAD
525.1	15	und	OK	OK	OK
525.1	16	der	OK	Accuracy	BAD
525.1	17	ukraine	OK	OK	OK
525.1	18	aus	OK	Fluency	BAD
525.1	19	.	OK	OK	OK
532.1	0	er	OK	OK	OK
532.1	1	hat	OK	OK	OK
532.1	2	gesagt	OK	OK	OK
532.1	3	,	OK	OK	OK
532.1	4	dass	OK	OK	OK
532.1	5	er	OK	OK	OK
532.1	6	über	Mistranslation	OK	OK
532.1	7	selbstmord	Agreement	Accuracy	OK
532.1	8	in	Mistranslation	OK	OK
532.1	9	kuwait	OK	Accuracy	OK
532.1	10	nachgedacht	OK	OK	BAD
532.1	11	hat	Mistranslation	OK	BAD
532.1	12	und	OK	Accuracy	OK
532.1	13	einmal	OK	OK	OK
532.1	14	dort	Function_words	OK	OK
532.1	15	wegen	OK	OK	OK
532.1	16	der	OK	OK	BAD
532.1	17	hitze	OK	OK	OK
532.1	18	gegangen	OK	Accuracy	OK
532.1	19	ist	OK	OK	OK
532.1	20	.	OK	OK	OK
538.1	0	das	OK	OK	OK
538.1	1	hören	OK	OK	OK
538.1	2	konzentriert	OK	OK	OK
538.1	3	sich	OK	OK	BAD
538.1	4	auf	OK	Accuracy	BAD
538.1	5	die	OK	OK	OK
538.1	6	zeit	OK	Accuracy	OK
538.1	7	von	OK	OK	BAD
538.1	8	manning	OK	OK	OK
538.1	9	mit	OK	Fluency	BAD
538.1	10	dem	OK	Fluency	OK
538.1	11	militärischen	Word_order	Fluency	OK
538.1	12	gefängnis	Mistranslation	Accuracy	OK
538.1	13	an	Style/register	Accuracy	BAD
538.1	14	quantico	Mistranslation	Accuracy	OK
538.1	15	,	OK	OK	OK
538.1	16	virginia	OK	OK	OK
554.1	0	innerlich	Word_order	OK	BAD
554.1	1	mit	OK	OK	BAD
554.1	2	der	Mistranslation	Accuracy	OK
554.1	3	scham	OK	OK	BAD
554.1	4	errötend	OK	OK	OK
554.1	5	,	OK	OK	OK
554.1	6	habe	Word_order	Accuracy	OK
554.1	7	ich	OK	Fluency	OK
554.1	8	zugegeben	Mistranslation	OK	OK
554.1	9	,	OK	OK	OK
554.1	10	durch	OK	OK	OK
554.1	11	meine	OK	OK	OK
554.1	12	eltern	OK	Accuracy	OK
554.1	13	"	OK	OK	OK
554.1	14	einer	OK	Accuracy	OK
554.1	15	gehirnwäsche	Tense/aspect/mood	OK	OK
554.1	16	unterzogen	OK	Fluency	BAD
554.1	17	"	Untranslated	Accuracy	BAD
554.1	18	und	OK	OK	OK
554.1	19	sie	OK	OK	OK
554.1	20	"	OK	Accuracy	OK
554.1	21	alte	OK	Accuracy	BAD
554.1	22	dummköpfe	OK	Fluency	BAD
554.1	23	genannt	OK	OK	BAD
554.1	24	zu	Word_order	OK	OK
554.1	25	werden	OK	OK	BAD
554.1	26	.	OK	OK	OK
554.1	27	"	OK	OK	OK
563.1	0	hp	OK	OK	OK
563.1	1	ist	Omission	OK	OK
563.1	2	der	OK	OK	OK
563.1	3	richtige	OK	OK	BAD
563.1	4	ausgangspunkt	OK	Fluency	OK
563.1	5	für	OK	OK	OK
563.1	6	die	OK	OK	OK
563.1	7	entwicklung	OK	Accuracy	OK
563.1	8	und	OK	OK	BAD
563.1	9	beruf	Mistranslation	OK	OK
563.1	10	bewegt	OK	OK	BAD
563.1	11	.	OK	OK	OK
567.1	0	die	OK	OK	OK
567.1	1	meisten	OK	OK	OK
567.1	2	menschen	OK	Accuracy	OK
567.1	3	,	Style/register	Accuracy	OK
567.1	4	die	OK	OK	OK
567.1	5	ihre	OK	OK	OK
567.1	6	arbeit	OK	OK	OK
567.1	7	genießen	OK	OK	OK
567.1	8	haben	OK	OK	OK
567.1	9	eine	OK	OK	OK
567.1	10	gewisse	OK	OK	BAD
567.1	11	innere	OK	OK	OK
567.1	12	interesses	OK	Fluency	OK
567.1	13	für	OK	Accuracy	BAD
567.1	14	die	OK	Accuracy	OK
567.1	15	aktivitäten	Mistranslation	OK	OK
567.1	16	müssen	OK	OK	OK
567.1	17	sie	OK	OK	OK
567.1	18	durchführen	OK	OK	BAD
567.1	19	.	OK	OK	OK
568.1	0	oder	OK	OK	OK
568.1	1	vielleicht	OK	OK	OK
568.1	2	haben	OK	OK	OK
568.1	3	sie	OK	OK	BAD
568.1	4	interesse	OK	Accuracy	OK
568.1	5	an	Mistranslation	OK	OK
568.1	6	ändern	OK	OK	BAD
568.1	7	ihrer	Word_order	OK	BAD
568.1	8	business	Untranslated	OK	BAD
568.1	9	unit	Terminology	OK	BAD
568.1	10	oder	OK	OK	BAD
568.1	11	standort	OK	OK	OK
568.1	12	.	OK	OK	OK
570.1	0	rollen	OK	OK	OK
570.1	1	und	OK	OK	OK
570.1	2	verantwortlichkeiten	Word_order	OK	OK
570.1	3	in	OK	OK	OK
570.1	4	ihrer	Mistranslation	OK	OK
570.1	5	karriere	OK	OK	BAD
570.1	6	entwicklung	OK	Accuracy	OK
573.1	0	ist	Tense/aspect/mood	Accuracy	BAD
573.1	1	die	OK	OK	OK
573.1	2	reise	OK	OK	OK
573.1	3	selbst	OK	Accuracy	OK
573.1	4	teil	Agreement	OK	OK
573.1	5	der	Mistranslation	OK	BAD
573.1	6	belohnung	OK	OK	OK
573.1	7	.	OK	OK	OK
581.1	0	wählen	OK	OK	OK
581.1	1	sie	OK	OK	BAD
581.1	2	provider	OK	OK	OK
585.1	0	<	Mistranslation	Accuracy	BAD
585.1	1	-	Word_order	OK	BAD
585.1	2	links	OK	OK	BAD
591.1	0	der	OK	OK	OK
591.1	1	standardbenutzername	OK	OK	OK
591.1	2	ist	OK	OK	BAD
591.1	3	administrator	OK	Accuracy	BAD
591.1	4	,	OK	OK	OK
591.1	5	das	Mistranslation	OK	BAD
591.1	6	kennwort	Mistranslation	Accuracy	BAD
591.1	7	.	OK	OK	OK
592.1	0	suchen	OK	OK	BAD
592.1	1	sie	OK	Accuracy	OK
592.1	2	im	Mistranslation	Accuracy	OK
592.1	3	verlauf	Mistranslation	Accuracy	BAD
592.1	4	zu	Mistranslation	OK	BAD
592.1	5	einer	OK	OK	OK
592.1	6	datei	OK	OK	OK
592.1	7	,	OK	OK	BAD
592.1	8	und	OK	OK	OK
592.1	9	klicken	OK	Accuracy	BAD
592.1	10	sie	Word_order	Accuracy	OK
592.1	11	mit	Function_words	Accuracy	OK
592.1	12	der	OK	OK	BAD
592.1	13	rechten	Morphology_(word_form)	Accuracy	OK
592.1	14	maustaste	OK	OK	BAD
592.1	15	auf	OK	Fluency	BAD
592.1	16	die	Mistranslation	Accuracy	BAD
592.1	17	datei	OK	OK	OK
592.1	18	zum	Mistranslation	OK	OK
592.1	19	erstellen	Style/register	OK	BAD
592.1	20	einer	Mistranslation	OK	OK
592.1	21	verknüpfung	OK	Fluency	OK
592.1	22	.	OK	OK	OK
593.1	0	autodesk	OK	OK	OK
593.1	1	fassen	OK	OK	OK
593.1	2	produktübersicht	OK	Fluency	OK
593.1	3	erhalten	Word_order	Accuracy	OK
593.1	4	sie	OK	OK	OK
593.1	5	eine	Agreement	Fluency	OK
593.1	6	einführung	Mistranslation	OK	BAD
593.1	7	in	OK	Fluency	BAD
593.1	8	die	OK	OK	OK
593.1	9	autodesk	OK	OK	OK
593.1	10	fassen	OK	OK	OK
593.1	11	und	OK	OK	OK
593.1	12	services	OK	OK	OK
593.1	13	.	OK	OK	OK
594.1	0	prüfung	OK	OK	BAD
594.1	1	importieren	OK	OK	OK
594.1	2	,	Mistranslation	OK	OK
594.1	3	ordnen	Mistranslation	OK	BAD
594.1	4	,	Mistranslation	Accuracy	BAD
594.1	5	hinzufügen	OK	OK	BAD
613.1	0	von	OK	OK	BAD
613.1	1	daten	OK	Accuracy	OK
613.1	2	zurück	Mistranslation	Accuracy	BAD
613.1	3	um	Mistranslation	Accuracy	BAD
613.1	4	zu	Mistranslation	Accuracy	BAD
613.1	5	hat	OK	OK	OK
613.1	6	seine	Agreement	Fluency	BAD
613.1	7	einschränkungen	OK	OK	OK
613.1	8	und	OK	OK	BAD
613.1	9	können	Agreement	OK	BAD
613.1	10	dazu	OK	OK	OK
613.1	11	führen	Word_order	Accuracy	OK
613.1	12	,	OK	OK	OK
613.1	13	dass	OK	OK	BAD
613.1	14	die	OK	OK	OK
613.1	15	daten	OK	OK	OK
613.1	16	verloren	OK	Accuracy	OK
613.1	17	.	OK	OK	OK
626.1	0	sie	OK	OK	OK
626.1	1	sind	OK	OK	OK
626.1	2	nicht	OK	OK	OK
626.1	3	berechtigt	OK	Accuracy	OK
626.1	4	,	OK	Accuracy	OK
626.1	5	zum	Word_order	Fluency	BAD
626.1	6	anzeigen	OK	OK	OK
626.1	7	oder	OK	Accuracy	OK
626.1	8	ändern	OK	Fluency	BAD
626.1	9	abonnements	Word_order	Accuracy	BAD
626.1	10	.	OK	OK	OK
652.1	0	„	OK	OK	OK
652.1	1	klicken	OK	OK	BAD
652.1	2	sie	Word_order	OK	OK
652.1	3	im	OK	OK	OK
652.1	4	bildschirm	OK	Accuracy	BAD
652.1	5	,	OK	OK	OK
652.1	6	gibt	OK	OK	OK
652.1	7	fünf	OK	Accuracy	BAD
652.1	8	links	Untranslated	OK	BAD
652.1	9	:	Capitalization	Accuracy	BAD
652.1	10	exportieren	OK	Accuracy	OK
652.1	11	,	OK	Fluency	OK
652.1	12	gemeinsam	OK	OK	BAD
652.1	13	nutzen	OK	OK	OK
652.1	14	,	OK	OK	OK
652.1	15	löschen	OK	OK	BAD
652.1	16	,	OK	OK	OK
652.1	17	drucken	OK	OK	OK
652.1	18	"	OK	OK	OK
652.1	19	und	OK	OK	OK
652.1	20	„	OK	OK	BAD
652.1	21	kopieren	OK	Accuracy	BAD
652.1	22	"	OK	OK	BAD
652.1	23	.	OK	OK	BAD
652.1	24	“	OK	OK	OK
657.1	0	4	OK	OK	OK
657.1	1	.	OK	OK	OK
657.1	2	flüssigkeiten	OK	Accuracy	OK
657.1	3	unter	Mistranslation	OK	OK
657.1	4	druck	Mistranslation	Fluency	BAD
657.1	5	folgen	Mistranslation	OK	OK
657.1	6	den	OK	OK	OK
657.1	7	weg	OK	OK	OK
657.1	8	des	OK	OK	OK
657.1	9	geringsten	OK	Accuracy	BAD
657.1	10	widerstands	Mistranslation	OK	BAD
657.1	11	.	OK	OK	OK
665.1	0	wenn	OK	OK	OK
665.1	1	sie	Mistranslation	OK	OK
665.1	2	service	Word_order	OK	BAD
665.1	3	advisor	OK	Accuracy	OK
665.1	4	™	Mistranslation	Accuracy	OK
665.1	5	nicht	OK	OK	OK
665.1	6	besitzen	OK	Fluency	BAD
665.1	7	,	OK	OK	OK
665.1	8	verwenden	OK	OK	OK
665.1	9	sie	OK	Accuracy	OK
665.1	10	das	Mistranslation	OK	OK
665.1	11	technische	OK	OK	BAD
665.1	12	handbuch	Mistranslation	Fluency	OK
665.1	13	für	OK	OK	OK
665.1	14	die	Mistranslation	OK	OK
665.1	15	maschine	OK	Accuracy	BAD
665.1	16	.	OK	Accuracy	OK
666.1	0	wenn	OK	OK	OK
666.1	1	die	OK	OK	BAD
666.1	2	exzenterlaufbahn	OK	Accuracy	BAD
666.1	3	sich	Mistranslation	OK	BAD
666.1	4	von	OK	OK	OK
666.1	5	den	OK	OK	OK
666.1	6	kolben	OK	Accuracy	BAD
666.1	7	entfernt	OK	OK	OK
666.1	8	,	OK	OK	OK
666.1	9	zurück	OK	OK	OK
666.1	10	drückt	OK	Accuracy	OK
666.1	11	die	OK	OK	OK
666.1	12	feder	OK	OK	OK
666.1	13	in	OK	OK	OK
666.1	14	den	OK	OK	OK
666.1	15	kolben	OK	Fluency	OK
666.1	16	diese	OK	Fluency	BAD
666.1	17	in	Style/register	Accuracy	BAD
666.1	18	die	OK	OK	BAD
666.1	19	exzenterlaufbahn	OK	OK	BAD
666.1	20	.	OK	Accuracy	OK
668.1	0	nun	Mistranslation	OK	OK
668.1	1	schauen	Grammar	Accuracy	OK
668.1	2	wir	Mistranslation	OK	OK
668.1	3	uns	OK	Fluency	BAD
668.1	4	als	OK	OK	OK
668.1	5	nächstes	Function_words	OK	OK
668.1	6	den	OK	Accuracy	BAD
668.1	7	mechanismus	OK	OK	OK
668.1	8	,	OK	OK	OK
668.1	9	der	OK	OK	OK
668.1	10	auf	OK	OK	BAD
668.1	11	,	OK	OK	OK
668.1	12	auch	OK	Accuracy	OK
668.1	13	bei	OK	Fluency	BAD
668.1	14	rotierender	OK	OK	OK
668.1	15	welle	OK	OK	OK
668.1	16	die	OK	OK	BAD
668.1	17	förderung	Mistranslation	Accuracy	OK
668.1	18	einstellen	Word_order	OK	OK
668.1	19	kann	Tense/aspect/mood	OK	OK
668.1	20	.	OK	OK	OK
681.1	0	sehen	OK	OK	OK
681.1	1	sie	Grammar	Fluency	BAD
681.1	2	die	Grammar	Fluency	BAD
681.1	3	videos	OK	OK	OK
681.1	4	unten	Mistranslation	Fluency	BAD
681.1	5	,	OK	OK	OK
681.1	6	um	OK	OK	OK
681.1	7	das	OK	OK	OK
681.1	8	gesamtbild	OK	OK	BAD
681.1	9	was	Mistranslation	OK	BAD
681.1	10	quickbooks	Mistranslation	OK	OK
681.1	11	online	Mistranslation	Accuracy	BAD
681.1	12	zu	Mistranslation	Accuracy	OK
681.1	13	bekommen	OK	OK	BAD
681.1	14	,	OK	OK	OK
681.1	15	dreht	Mistranslation	Accuracy	BAD
681.1	16	sich	Word_order	OK	BAD
681.1	17	alles	Mistranslation	Accuracy	BAD
681.1	18	um	Mistranslation	Fluency	BAD
681.1	19	!	Mistranslation	Accuracy	OK
696.1	0	dieses	OK	OK	OK
696.1	1	konto	OK	OK	OK
696.1	2	verfolgt	OK	OK	OK
696.1	3	steuerverbindlichkeiten	OK	Fluency	BAD
696.1	4	im	Mistranslation	Accuracy	OK
696.1	5	jahr	Mistranslation	Accuracy	OK
696.1	6	das	OK	OK	OK
696.1	7	einkommen	OK	OK	BAD
696.1	8	verdient	OK	Accuracy	OK
696.1	9	wird	OK	OK	OK
696.1	10	.	OK	OK	OK
698.1	0	eine	Agreement	OK	BAD
698.1	1	firma	Mistranslation	Fluency	OK
698.1	2	kann	OK	OK	OK
698.1	3	maximal	Spelling	Fluency	OK
698.1	4	50	OK	OK	OK
698.1	5	zeichen	Untranslated	Fluency	BAD
698.1	6	.	OK	OK	OK
700.1	0	wenn	OK	OK	OK
700.1	1	sie	OK	OK	OK
700.1	2	mit	Omission	OK	BAD
700.1	3	windows	Tense/aspect/mood	Accuracy	OK
700.1	4	vista	Word_order	Fluency	OK
700.1	5	arbeiten	OK	Fluency	BAD
700.1	6	,	OK	OK	OK
700.1	7	müssen	OK	OK	BAD
700.1	8	sie	Mistranslation	OK	OK
700.1	9	ihren	Word_order	OK	BAD
700.1	10	administrator-passwort	Mistranslation	Fluency	OK
700.1	11	ein	Mistranslation	OK	BAD
700.1	12	und	OK	Accuracy	BAD
700.1	13	klicken	Mistranslation	Fluency	BAD
700.1	14	sie	Word_order	Fluency	BAD
700.1	15	ok	Morphology_(word_form)	Fluency	OK
700.1	16	.	OK	OK	OK
704.1	0	autos	OK	Accuracy	OK
704.1	1	und	Mistranslation	OK	BAD
704.1	2	lastwagen	OK	OK	BAD
704.1	3	,	OK	Accuracy	OK
704.1	4	sollten	OK	Accuracy	OK
704.1	5	jedoch	Mistranslation	Accuracy	OK
704.1	6	mit	Mistranslation	Accuracy	OK
704.1	7	fahrzeug	OK	Accuracy	BAD
704.1	8	konten	Untranslated	Accuracy	OK
704.1	9	verfolgt	Mistranslation	OK	BAD
704.1	10	werden	Tense/aspect/mood	Accuracy	BAD
704.1	11	,	OK	OK	OK
704.1	12	statt	OK	OK	OK
704.1	13	.	OK	Accuracy	OK
706.1	0	durch	OK	OK	OK
706.1	1	paypal	OK	OK	OK
706.1	2	können	OK	OK	OK
706.1	3	sie	OK	OK	OK
706.1	4	dann	OK	OK	OK
706.1	5	ganz	OK	OK	OK
706.1	6	einfach	Grammar	Accuracy	BAD
706.1	7	die	OK	Fluency	OK
706.1	8	zur	Function_words	Fluency	BAD
706.1	9	verfügung	Terminology	OK	BAD
706.1	10	stehenden	OK	Fluency	BAD
706.1	11	mittel	Mistranslation	Accuracy	OK
706.1	12	zu	Word_order	Fluency	OK
706.1	13	ihrem	OK	OK	BAD
706.1	14	regulären	OK	OK	OK
706.1	15	bankkonto	Word_order	OK	OK
706.1	16	,	OK	OK	OK
706.1	17	so	OK	OK	OK
706.1	18	oft	Word_order	OK	OK
706.1	19	wie	OK	OK	OK
706.1	20	sie	Mistranslation	OK	OK
706.1	21	möchten	Mistranslation	Accuracy	OK
706.1	22	,	OK	OK	OK
706.1	23	derzeit	OK	OK	OK
706.1	24	kostenlos	OK	OK	OK
706.1	25	.	OK	OK	OK
716.1	0	die	OK	OK	OK
716.1	1	zoom-stufe	OK	OK	OK
716.1	2	ändern	OK	OK	OK
722.1	0	weisen	OK	OK	OK
722.1	1	sie	OK	OK	OK
722.1	2	eine	OK	OK	OK
722.1	3	bewertung	OK	OK	OK
722.1	4	über	OK	OK	OK
722.1	5	das	OK	OK	BAD
722.1	6	kontextmenü	OK	Accuracy	BAD
730.1	0	klicken	OK	Accuracy	OK
730.1	1	sie	OK	OK	OK
730.1	2	auf	OK	OK	OK
730.1	3	ansicht	OK	Fluency	BAD
730.1	4	vollbildansicht	Omission	Fluency	BAD
730.1	5	/	OK	OK	OK
730.1	6	vorschau	OK	OK	OK
730.1	7	,	OK	OK	OK
730.1	8	oder	OK	Accuracy	BAD
730.1	9	doppelklicken	OK	OK	OK
730.1	10	sie	OK	OK	OK
730.1	11	auf	OK	OK	OK
730.1	12	eine	Mistranslation	OK	BAD
730.1	13	miniaturansicht	OK	OK	BAD
730.1	14	,	OK	Accuracy	OK
730.1	15	um	Mistranslation	OK	OK
730.1	16	die	OK	OK	BAD
730.1	17	schnellüberprüfung	Mistranslation	OK	OK
730.1	18	zu	OK	Accuracy	OK
730.1	19	öffnen	OK	Fluency	BAD
730.1	20	.	OK	OK	OK
742.1	0	ziehen	OK	OK	OK
742.1	1	sie	OK	OK	OK
742.1	2	den	Mistranslation	OK	BAD
742.1	3	rahmen	OK	Accuracy	OK
745.1	0	zeigen	OK	Accuracy	OK
745.1	1	sie	OK	OK	OK
745.1	2	auf	OK	OK	OK
745.1	3	den	OK	OK	OK
745.1	4	rahmen	OK	OK	OK
745.1	5	,	OK	OK	OK
745.1	6	klicken	OK	OK	OK
745.1	7	sie	OK	OK	OK
745.1	8	auf	Mistranslation	Accuracy	OK
745.1	9	die	OK	OK	OK
745.1	10	schaltfläche	Word_order	OK	OK
745.1	11	"	Word_order	OK	OK
745.1	12	"	OK	OK	OK
749.1	0	klicken	OK	OK	BAD
749.1	1	sie	OK	OK	OK
749.1	2	in	OK	OK	OK
749.1	3	der	OK	OK	OK
749.1	4	namensauswahl	OK	OK	BAD
749.1	5	klicken	OK	OK	BAD
749.1	6	sie	OK	OK	BAD
749.1	7	auf	OK	OK	OK
749.1	8	einen	OK	Accuracy	OK
749.1	9	namen	OK	Fluency	OK
749.1	10	in	OK	Accuracy	OK
749.1	11	der	OK	OK	OK
749.1	12	lokalen	OK	Fluency	BAD
749.1	13	liste	OK	OK	OK
749.1	14	und	OK	OK	OK
749.1	15	klicken	OK	OK	OK
749.1	16	sie	OK	OK	OK
749.1	17	dann	Mistranslation	Fluency	OK
749.1	18	auf	OK	OK	OK
749.1	19	den	Word_order	OK	OK
749.1	20	entsprechenden	OK	OK	OK
749.1	21	namen	Mistranslation	Fluency	BAD
749.1	22	in	OK	Fluency	BAD
749.1	23	einem	OK	Accuracy	OK
749.1	24	oder	OK	Fluency	OK
749.1	25	mehreren	OK	OK	OK
749.1	26	sharing-website-listen	OK	OK	BAD
749.1	27	.	OK	OK	BAD
751.1	0	klicken	OK	OK	OK
751.1	1	sie	OK	OK	OK
751.1	2	auf	OK	OK	OK
751.1	3	die	OK	OK	OK
751.1	4	karte	OK	OK	OK
751.1	5	oder	OK	Fluency	OK
751.1	6	satellit	Word_order	Fluency	BAD
751.1	7	in	OK	OK	OK
751.1	8	der	OK	Fluency	OK
751.1	9	rechten	Mistranslation	OK	OK
751.1	10	oberen	Mistranslation	OK	BAD
751.1	11	ecke	OK	Accuracy	OK
751.1	12	des	OK	OK	OK
751.1	13	bereichs	Mistranslation	OK	OK
751.1	14	zuordnung	OK	OK	BAD
751.1	15	,	OK	OK	OK
751.1	16	und	OK	OK	OK
751.1	17	wählen	OK	Fluency	OK
751.1	18	sie	OK	OK	OK
751.1	19	die	OK	Accuracy	OK
751.1	20	gewünschten	OK	OK	OK
751.1	21	optionen	OK	OK	BAD
751.1	22	aus	OK	OK	OK
751.1	23	.	OK	OK	OK
753.1	0	tut	OK	OK	OK
753.1	1	uns	OK	OK	OK
753.1	2	leid	Grammar	Accuracy	BAD
753.1	3	,	OK	OK	OK
753.1	4	wir	OK	OK	OK
753.1	5	können	OK	OK	OK
753.1	6	nicht	Word_order	Fluency	BAD
753.1	7	diese	Word_order	OK	OK
753.1	8	datei	Word_order	OK	OK
753.1	9	hochladen	OK	Fluency	BAD
753.1	10	,	OK	Accuracy	OK
753.1	11	weil	OK	OK	OK
753.1	12	es	OK	Fluency	OK
753.1	13	mehr	Grammar	OK	BAD
753.1	14	als	Grammar	OK	BAD
753.1	15	250	OK	Fluency	OK
753.1	16	mb	OK	Fluency	BAD
753.1	17	groß	Mistranslation	OK	BAD
753.1	18	ist	Grammar	Fluency	OK
753.1	19	.	OK	OK	OK
772.1	0	aber	OK	OK	OK
772.1	1	auf	OK	OK	OK
772.1	2	der	OK	OK	OK
772.1	3	anderen	OK	OK	OK
772.1	4	seite	OK	OK	OK
772.1	5	des	OK	OK	OK
772.1	6	staates	OK	OK	OK
772.1	7	,	OK	OK	OK
772.1	8	das	OK	OK	OK
772.1	9	ist	OK	OK	OK
772.1	10	nicht	OK	OK	OK
772.1	11	der	OK	OK	OK
772.1	12	eindruck	OK	OK	OK
772.1	13	,	OK	OK	OK
772.1	14	viele	OK	OK	OK
772.1	15	menschen	OK	OK	OK
772.1	16	haben	OK	Accuracy	OK
772.1	17	von	OK	OK	BAD
772.1	18	ihrem	OK	OK	BAD
772.1	19	ehemaligen	OK	OK	OK
772.1	20	gouverneur	OK	OK	BAD
772.1	21	.	OK	Accuracy	OK
777.1	0	zehntausende	OK	OK	OK
777.1	1	familien	OK	OK	OK
777.1	2	sind	OK	OK	OK
777.1	3	durch	OK	OK	OK
777.1	4	das	Function_words	OK	OK
777.1	5	gewaltverbrechen	OK	OK	OK
777.1	6	in	OK	OK	OK
777.1	7	mexiko	OK	Fluency	OK
777.1	8	in	Word_order	Fluency	OK
777.1	9	den	Terminology	OK	BAD
777.1	10	letzten	Agreement	Accuracy	BAD
777.1	11	sechs	OK	OK	OK
777.1	12	jahren	OK	Fluency	OK
777.1	13	betroffen	OK	Accuracy	BAD
777.1	14	,	OK	OK	OK
777.1	15	und	OK	OK	OK
777.1	16	der	OK	OK	OK
777.1	17	neue	OK	OK	BAD
777.1	18	präsident	Function_words	Accuracy	OK
777.1	19	hat	OK	OK	BAD
777.1	20	versprochen	OK	OK	BAD
777.1	21	,	Mistranslation	OK	OK
777.1	22	sie	OK	OK	OK
777.1	23	einen	OK	OK	OK
777.1	24	priorität	Mistranslation	Accuracy	OK
777.1	25	während	Typography	Fluency	OK
777.1	26	seiner	Agreement	Fluency	OK
777.1	27	amtszeit	Mistranslation	Accuracy	OK
777.1	28	zu	Word_order	OK	OK
777.1	29	machen	OK	Accuracy	BAD
777.1	30	.	Terminology	OK	OK
787.1	0	ich	Word_order	OK	OK
787.1	1	spreche	OK	OK	OK
787.1	2	spanisch	OK	OK	BAD
787.1	3	,	Mistranslation	Accuracy	OK
787.1	4	gut	OK	OK	OK
787.1	5	genug	OK	OK	BAD
787.1	6	,	OK	OK	OK
787.1	7	um	Mistranslation	Accuracy	OK
787.1	8	jedes	OK	OK	BAD
787.1	9	ende	OK	OK	OK
787.1	10	eines	OK	Accuracy	BAD
787.1	11	interviews	Style/register	Fluency	BAD
787.1	12	auf	OK	OK	OK
787.1	13	dieser	OK	OK	OK
787.1	14	sprache	Word_order	OK	OK
787.1	15	zu	OK	OK	OK
787.1	16	behandeln	OK	OK	OK
787.1	17	.	OK	OK	OK
793.1	0	es	OK	OK	OK
793.1	1	ist	OK	OK	OK
793.1	2	in	OK	Fluency	BAD
793.1	3	die	OK	OK	OK
793.1	4	usa	Mistranslation	Accuracy	OK
793.1	5	.	OK	OK	OK
796.1	0	wir	OK	OK	OK
796.1	1	lieben	OK	OK	OK
796.1	2	,	OK	Accuracy	OK
796.1	3	dem	OK	OK	OK
796.1	4	mexikanischen	OK	OK	OK
796.1	5	band	OK	OK	BAD
796.1	6	,	OK	OK	OK
796.1	7	los	OK	OK	OK
796.1	8	tigres	Word_order	Fluency	OK
796.1	9	del	OK	OK	OK
796.1	10	norte	OK	OK	OK
796.1	11	,	OK	OK	OK
796.1	12	sondern	OK	Fluency	OK
796.1	13	auch	OK	OK	OK
796.1	14	bruce	Word_order	Fluency	BAD
796.1	15	springsteen	OK	Accuracy	BAD
796.1	16	zuzuhören	Mistranslation	Accuracy	BAD
796.1	17	.	OK	OK	OK
801.1	0	eine	Mistranslation	OK	OK
801.1	1	andere	OK	Accuracy	OK
801.1	2	runde	OK	Fluency	OK
801.1	3	des	OK	OK	OK
801.1	4	blutvergießens	Mistranslation	Accuracy	OK
801.1	5	weist	OK	OK	OK
801.1	6	darauf	OK	OK	OK
801.1	7	hin	OK	OK	OK
801.1	8	,	OK	OK	OK
801.1	9	dass	OK	OK	OK
801.1	10	jede	OK	OK	OK
801.1	11	solche	OK	OK	OK
801.1	12	hoffnung	OK	OK	OK
801.1	13	eitel	Mistranslation	Accuracy	BAD
801.1	14	ist	Word_order	OK	BAD
801.1	15	.	OK	OK	OK
823.1	0	und	OK	OK	OK
823.1	1	dann	OK	OK	OK
823.1	2	ist	OK	OK	OK
823.1	3	da	OK	OK	OK
823.1	4	noch	OK	OK	OK
823.1	5	die	OK	OK	OK
823.1	6	frage	OK	OK	OK
823.1	7	,	OK	OK	OK
823.1	8	wie	OK	OK	OK
823.1	9	wir	OK	OK	OK
823.1	10	langeweile	OK	OK	OK
823.1	11	eigentlich	OK	OK	OK
823.1	12	definieren	OK	OK	OK
823.1	13	.	OK	OK	OK
827.1	0	wir	OK	OK	OK
827.1	1	alle	OK	Accuracy	OK
827.1	2	erfahren	Mistranslation	Fluency	BAD
827.1	3	langeweile	OK	OK	OK
827.1	4	an	Word_order	Accuracy	OK
827.1	5	einigen	Mistranslation	Accuracy	BAD
827.1	6	punkten	Mistranslation	Accuracy	BAD
827.1	7	-	OK	OK	OK
827.1	8	meine	OK	OK	OK
827.1	9	flugverzögerung	OK	OK	OK
827.1	10	,	OK	OK	OK
827.1	11	ein	OK	OK	OK
827.1	12	brummender	Mistranslation	Fluency	OK
827.1	13	sprecher	OK	Fluency	OK
827.1	14	,	OK	OK	OK
827.1	15	ein	Mistranslation	OK	OK
827.1	16	besonders	OK	OK	OK
827.1	17	langweiliger	Mistranslation	Accuracy	BAD
827.1	18	film	OK	OK	OK
827.1	19	.	OK	OK	OK
832.1	0	doch	OK	OK	BAD
832.1	1	fernsehen	OK	OK	OK
832.1	2	kann	OK	OK	OK
832.1	3	zwar	OK	OK	OK
832.1	4	kurzfristig	OK	OK	OK
832.1	5	für	OK	OK	OK
832.1	6	glücksgefühle	OK	OK	OK
832.1	7	sorgen	OK	OK	OK
832.1	8	,	OK	OK	OK
832.1	9	diese	OK	OK	OK
832.1	10	verflüchtigen	OK	OK	OK
832.1	11	sich	OK	OK	OK
832.1	12	langfristig	OK	OK	OK
832.1	13	aber	OK	OK	OK
832.1	14	wieder	OK	OK	OK
832.1	15	.	OK	OK	OK
837.1	0	"	OK	OK	OK
837.1	1	nirgendwo	OK	OK	OK
837.1	2	wird	OK	Fluency	OK
837.1	3	es	OK	OK	OK
837.1	4	immer	OK	OK	OK
837.1	5	schwieriger	OK	OK	OK
837.1	6	,	Grammar	OK	BAD
837.1	7	ein	Agreement	OK	OK
837.1	8	palau	OK	OK	OK
837.1	9	haschischgeschäft	Grammar	Accuracy	OK
837.1	10	zu	OK	OK	OK
837.1	11	legen	OK	OK	OK
837.1	12	,	OK	OK	OK
837.1	13	denn	Word_order	Accuracy	BAD
837.1	14	in	OK	OK	OK
837.1	15	städtischen	Mistranslation	Fluency	BAD
837.1	16	gebieten	Word_order	OK	OK
837.1	17	,	OK	OK	OK
837.1	18	besonders	OK	Accuracy	OK
837.1	19	in	OK	OK	BAD
837.1	20	seattle	Word_order	OK	BAD
837.1	21	metropolitanen	OK	Fluency	BAD
837.1	22	"	OK	OK	OK
837.1	23	,	OK	OK	OK
837.1	24	sagte	OK	OK	BAD
837.1	25	ben	OK	Fluency	OK
837.1	26	livingston	OK	OK	OK
837.1	27	,	OK	OK	OK
837.1	28	ein	Mistranslation	Fluency	BAD
837.1	29	sprecher	OK	Accuracy	OK
837.1	30	das	OK	OK	BAD
837.1	31	zentrum	Grammar	OK	OK
837.1	32	für	OK	Accuracy	BAD
837.1	33	légale	OK	Fluency	OK
837.1	34	cannabis	OK	OK	OK
837.1	35	,	OK	OK	OK
837.1	36	eine	OK	OK	OK
837.1	37	neu	Mistranslation	Fluency	BAD
837.1	38	gebildete	Word_order	OK	BAD
837.1	39	forschungsgruppe	Word_order	Fluency	BAD
837.1	40	.	OK	OK	OK
844.1	0	nicht	OK	OK	OK
844.1	1	wegen	OK	OK	OK
844.1	2	meines	OK	OK	OK
844.1	3	eher	OK	OK	OK
844.1	4	outré	OK	Accuracy	OK
844.1	5	name	Agreement	OK	BAD
844.1	6	oder	OK	OK	OK
844.1	7	die	OK	OK	OK
844.1	8	tatsache	OK	OK	BAD
844.1	9	,	OK	OK	OK
844.1	10	dass	OK	OK	OK
844.1	11	ich	OK	OK	OK
844.1	12	aus	Mistranslation	Accuracy	OK
844.1	13	einer	OK	Fluency	OK
844.1	14	privatschule	Word_order	OK	BAD
844.1	15	kam	OK	Fluency	OK
844.1	16	.	OK	OK	OK
845.1	0	die	OK	OK	OK
845.1	1	konservativen	OK	OK	OK
845.1	2	mitglieder	Style/register	Accuracy	BAD
845.1	3	des	Fluency	Accuracy	BAD
845.1	4	corpus	Untranslated	Accuracy	BAD
845.1	5	christi	OK	OK	OK
845.1	6	college	Function_words	OK	OK
845.1	7	'	Typography	Fluency	BAD
845.1	8	s	Style/register	OK	OK
845.1	9	junior-aufenthaltsraum	OK	OK	OK
845.1	10	(	OK	OK	BAD
845.1	11	jcr	Omission	OK	OK
845.1	12	)	OK	Accuracy	OK
845.1	13	behaupten	Mistranslation	OK	BAD
845.1	14	,	OK	OK	OK
845.1	15	sie	OK	OK	OK
845.1	16	seien	OK	OK	BAD
845.1	17	"	OK	OK	BAD
845.1	18	oft	Mistranslation	Fluency	OK
845.1	19	aktiv	Function_words	OK	BAD
845.1	20	isoliert	Morphology_(word_form)	Fluency	OK
845.1	21	,	Mistranslation	OK	OK
845.1	22	persönlich	Mistranslation	Accuracy	OK
845.1	23	angegriffen	OK	Accuracy	OK
845.1	24	zu	OK	Fluency	OK
845.1	25	fühlen	OK	Fluency	OK
845.1	26	und	OK	OK	OK
845.1	27	unwillkommenen	OK	OK	OK
845.1	28	"	OK	OK	OK
845.1	29	wegen	Word_order	OK	OK
845.1	30	ihrer	OK	Fluency	BAD
845.1	31	politischen	OK	OK	OK
845.1	32	ansichten	Tense/aspect/mood	Fluency	OK
845.1	33	.	OK	Accuracy	OK
