QENN	1	2	0
QENN	2	2	0
QENN	3	1	0
QENN	4	1	0
QENN	5	2	0
QENN	6	2	0
QENN	7	2	0
QENN	8	2	0
QENN	9	2	0
QENN	10	2	0
QENN	11	2	0
QENN	12	2	0
QENN	13	2	0
QENN	14	2	0
QENN	15	2	0
QENN	16	3	0
QENN	17	2	0
QENN	18	2	0
QENN	19	1	0
QENN	20	1	0
QENN	21	2	0
QENN	22	2	0
QENN	23	3	0
QENN	24	2	0
QENN	25	2	0
QENN	26	2	0
QENN	27	2	0
QENN	28	2	0
QENN	29	2	0
QENN	30	2	0
QENN	31	1	0
QENN	32	2	0
QENN	33	2	0
QENN	34	2	0
QENN	35	3	0
QENN	36	2	0
QENN	37	1	0
QENN	38	1	0
QENN	39	2	0
QENN	40	2	0
QENN	41	3	0
QENN	42	1	0
QENN	43	1	0
QENN	44	2	0
QENN	45	2	0
QENN	46	2	0
QENN	47	2	0
QENN	48	1	0
QENN	49	3	0
QENN	50	2	0
QENN	51	2	0
QENN	52	2	0
QENN	53	1	0
QENN	54	2	0
QENN	55	2	0
QENN	56	1	0
QENN	57	1	0
QENN	58	2	0
QENN	59	2	0
QENN	60	2	0
QENN	61	2	0
QENN	62	2	0
QENN	63	1	0
QENN	64	1	0
QENN	65	2	0
QENN	66	2	0
QENN	67	2	0
QENN	68	2	0
QENN	69	2	0
QENN	70	1	0
QENN	71	1	0
QENN	72	2	0
QENN	73	1	0
QENN	74	2	0
QENN	75	2	0
QENN	76	2	0
QENN	77	2	0
QENN	78	2	0
QENN	79	2	0
QENN	80	2	0
QENN	81	2	0
QENN	82	2	0
QENN	83	1	0
QENN	84	1	0
QENN	85	1	0
QENN	86	1	0
QENN	87	1	0
QENN	88	2	0
QENN	89	2	0
QENN	90	2	0
QENN	91	1	0
QENN	92	2	0
QENN	93	2	0
QENN	94	2	0
QENN	95	2	0
QENN	96	2	0
QENN	97	2	0
QENN	98	1	0
QENN	99	3	0
QENN	100	1	0
QENN	101	2	0
QENN	102	2	0
QENN	103	2	0
QENN	104	2	0
QENN	105	1	0
QENN	106	1	0
QENN	107	2	0
QENN	108	2	0
QENN	109	2	0
QENN	110	2	0
QENN	111	3	0
QENN	112	2	0
QENN	113	1	0
QENN	114	2	0
QENN	115	2	0
QENN	116	2	0
QENN	117	2	0
QENN	118	2	0
QENN	119	3	0
QENN	120	2	0
QENN	121	2	0
QENN	122	1	0
QENN	123	1	0
QENN	124	1	0
QENN	125	1	0
QENN	126	1	0
QENN	127	1	0
QENN	128	1	0
QENN	129	3	0
QENN	130	1	0
QENN	131	2	0
QENN	132	2	0
QENN	133	1	0
QENN	134	2	0
QENN	135	1	0
QENN	136	2	0
QENN	137	2	0
QENN	138	2	0
QENN	139	2	0
QENN	140	1	0
QENN	141	1	0
QENN	142	1	0
QENN	143	2	0
QENN	144	1	0
QENN	145	2	0
QENN	146	2	0
QENN	147	2	0
QENN	148	2	0
QENN	149	1	0
QENN	150	1	0
QENN	151	2	0
QENN	152	2	0
QENN	153	1	0
QENN	154	1	0
QENN	155	2	0
QENN	156	2	0
QENN	157	2	0
QENN	158	2	0
QENN	159	2	0
QENN	160	2	0
QENN	161	2	0
QENN	162	2	0
QENN	163	2	0
QENN	164	2	0
QENN	165	2	0
QENN	166	2	0
QENN	167	2	0
QENN	168	2	0
QENN	169	1	0
QENN	170	1	0
QENN	171	1	0
QENN	172	3	0
QENN	173	2	0
QENN	174	2	0
QENN	175	3	0
QENN	176	2	0
QENN	177	2	0
QENN	178	2	0
QENN	179	2	0
QENN	180	2	0
QENN	181	1	0
QENN	182	1	0
QENN	183	3	0
QENN	184	1	0
QENN	185	1	0
QENN	186	1	0
QENN	187	2	0
QENN	188	2	0
QENN	189	2	0
QENN	190	2	0
QENN	191	2	0
QENN	192	1	0
QENN	193	2	0
QENN	194	1	0
QENN	195	2	0
QENN	196	2	0
QENN	197	2	0
QENN	198	1	0
QENN	199	3	0
QENN	200	2	0
QENN	201	2	0
QENN	202	2	0
QENN	203	2	0
QENN	204	2	0
QENN	205	2	0
QENN	206	1	0
QENN	207	2	0
QENN	208	2	0
QENN	209	2	0
QENN	210	2	0
QENN	211	2	0
QENN	212	3	0
QENN	213	2	0
QENN	214	2	0
QENN	215	2	0
QENN	216	2	0
QENN	217	2	0
QENN	218	2	0
QENN	219	2	0
QENN	220	1	0
QENN	221	2	0
QENN	222	2	0
QENN	223	3	0
QENN	224	3	0
QENN	225	2	0
QENN	226	2	0
QENN	227	2	0
QENN	228	1	0
QENN	229	2	0
QENN	230	2	0
QENN	231	2	0
QENN	232	1	0
QENN	233	2	0
QENN	234	1	0
QENN	235	1	0
QENN	236	1	0
QENN	237	1	0
QENN	238	2	0
QENN	239	3	0
QENN	240	1	0
QENN	241	1	0
QENN	242	2	0
QENN	243	2	0
QENN	244	2	0
QENN	245	2	0
QENN	246	1	0
QENN	247	2	0
QENN	248	1	0
QENN	249	1	0
QENN	250	2	0
QENN	251	2	0
QENN	252	2	0
QENN	253	2	0
QENN	254	1	0
QENN	255	2	0
QENN	256	2	0
QENN	257	2	0
QENN	258	2	0
QENN	259	2	0
QENN	260	2	0
QENN	261	2	0
QENN	262	2	0
QENN	263	1	0
QENN	264	1	0
QENN	265	2	0
QENN	266	1	0
QENN	267	2	0
QENN	268	2	0
QENN	269	3	0
QENN	270	2	0
QENN	271	2	0
QENN	272	2	0
QENN	273	1	0
QENN	274	1	0
QENN	275	2	0
QENN	276	2	0
QENN	277	2	0
QENN	278	1	0
QENN	279	1	0
QENN	280	1	0
QENN	281	2	0
QENN	282	2	0
QENN	283	1	0
QENN	284	2	0
QENN	285	1	0
QENN	286	2	0
QENN	287	3	0
QENN	288	2	0
QENN	289	1	0
QENN	290	2	0
QENN	291	1	0
QENN	292	1	0
QENN	293	2	0
QENN	294	2	0
QENN	295	2	0
QENN	296	2	0
QENN	297	2	0
QENN	298	2	0
QENN	299	1	0
QENN	300	1	0
QENN	301	2	0
QENN	302	2	0
QENN	303	1	0
QENN	304	2	0
QENN	305	1	0
QENN	306	2	0
QENN	307	2	0
QENN	308	2	0
QENN	309	2	0
QENN	310	2	0
QENN	311	2	0
QENN	312	2	0
QENN	313	2	0
QENN	314	1	0
QENN	315	2	0
QENN	316	2	0
QENN	317	2	0
QENN	318	2	0
QENN	319	2	0
QENN	320	3	0
QENN	321	2	0
QENN	322	1	0
QENN	323	3	0
QENN	324	1	0
QENN	325	3	0
QENN	326	2	0
QENN	327	2	0
QENN	328	2	0
QENN	329	2	0
QENN	330	1	0
QENN	331	1	0
QENN	332	1	0
QENN	333	2	0
QENN	334	1	0
QENN	335	1	0
QENN	336	1	0
QENN	337	1	0
QENN	338	2	0
QENN	339	2	0
QENN	340	2	0
QENN	341	1	0
QENN	342	1	0
QENN	343	3	0
QENN	344	1	0
QENN	345	2	0
QENN	346	2	0
QENN	347	2	0
QENN	348	2	0
QENN	349	1	0
QENN	350	2	0
QENN	351	2	0
QENN	352	2	0
QENN	353	1	0
QENN	354	1	0
QENN	355	2	0
QENN	356	1	0
QENN	357	2	0
QENN	358	1	0
QENN	359	2	0
QENN	360	2	0
QENN	361	2	0
QENN	362	2	0
QENN	363	3	0
QENN	364	2	0
QENN	365	3	0
QENN	366	2	0
QENN	367	2	0
QENN	368	2	0
QENN	369	1	0
QENN	370	1	0
QENN	371	2	0
QENN	372	2	0
QENN	373	3	0
QENN	374	2	0
QENN	375	2	0
QENN	376	2	0
QENN	377	2	0
QENN	378	1	0
QENN	379	2	0
QENN	380	2	0
QENN	381	2	0
QENN	382	2	0
QENN	383	2	0
QENN	384	1	0
QENN	385	2	0
QENN	386	2	0
QENN	387	1	0
QENN	388	1	0
QENN	389	1	0
QENN	390	2	0
QENN	391	1	0
QENN	392	2	0
QENN	393	2	0
QENN	394	1	0
QENN	395	2	0
QENN	396	1	0
QENN	397	2	0
QENN	398	2	0
QENN	399	2	0
QENN	400	2	0
QENN	401	2	0
QENN	402	2	0
QENN	403	2	0
QENN	404	2	0
QENN	405	2	0
QENN	406	2	0
QENN	407	2	0
QENN	408	2	0
QENN	409	2	0
QENN	410	3	0
QENN	411	1	0
QENN	412	2	0
QENN	413	1	0
QENN	414	1	0
QENN	415	2	0
QENN	416	1	0
QENN	417	2	0
QENN	418	2	0
QENN	419	2	0
QENN	420	2	0
QENN	421	2	0
QENN	422	2	0
QENN	423	1	0
QENN	424	2	0
QENN	425	1	0
QENN	426	2	0
QENN	427	3	0
QENN	428	1	0
QENN	429	1	0
QENN	430	1	0
QENN	431	1	0
QENN	432	2	0
QENN	433	1	0
QENN	434	2	0
QENN	435	1	0
QENN	436	3	0
QENN	437	2	0
QENN	438	2	0
QENN	439	2	0
QENN	440	2	0
QENN	441	2	0
QENN	442	3	0
QENN	443	2	0
QENN	444	1	0
QENN	445	2	0
QENN	446	3	0
QENN	447	2	0
QENN	448	2	0
QENN	449	1	0
QENN	450	2	0
